<?xml version="1.0" encoding="UTF-8" standalone="no"?>
<svg
   xmlns:dc="http://purl.org/dc/elements/1.1/"
   xmlns:cc="http://creativecommons.org/ns#"
   xmlns:rdf="http://www.w3.org/1999/02/22-rdf-syntax-ns#"
   xmlns:svg="http://www.w3.org/2000/svg"
   xmlns="http://www.w3.org/2000/svg"
   xmlns:sodipodi="http://sodipodi.sourceforge.net/DTD/sodipodi-0.dtd"
   xmlns:inkscape="http://www.inkscape.org/namespaces/inkscape"
   height="100%"
   width="100%"
   version="1.1"
   id="svg2"
   viewBox="0 0 512 512"
   inkscape:version="0.91 r"
   sodipodi:docname="address-book-insert.svg">
  <sodipodi:namedview
     pagecolor="#ffffff"
     bordercolor="#666666"
     borderopacity="1"
     objecttolerance="10"
     gridtolerance="10"
     guidetolerance="10"
     inkscape:pageopacity="0"
     inkscape:pageshadow="2"
     inkscape:window-width="1920"
     inkscape:window-height="1028"
     id="namedview8"
     showgrid="false"
     inkscape:zoom="0.4609375"
     inkscape:cx="256"
     inkscape:cy="836.33898"
     inkscape:window-x="0"
     inkscape:window-y="0"
     inkscape:window-maximized="1"
     inkscape:current-layer="svg2" />
  <metadata
     id="metadata508">
    <rdf:RDF>
      <cc:Work
         rdf:about="">
        <dc:format>image/svg+xml</dc:format>
        <dc:type
           rdf:resource="http://purl.org/dc/dcmitype/StillImage" />
      </cc:Work>
    </rdf:RDF>
  </metadata>
  <defs
     id="defs506" />
  <path
     id="path226"
     d="m 69.8125,68.53125 c -0.65073,0.0216 -1.37009,0.0625 -2.125,0.1875 C 64.67164,69.22047 61.07827,70.26652 56.78125,72.375 48.04362,76.25293 38.08942,87.92409 38.5,103.75 l 0,315.40625 c 0,23.36293 23.375,23.375 23.375,23.375 l 257.125,0 0,-46.1875 -29.9375,0 -1.59375,7.46875 -85.40624,0 -86.15626,0 -6.59375,-35.03125 c -8.5499,-45.57542 16.07084,-84.91457 44.5625,-87.625 9.49856,-0.90448 19.17899,2.59064 28.46875,11 18.39279,16.64507 20.29571,16.64507 38.6875,0 15.75523,-14.25776 33.27268,-13.25726 47.40625,-3.0625 l 50.53125,0 0,-64.65625 0,-1 0,-1 23.25,0 0,-106.96875 -23.375,0 0,-23.375 23.375,0 0,-23.375 -268.65625,0 c -0.36816,0.0173 -1.79778,-0.25239 -3.75,-0.1875 z M 72.28125,92 c 0.80448,-0.018 1.26394,0.14646 1.28125,0.0937 l 221.9375,0 0,23.375 -221.9375,0 c -0.15158,0 -1.09743,-0.55124 -2.21875,-0.75 -2.06795,-0.31522 -4.83773,-1.46584 -6.53125,-2.9375 -1.58911,-1.56503 -2.75078,-2.18977 -2.9375,-8.03125 0.38549,-7.5591 2.11529,-8.22106 5.09375,-10.21875 1.5068,-0.75892 3.03585,-1.21464 4.375,-1.4375 0.34458,-0.0612 0.66934,-0.0878 0.9375,-0.0937 z m 129.78126,61.40625 c 31.35067,0 56.18749,24.86708 56.18749,56.21875 0,31.35066 -24.83583,56.9375 -56.18749,56.9375 -31.35067,0 -56.93751,-25.58583 -56.93751,-56.9375 0,-31.35067 25.58583,-56.21875 56.9375,-56.21875 z m 136.96874,89.125 0,66.65625 -66.65625,-0.0312 -0.375,67.125 67.09375,0 0,66.71875 67.65625,0.46875 -0.15625,-67.15625 66.90625,0.0937 -0.375,-67.21875 -66.78125,-0.0312 -0.125,-66.625 -67.1875,0 z"
     style="fill:#E3E3E3" />
</svg>
