<?xml version="1.0" encoding="UTF-8" standalone="no"?>
<svg
   xmlns:dc="http://purl.org/dc/elements/1.1/"
   xmlns:cc="http://creativecommons.org/ns#"
   xmlns:rdf="http://www.w3.org/1999/02/22-rdf-syntax-ns#"
   xmlns:svg="http://www.w3.org/2000/svg"
   xmlns="http://www.w3.org/2000/svg"
   xmlns:sodipodi="http://sodipodi.sourceforge.net/DTD/sodipodi-0.dtd"
   xmlns:inkscape="http://www.inkscape.org/namespaces/inkscape"
   height="100%"
   width="100%"
   version="1.1"
   id="svg2"
   viewBox="0 0 512 512"
   inkscape:version="0.91 r"
   sodipodi:docname="bookmark-add.svg">
  <sodipodi:namedview
     pagecolor="#ffffff"
     bordercolor="#666666"
     borderopacity="1"
     objecttolerance="10"
     gridtolerance="10"
     guidetolerance="10"
     inkscape:pageopacity="0"
     inkscape:pageshadow="2"
     inkscape:window-width="647"
     inkscape:window-height="480"
     id="namedview8"
     showgrid="false"
     inkscape:zoom="0.4609375"
     inkscape:cx="256"
     inkscape:cy="256"
     inkscape:window-x="0"
     inkscape:window-y="0"
     inkscape:window-maximized="0"
     inkscape:current-layer="svg2" />
  <metadata
     id="metadata508">
    <rdf:RDF>
      <cc:Work
         rdf:about="">
        <dc:format>image/svg+xml</dc:format>
        <dc:type
           rdf:resource="http://purl.org/dc/dcmitype/StillImage" />
        <dc:title />
      </cc:Work>
    </rdf:RDF>
  </metadata>
  <defs
     id="defs506" />
  <path
     d="m 455.97622,211.05662 c 0.83219,2.5441 -85.16782,99.50514 -85.97622,102.02547 -0.8322,2.54408 11.7694,131.50844 9.62951,133.0777 -2.16366,1.56926 -120.95163,-50.23998 -123.61463,-50.23998 -2.66296,0 -121.42716,51.83302 -123.59083,50.26377 -2.16368,-1.56926 10.41415,-130.55741 9.58198,-133.07772 -0.83218,-2.5441 -86.8322,-99.48137 -86.00002,-102.00169 0.83218,-2.5441 127.37132,-30.43406 129.53499,-32.00333 2.16366,-1.56926 67.76335,-113.31935 70.45012,-113.31935 2.66298,0 68.31021,111.75009 70.47388,113.29558 2.16368,1.56925 128.7266,29.43545 129.535,31.97955"
     id="path244"
     style="fill:#E3E3E3;fill-rule:evenodd" />
</svg>
