<?xml version="1.0" encoding="UTF-8" standalone="no"?>
<svg
   xmlns:dc="http://purl.org/dc/elements/1.1/"
   xmlns:cc="http://creativecommons.org/ns#"
   xmlns:rdf="http://www.w3.org/1999/02/22-rdf-syntax-ns#"
   xmlns:svg="http://www.w3.org/2000/svg"
   xmlns="http://www.w3.org/2000/svg"
   xmlns:sodipodi="http://sodipodi.sourceforge.net/DTD/sodipodi-0.dtd"
   xmlns:inkscape="http://www.inkscape.org/namespaces/inkscape"
   height="100%"
   width="100%"
   version="1.1"
   id="svg2"
   viewBox="0 0 512 512"
   inkscape:version="0.91 r"
   sodipodi:docname="character-set.svg">
  <sodipodi:namedview
     pagecolor="#ffffff"
     bordercolor="#666666"
     borderopacity="1"
     objecttolerance="10"
     gridtolerance="10"
     guidetolerance="10"
     inkscape:pageopacity="0"
     inkscape:pageshadow="2"
     inkscape:window-width="647"
     inkscape:window-height="480"
     id="namedview8"
     showgrid="false"
     inkscape:zoom="0.4609375"
     inkscape:cx="256"
     inkscape:cy="256"
     inkscape:window-x="0"
     inkscape:window-y="0"
     inkscape:window-maximized="0"
     inkscape:current-layer="svg2" />
  <metadata
     id="metadata508">
    <rdf:RDF>
      <cc:Work
         rdf:about="">
        <dc:format>image/svg+xml</dc:format>
        <dc:type
           rdf:resource="http://purl.org/dc/dcmitype/StillImage" />
        <dc:title />
      </cc:Work>
    </rdf:RDF>
  </metadata>
  <defs
     id="defs506" />
  <path
     d="m 122.55417,122.99536 c -17.664,0 -27.46182,13.63544 -27.46182,30.26595 0,16.02623 10.30982,28.84722 27.46182,28.84722 16.89601,0 27.46182,-13.21508 27.46182,-29.55657 0,-16.65678 -9.79781,-29.55659 -27.46182,-29.55659 m -0.62836,14.42362 0.62836,0 c 8.23855,0 12.77673,7.46139 12.77673,15.13297 0,8.27584 -4.53818,14.42361 -12.77673,14.42361 -7.95927,0 -13.40509,-6.62068 -13.40509,-13.68798 0,-7.96058 4.51491,-15.8686 12.77673,-15.8686 m 251.60148,0 27.46183,44.68955 24.27345,0 26.81019,-44.68955 -23.62182,0 -14.6851,25.22161 -0.62836,0 -15.33673,-25.22163 -24.27346,0 m -271.40657,59.11318 -55.55201,192.47248 32.55855,0 14.68509,-54.77819 54.92364,0 15.9651,54.77819 33.83855,0 -56.20365,-192.47248 -40.23855,0 m 121.32075,0 0,95.86843 -19.8051,15.8686 0,25.22163 19.8051,-16.57795 0,72.09177 102.81892,0 0,-29.55658 -70.88874,0 0,-65.60248 33.21019,-25.22162 0,-25.95725 -33.21019,25.95724 0,-72.09179 -31.93018,0 m 199.8662,0 c -52.73601,0 -91.95056,37.54344 -91.95056,98.75842 0,56.53847 33.34983,93.71406 88.13383,93.71406 20.736,0 36.63127,-4.51886 44.05528,-8.64364 l -5.12,-26.66663 c -8.192,4.1248 -21.03855,6.48933 -33.83855,6.48933 -37.88801,0 -60.67201,-26.21998 -60.67201,-67.04747 0,-44.66329 25.60001,-68.49247 60.67201,-68.49247 14.336,0 25.64655,3.33661 33.83854,7.19867 l 7.02836,-26.6666 c -6.4,-3.57307 -21.41091,-8.64367 -42.14691,-8.64367 m -302.77822,28.1116 0.62837,0 c 2.56,11.11328 5.60872,24.38091 8.93673,36.04591 l 13.40509,47.57952 -44.05527,0 12.77672,-47.57954 c 3.072,-11.376 5.74836,-24.93262 8.30836,-36.0459"
     id="path94"
     style="fill:#E3E3E3" />
</svg>
