<?xml version="1.0" encoding="UTF-8" standalone="no"?>
<svg
   xmlns:dc="http://purl.org/dc/elements/1.1/"
   xmlns:cc="http://creativecommons.org/ns#"
   xmlns:rdf="http://www.w3.org/1999/02/22-rdf-syntax-ns#"
   xmlns:svg="http://www.w3.org/2000/svg"
   xmlns="http://www.w3.org/2000/svg"
   xmlns:sodipodi="http://sodipodi.sourceforge.net/DTD/sodipodi-0.dtd"
   xmlns:inkscape="http://www.inkscape.org/namespaces/inkscape"
   height="100%"
   width="100%"
   version="1.1"
   id="svg2"
   viewBox="0 0 512 512"
   inkscape:version="0.91 r"
   sodipodi:docname="go-jump-today.svg">
  <sodipodi:namedview
     pagecolor="#ffffff"
     bordercolor="#666666"
     borderopacity="1"
     objecttolerance="10"
     gridtolerance="10"
     guidetolerance="10"
     inkscape:pageopacity="0"
     inkscape:pageshadow="2"
     inkscape:window-width="640"
     inkscape:window-height="480"
     id="namedview8"
     showgrid="false"
     inkscape:zoom="0.4609375"
     inkscape:cx="256"
     inkscape:cy="256"
     inkscape:window-x="0"
     inkscape:window-y="0"
     inkscape:window-maximized="0"
     inkscape:current-layer="svg2" />
  <metadata
     id="metadata102">
    <rdf:RDF>
      <cc:Work
         rdf:about="">
        <dc:format>image/svg+xml</dc:format>
        <dc:type
           rdf:resource="http://purl.org/dc/dcmitype/StillImage" />
        <dc:title />
      </cc:Work>
    </rdf:RDF>
  </metadata>
  <defs
     id="defs100" />
  <path
     id="path3251"
     d="m 163.95712,56.00124 c -3.47465,-0.05 -6.99495,1.16775 -9.96963,3.79248 -5.42459,4.7495 -5.38501,4.60425 -5.65999,31.77641 -0.14996,15.74835 0.0285,25.92634 0.60334,28.50108 1.07486,5.02447 4.00992,8.88177 8.15959,10.83156 7.32423,3.42465 16.56465,0.33742 19.93927,-6.63685 1.64984,-3.39965 1.71916,-4.14714 1.494,-31.14432 l -0.25857,-27.69662 -2.21229,-2.93055 c -3.22466,-4.22456 -7.61751,-6.41447 -12.06699,-6.46446 l -0.0287,-0.0287 z m 184.16526,0.0287 c -4.44954,0.05 -8.8136,2.2399 -12.03825,6.46445 l -2.26975,2.93056 0,28.67348 0,28.61599 2.06863,3.16041 c 1.22487,1.8498 3.51281,3.79817 5.4876,4.79806 6.42433,3.17466 14.80539,1.4633 18.90496,-3.93614 3.34965,-4.39953 3.75142,-8.5657 3.47645,-35.13792 -0.27497,-27.17217 -0.23557,-27.02691 -5.65999,-31.77641 -2.97469,-2.62473 -6.495,-3.84248 -9.96965,-3.79248 z M 113.99403,87.03065 c -14.2487,0 -19.6651,0.33925 -23.21459,1.26416 -15.0985,3.92459 -27.44264,15.5224 -32.66707,30.77081 l -1.75259,5.05665 -0.22984,144.40166 c -0.2248,160.95822 -0.53785,150.24742 5.28649,162.07119 5.89945,11.94874 17.99301,21.25929 31.31671,24.13398 7.799,1.67483 318.2081,1.70375 326.18226,0.0287 13.67357,-2.8497 25.74458,-12.03525 31.71895,-24.13398 5.82441,-11.82377 5.45399,-1.11297 5.22904,-162.07119 l -0.17239,-144.40166 -1.72386,-5.05664 c -5.22446,-15.24841 -17.56865,-26.87496 -32.66707,-30.79955 -3.54964,-0.92491 -8.99481,-1.2067 -23.24333,-1.2067 l -18.61764,0 0,15.02627 c 0,8.27413 -0.32205,17.04103 -0.74701,19.56576 -1.97479,12.09875 -10.20312,21.72986 -21.57693,25.25449 -5.07447,1.54984 -13.15359,1.4849 -17.9281,-0.11493 -9.57399,-3.19966 -16.91945,-10.51638 -20.16911,-20.14038 -1.04989,-3.14966 -1.26416,-7.0609 -1.26416,-21.63439 l 0,-17.87063 -61.7715,0 -61.71404,0 0,17.87063 c 0,14.57349 -0.2754,18.48473 -1.35035,21.63439 -7.59922,22.52266 -35.84232,28.94169 -51.71568,11.69349 -4.02453,-4.37455 -6.9299,-10.40339 -7.92973,-16.57775 -0.40003,-2.49973 -0.75091,-11.34909 -0.77574,-19.62322 l 0,-15.02627 -18.56018,0 0.0575,-0.11492 z m -27.55296,107.13763 169.54122,0 169.56995,0 0,108.45927 c 0,77.01697 -0.23699,109.30871 -0.86192,111.53347 -1.12489,4.07457 -6.35475,9.36192 -10.42933,10.48679 -2.24977,0.62494 -47.06387,0.88694 -158.6522,0.86193 -132.03623,-0.025 -155.97379,-0.22806 -158.62347,-1.17797 -3.9497,-1.39984 -8.63992,-6.33235 -9.73979,-10.25694 -0.57498,-2.09979 -0.80446,-36.4301 -0.80446,-111.44728 l 0,-108.45927 z m 114.06179,60.16257 0,111.01632 110.98759,0 0,-111.01632 -110.98759,0 z"
     style="fill:#E3E3E3" />
</svg>
