<?xml version="1.0" encoding="UTF-8" standalone="no"?>
<svg
   xmlns:dc="http://purl.org/dc/elements/1.1/"
   xmlns:cc="http://creativecommons.org/ns#"
   xmlns:rdf="http://www.w3.org/1999/02/22-rdf-syntax-ns#"
   xmlns:svg="http://www.w3.org/2000/svg"
   xmlns="http://www.w3.org/2000/svg"
   xmlns:sodipodi="http://sodipodi.sourceforge.net/DTD/sodipodi-0.dtd"
   xmlns:inkscape="http://www.inkscape.org/namespaces/inkscape"
   height="100%"
   width="100%"
   version="1.1"
   id="svg2"
   viewBox="0 0 512 512"
   inkscape:version="0.91 r"
   sodipodi:docname="help-hint.svg">
  <sodipodi:namedview
     pagecolor="#ffffff"
     bordercolor="#666666"
     borderopacity="1"
     objecttolerance="10"
     gridtolerance="10"
     guidetolerance="10"
     inkscape:pageopacity="0"
     inkscape:pageshadow="2"
     inkscape:window-width="640"
     inkscape:window-height="480"
     id="namedview8"
     showgrid="false"
     inkscape:zoom="0.4609375"
     inkscape:cx="256"
     inkscape:cy="256"
     inkscape:window-x="0"
     inkscape:window-y="0"
     inkscape:window-maximized="0"
     inkscape:current-layer="svg2" />
  <metadata
     id="metadata102">
    <rdf:RDF>
      <cc:Work
         rdf:about="">
        <dc:format>image/svg+xml</dc:format>
        <dc:type
           rdf:resource="http://purl.org/dc/dcmitype/StillImage" />
        <dc:title />
      </cc:Work>
    </rdf:RDF>
  </metadata>
  <defs
     id="defs100" />
  <path
     d="m 256.01246,56 c -72.4534,0 -131.25615,56.27763 -131.25615,125.7559 0,35.72667 15.70073,67.70317 40.6269,90.62924 l 0,0.77504 c 5.47526,4.75022 11.12552,12.52558 15.62573,22.65106 3.90019,8.77542 6.20029,17.27581 7.02533,25.00117 l 0,13.27563 c 0,14.00065 11.80056,25.00117 25.77621,25.00117 l 85.15399,0 c 14.00066,0 25.00118,-11.00052 25.00118,-25.00117 l 0,-13.27563 c 0.82503,-7.72536 3.12514,-16.22575 7.02532,-25.00117 4.50021,-10.12548 10.15048,-17.92584 15.62573,-22.65106 l 0,-0.77504 C 371.54287,249.45907 387.24361,217.48257 387.24361,181.7559 387.24361,112.25263 328.44086,56 255.98746,56 m -5.46901,33.59532 a 10.003219,10.003219 0 0 1 0.78129,0 10.003219,10.003219 0 0 1 1.56257,19.53217 c -18.37587,2.30011 -34.0766,8.22539 -46.10216,18.75087 -12.00056,10.5255 -21.276,25.57621 -24.22613,50.77739 a 10.013394,10.013394 0 1 1 -19.53217,-2.34386 c 3.40016,-28.92635 14.50068,-50.00235 30.47643,-64.078 15.97575,-14.00066 36.12669,-20.05095 57.02767,-22.65107 M 316.13403,362.2456 198.1535,376.32126 a 9.0187012,9.0187012 0 0 0 1.56257,17.96959 L 317.6966,380.21519 a 8.9673952,8.9673952 0 0 0 7.03158,-4.68772 8.9673952,8.9673952 0 0 0 -8.59415,-13.28187 m 0,33.60158 -117.98053,13.27562 a 9.4079409,9.4079409 0 0 0 -5.46901,2.34386 9.4079409,9.4079409 0 0 0 7.03158,16.40702 L 317.6966,413.79802 a 9.0938512,9.0938512 0 0 0 -1.56257,-17.96959 m -22.65106,34.37661 -72.65341,7.82537 A 9.0938512,9.0938512 0 0 0 222.39214,456 l 72.6534,-7.82537 a 9.0938512,9.0938512 0 0 0 -1.56257,-17.96959"
     id="path92"
     style="fill:#E3E3E3;stroke:none" />
</svg>
