<?xml version="1.0" encoding="UTF-8" standalone="no"?>
<svg
   xmlns:dc="http://purl.org/dc/elements/1.1/"
   xmlns:cc="http://creativecommons.org/ns#"
   xmlns:rdf="http://www.w3.org/1999/02/22-rdf-syntax-ns#"
   xmlns:svg="http://www.w3.org/2000/svg"
   xmlns="http://www.w3.org/2000/svg"
   xmlns:sodipodi="http://sodipodi.sourceforge.net/DTD/sodipodi-0.dtd"
   xmlns:inkscape="http://www.inkscape.org/namespaces/inkscape"
   height="100%"
   width="100%"
   version="1.1"
   id="svg2"
   viewBox="0 0 512 512"
   inkscape:version="0.91 r"
   sodipodi:docname="stock_mail-filters-apply.svg">
  <sodipodi:namedview
     pagecolor="#ffffff"
     bordercolor="#666666"
     borderopacity="1"
     objecttolerance="10"
     gridtolerance="10"
     guidetolerance="10"
     inkscape:pageopacity="0"
     inkscape:pageshadow="2"
     inkscape:window-width="640"
     inkscape:window-height="480"
     id="namedview8"
     showgrid="false"
     inkscape:zoom="0.4609375"
     inkscape:cx="256"
     inkscape:cy="256"
     inkscape:window-x="0"
     inkscape:window-y="0"
     inkscape:window-maximized="0"
     inkscape:current-layer="svg2" />
  <metadata
     id="metadata133">
    <rdf:RDF>
      <cc:Work
         rdf:about="">
        <dc:format>image/svg+xml</dc:format>
        <dc:type
           rdf:resource="http://purl.org/dc/dcmitype/StillImage" />
        <dc:title />
      </cc:Work>
    </rdf:RDF>
  </metadata>
  <defs
     id="defs4" />
  <path
     id="path10878"
     d="m 104.06253,52.09375 c -30.91055,0 -55.96875,25.0582 -55.96875,55.96875 0,30.91055 25.0582,55.96875 55.96875,55.96875 30.91054,0 55.96875,-25.0582 55.96875,-55.96875 0,-30.91055 -25.05821,-55.96875 -55.96875,-55.96875 z m 151.9375,0 c -30.91055,0 -55.96875,25.0582 -55.96875,55.96875 0,30.91055 25.0582,55.96875 55.96875,55.96875 30.91054,0 55.96875,-25.0582 55.96875,-55.96875 0,-30.91055 -25.05821,-55.96875 -55.96875,-55.96875 z m 151.9375,0 c -30.91055,0 -55.96875,25.0582 -55.96875,55.96875 0,30.91055 25.0582,55.96875 55.96875,55.96875 30.91049,0 55.96869,-25.0582 55.96869,-55.96875 0,-30.91055 -25.05809,-55.96875 -55.96869,-55.96875 z m -227.90625,147.9375 c -30.91055,0 -55.96875,25.0582 -55.96875,55.96875 0,30.91049 25.0582,55.96875 55.96875,55.96875 30.91054,0 55.96875,-25.05826 55.96875,-55.96875 0,-30.91055 -25.05821,-55.96875 -55.96875,-55.96875 z m 151.9375,0 c -30.91055,0 -55.96875,25.0582 -55.96875,55.96875 0,30.91049 25.0582,55.96875 55.96875,55.96875 30.91054,0 55.96875,-25.05826 55.96875,-55.96875 0,-30.91055 -25.05821,-55.96875 -55.96875,-55.96875 z m -75.96875,147.9375 c -30.91055,0 -55.96875,25.0582 -55.96875,55.96875 0,30.91055 25.0582,55.96875 55.96875,55.96875 30.91054,0 55.96875,-25.0582 55.96875,-55.96875 0,-30.91055 -25.05821,-55.96875 -55.96875,-55.96875 z"
     style="fill:#E3E3E3;fill-opacity:1;stroke:none" />
</svg>
