<?xml version="1.0" encoding="UTF-8" standalone="no"?>
<svg
   xmlns:dc="http://purl.org/dc/elements/1.1/"
   xmlns:cc="http://creativecommons.org/ns#"
   xmlns:rdf="http://www.w3.org/1999/02/22-rdf-syntax-ns#"
   xmlns:svg="http://www.w3.org/2000/svg"
   xmlns="http://www.w3.org/2000/svg"
   xmlns:sodipodi="http://sodipodi.sourceforge.net/DTD/sodipodi-0.dtd"
   xmlns:inkscape="http://www.inkscape.org/namespaces/inkscape"
   height="100%"
   width="100%"
   version="1.1"
   id="svg2"
   viewBox="0 0 512 512"
   inkscape:version="0.91 r"
   sodipodi:docname="mail_reply.svg">
  <sodipodi:namedview
     pagecolor="#ffffff"
     bordercolor="#666666"
     borderopacity="1"
     objecttolerance="10"
     gridtolerance="10"
     guidetolerance="10"
     inkscape:pageopacity="0"
     inkscape:pageshadow="2"
     inkscape:window-width="640"
     inkscape:window-height="480"
     id="namedview8"
     showgrid="false"
     inkscape:zoom="0.4609375"
     inkscape:cx="256"
     inkscape:cy="256"
     inkscape:window-x="0"
     inkscape:window-y="0"
     inkscape:window-maximized="0"
     inkscape:current-layer="svg2" />
  <metadata
     id="metadata102">
    <rdf:RDF>
      <cc:Work
         rdf:about="">
        <dc:format>image/svg+xml</dc:format>
        <dc:type
           rdf:resource="http://purl.org/dc/dcmitype/StillImage" />
        <dc:title />
      </cc:Work>
    </rdf:RDF>
  </metadata>
  <defs
     id="defs100" />
  <path
     id="path1484"
     d="M 99.87987,81.09017 277.09721,236.8476 455.07274,81.09017 l -355.19286,0 z m -19.18535,16.87784 0,0.033 0,123.48516 c 18.36309,-10.97367 39.30702,-17.63603 62.13814,-17.63603 22.21738,0 42.60239,6.44427 60.62178,16.87785 l 7.68074,-9.19711 L 80.69452,97.96801 Z m 392.80539,0 -129.64952,113.56283 129.64952,145.76917 0,-259.332 z M 142.83266,222.24432 c -57.51969,0 -104.33275,46.81305 -104.33275,104.33275 0,57.51968 46.81306,104.33275 104.33275,104.33275 57.5197,0 104.33275,-46.81307 104.33275,-104.33275 0,-57.5197 -46.81305,-104.33275 -104.33275,-104.33275 z m 86.69673,5.37321 -6.1314,6.92256 c 25.65431,22.53651 42.1946,55.40898 42.1946,92.03698 0,17.50385 -4.06895,34.01915 -10.74644,49.11715 l 202.5341,0 -132.71521,-148.04372 -47.53486,42.1946 -47.60079,-42.22757 z m -108.1896,44.50213 0,32.9975 c 48.75548,0 86.51231,10.26472 108.1896,64.44566 -32.50367,-27.10274 -64.83503,-32.31924 -108.1896,-21.49288 l 0,32.9975 -65.20385,-54.49037 65.20385,-54.45741 z"
     style="fill:#E3E3E3" />
</svg>
