<?xml version="1.0" encoding="UTF-8" standalone="no"?>
<svg
   xmlns:dc="http://purl.org/dc/elements/1.1/"
   xmlns:cc="http://creativecommons.org/ns#"
   xmlns:rdf="http://www.w3.org/1999/02/22-rdf-syntax-ns#"
   xmlns:svg="http://www.w3.org/2000/svg"
   xmlns="http://www.w3.org/2000/svg"
   xmlns:sodipodi="http://sodipodi.sourceforge.net/DTD/sodipodi-0.dtd"
   xmlns:inkscape="http://www.inkscape.org/namespaces/inkscape"
   height="100%"
   width="100%"
   version="1.1"
   id="svg2"
   viewBox="0 0 512 512"
   inkscape:version="0.91 r"
   sodipodi:docname="view-media-playlist.svg">
  <sodipodi:namedview
     pagecolor="#ffffff"
     bordercolor="#666666"
     borderopacity="1"
     objecttolerance="10"
     gridtolerance="10"
     guidetolerance="10"
     inkscape:pageopacity="0"
     inkscape:pageshadow="2"
     inkscape:window-width="640"
     inkscape:window-height="480"
     id="namedview8"
     showgrid="false"
     inkscape:zoom="0.4609375"
     inkscape:cx="256"
     inkscape:cy="256"
     inkscape:window-x="0"
     inkscape:window-y="0"
     inkscape:window-maximized="0"
     inkscape:current-layer="svg2" />
  <metadata
     id="metadata133">
    <rdf:RDF>
      <cc:Work
         rdf:about="">
        <dc:format>image/svg+xml</dc:format>
        <dc:type
           rdf:resource="http://purl.org/dc/dcmitype/StillImage" />
        <dc:title />
      </cc:Work>
    </rdf:RDF>
  </metadata>
  <defs
     id="defs4" />
  <path
     id="path3364"
     d="m 51.40587,62.12452 0,45.5625 51.9375,0 0,-45.5625 -51.9375,0 z m 91.25,0 0,45.5625 308.75,0 0,-45.5625 -308.75,0 z m -91.25,85.5625 0,45.53125 51.9375,0 0,-45.53125 -51.9375,0 z m 91.25,0 0,45.53125 308.75,0 0,-45.53125 -308.75,0 z m 216.21875,81.8125 0,161.34375 c -9.00749,-5.41275 -20.82198,-8.78125 -33.90625,-8.78125 -28.0692,0 -50.84375,15.16132 -50.84375,33.90625 0,18.74494 22.77455,33.90625 50.84375,33.90625 28.06919,0 50.875,-15.16131 50.875,-33.90625 l 0,-135.59375 c 42.37925,-6.88646 67.79555,42.35645 84.75,67.78125 -10.59137,-118.65365 -84.75,-118.625 -84.75,-118.625 l 0,-0.0312 -16.96875,0 z m -307.46875,3.71875 0,45.5625 51.9375,0 0,-45.5625 -51.9375,0 z m 91.25,0 0,45.5625 98.5625,0 0,-45.5625 -98.5625,0 z m -91.25,85.5625 0,45.5625 51.9375,0 0,-45.5625 -51.9375,0 z m 91.25,0 0,45.5625 98.5625,0 0,-45.5625 -98.5625,0 z m -91.25,85.53125 0,45.5625 51.9375,0 0,-45.5625 -51.9375,0 z m 91.25,0 0,45.5625 98.5625,0 0,-45.5625 -98.5625,0 z"
     style="fill:#E3E3E3" />
</svg>
