<?xml version="1.0" encoding="UTF-8" standalone="no"?>
<svg
   xmlns:dc="http://purl.org/dc/elements/1.1/"
   xmlns:cc="http://creativecommons.org/ns#"
   xmlns:rdf="http://www.w3.org/1999/02/22-rdf-syntax-ns#"
   xmlns:svg="http://www.w3.org/2000/svg"
   xmlns="http://www.w3.org/2000/svg"
   xmlns:sodipodi="http://sodipodi.sourceforge.net/DTD/sodipodi-0.dtd"
   xmlns:inkscape="http://www.inkscape.org/namespaces/inkscape"
   height="100%"
   width="100%"
   version="1.1"
   id="svg2"
   viewBox="0 0 512 512"
   inkscape:version="0.91 r"
   sodipodi:docname="window-suppressed.svg">
  <sodipodi:namedview
     pagecolor="#ffffff"
     bordercolor="#666666"
     borderopacity="1"
     objecttolerance="10"
     gridtolerance="10"
     guidetolerance="10"
     inkscape:pageopacity="0"
     inkscape:pageshadow="2"
     inkscape:window-width="640"
     inkscape:window-height="480"
     id="namedview9"
     showgrid="false"
     inkscape:zoom="0.4609375"
     inkscape:cx="256"
     inkscape:cy="256"
     inkscape:window-x="0"
     inkscape:window-y="0"
     inkscape:window-maximized="0"
     inkscape:current-layer="svg2" />
  <metadata
     id="metadata133">
    <rdf:RDF>
      <cc:Work
         rdf:about="">
        <dc:format>image/svg+xml</dc:format>
        <dc:type
           rdf:resource="http://purl.org/dc/dcmitype/StillImage" />
        <dc:title />
      </cc:Work>
    </rdf:RDF>
  </metadata>
  <defs
     id="defs4" />
  <path
     style="fill:#E3E3E3;fill-rule:evenodd"
     id="path94"
     d="m 70.38517,70.00117 c -13.66048,2.88569 -23.8302,15.70838 -23.8302,30.76515 l 0,310.65353 c 0,17.15122 13.75356,30.76515 30.34627,30.76515 l 358.19754,0 c 16.42979,0 30.34625,-13.61393 30.34625,-30.76515 l 0,-310.65353 c 0,-17.22104 -13.84664,-30.76515 -30.34625,-30.76515 l -358.19754,0 c -2.07118,0 -4.56125,-0.41889 -6.4928,0 m 6.4928,78.02992 358.19754,0 0,263.36549 -358.19754,0 0,-263.36549" />
  <path
     id="path4992"
     d="m 214.34885,201.70519 -42.016,41.98795 -0.1965,-0.0842 41.7634,41.73536 -41.7634,41.76341 41.7634,41.76342 41.7354,-41.76342 41.76341,41.76342 42.46509,-41.76342 -42.01602,-42.01606 42.01602,-41.39855 -42.01602,-41.98795 -41.73538,41.73535 -41.7634,-41.73535 z"
     style="fill:#E3E3E3" />
</svg>
