<?xml version="1.0" encoding="UTF-8" standalone="no"?>
<!-- Created with Inkscape (http://www.inkscape.org/) -->

<svg
   xmlns:dc="http://purl.org/dc/elements/1.1/"
   xmlns:cc="http://creativecommons.org/ns#"
   xmlns:rdf="http://www.w3.org/1999/02/22-rdf-syntax-ns#"
   xmlns:svg="http://www.w3.org/2000/svg"
   xmlns="http://www.w3.org/2000/svg"
   xmlns:xlink="http://www.w3.org/1999/xlink"
   xmlns:sodipodi="http://sodipodi.sourceforge.net/DTD/sodipodi-0.dtd"
   xmlns:inkscape="http://www.inkscape.org/namespaces/inkscape"
   width="16"
   height="16"
   id="svg2"
   sodipodi:version="0.32"
   inkscape:version="0.47 r22583"
   version="1.0"
   sodipodi:docname="xfce-wm-unmaximize.svg"
   inkscape:output_extension="org.inkscape.output.svg.inkscape">
  <metadata
     id="metadata7">
    <rdf:RDF>
      <cc:Work
         rdf:about="">
        <dc:format>image/svg+xml</dc:format>
        <dc:type
           rdf:resource="http://purl.org/dc/dcmitype/StillImage" />
        <dc:title>Title</dc:title>
        <dc:creator>
          <cc:Agent>
            <dc:title>Olivier Fourdan</dc:title>
          </cc:Agent>
        </dc:creator>
      </cc:Work>
    </rdf:RDF>
  </metadata>
  <g
     inkscape:groupmode="layer"
     id="g20"
     inkscape:label="Button">
    <g
       style="display:inline"
       id="g1624"
       transform="translate(2,3)">
      <path
         id="rect2318"
         d="M 3,0 L 3,3 L 0,3 L 0,12 L 9,12 L 9,9 L 12,9 L 12,0 L 3,0 z M 3,7 L 6,7 L 6,9 L 3,9 L 3,7 z "
         style="opacity:0.33;fill:#1A1A1A;fill-opacity:1;stroke:#1A1A1A;stroke-width:0;stroke-linecap:butt;stroke-miterlimit:4;stroke-dasharray:none;stroke-opacity:1;display:inline" />
      <path
         id="rect2331"
         d="M 4,1 L 4,3 L 5,3 L 9,3 L 10,3 L 10,7 L 9,7 L 9,8 L 11,8 L 11,1 L 4,1 z "
         style="opacity:1;fill:#E3E3E3;fill-opacity:1;stroke:#1A1A1A;stroke-width:0;stroke-linecap:butt;stroke-miterlimit:4;stroke-dasharray:none;stroke-opacity:1" />
      <path
         id="rect2371"
         d="M 1,4 L 1,11 L 8,11 L 8,4 L 1,4 z M 2,6 L 7,6 L 7,10 L 2,10 L 2,6 z "
         style="opacity:1;fill:#E3E3E3;fill-opacity:1;stroke:#1A1A1A;stroke-width:0;stroke-linecap:butt;stroke-miterlimit:4;stroke-dasharray:none;stroke-opacity:1" />
    </g>
  </g>
</svg>
