<?xml version="1.0" encoding="UTF-8" standalone="no"?>
<svg
   xmlns:dc="http://purl.org/dc/elements/1.1/"
   xmlns:cc="http://creativecommons.org/ns#"
   xmlns:rdf="http://www.w3.org/1999/02/22-rdf-syntax-ns#"
   xmlns:svg="http://www.w3.org/2000/svg"
   xmlns="http://www.w3.org/2000/svg"
   xmlns:sodipodi="http://sodipodi.sourceforge.net/DTD/sodipodi-0.dtd"
   xmlns:inkscape="http://www.inkscape.org/namespaces/inkscape"
   viewBox="0 0 512 512"
   id="svg2"
   version="1.1"
   inkscape:version="0.91 r"
   sodipodi:docname="application-x-sharedlib.svg">
  <metadata
     id="metadata92">
    <rdf:RDF>
      <cc:Work
         rdf:about="">
        <dc:format>image/svg+xml</dc:format>
        <dc:type
           rdf:resource="http://purl.org/dc/dcmitype/StillImage" />
      </cc:Work>
    </rdf:RDF>
  </metadata>
  <defs
     id="defs90" />
  <sodipodi:namedview
     pagecolor="#ffffff"
     bordercolor="#666666"
     borderopacity="1"
     objecttolerance="10"
     gridtolerance="10"
     guidetolerance="10"
     inkscape:pageopacity="0"
     inkscape:pageshadow="2"
     inkscape:window-width="1920"
     inkscape:window-height="1028"
     id="namedview88"
     showgrid="false"
     inkscape:zoom="0.4609375"
     inkscape:cx="256"
     inkscape:cy="256"
     inkscape:window-x="0"
     inkscape:window-y="0"
     inkscape:window-maximized="1"
     inkscape:current-layer="svg2" />
  <g
     fill="#654641"
     id="g4">
    <text
       transform="scale(1.05082.95163)"
       font-size="84.77"
       y="221.3"
       x="681.22"
       font-family="Gentium Book Basic"
       line-height="125%"
       word-spacing="0"
       letter-spacing="0"
       id="text6">
      <tspan
         y="221.3"
         x="681.22"
         id="tspan8" />
    </text>
    <text
       transform="scale(4.21679.23715)"
       font-size="30.8"
       y="659.01"
       x="299.04"
       font-family="Arial"
       text-anchor="middle"
       id="text10" />
    <text
       transform="scale(1.05082.95163)"
       font-size="45.38"
       y="197.8"
       x="949.03"
       font-family="Gentium Book Basic"
       line-height="125%"
       word-spacing="0"
       letter-spacing="0"
       id="text12">
      <tspan
         y="197.8"
         x="949.03"
         id="tspan14" />
    </text>
    <text
       transform="scale(4.21679.23715)"
       font-size="16.488"
       y="671.14"
       x="305.7"
       font-family="Arial"
       text-anchor="middle"
       id="text16" />
    <text
       font-size="132.57"
       y="290.09"
       x="-25.07"
       font-family="Gentium Book Basic"
       line-height="125%"
       word-spacing="0"
       letter-spacing="0"
       id="text18">
      <tspan
         y="290.09"
         x="-25.07"
         id="tspan20" />
    </text>
    <text
       transform="scale(4.0128.2492)"
       font-size="48.17"
       y="805.88"
       x="195.94"
       font-family="Arial"
       text-anchor="middle"
       id="text22" />
  </g>
  <path
     style="fill:#E3E3E3;fill-opacity:1"
     d="m 48.233083,3.9915241 c -4.573417,0.004 -8.248047,3.12179 -8.248047,6.9999999 l 0,476.999996 c 0,3.881 3.679813,7 8.257813,7 l 428.529301,0 c 4.578,0 8.25781,-3.119 8.25781,-7 l 0,-476.999996 c 0,-3.8809999 -3.67981,-6.9999999 -8.25781,-6.9999999 l -428.529301,0 -0.0098,0 z m 203.964847,77.4999999 0.01,0.008 c 23.654,0 42.82422,13.27249 42.82422,29.646486 -0.085,5.026 -4.57789,12.66665 -6.58789,16.47265 -9.883,13.177 -9.88311,21.41057 -7.41211,26.35157 l 73.28906,0 c 14.6,0 26.35352,11.75351 26.35352,26.35351 l 0,79.88281 c 4.941,2.47 13.17751,2.46989 26.35351,-7.41211 2.649,-2.038 10.3617,-5.89989 16.4707,-6.58789 16.374,0 29.64649,19.17127 29.64649,42.82227 0,23.654 -13.27249,42.82422 -29.64649,42.82422 -5.026,-0.085 -12.6647,-4.57789 -16.4707,-6.58789 -13.177,-9.883 -21.41251,-9.88311 -26.35351,-7.41211 l 0,73.29101 c 0,14.6 -11.75352,26.35352 -26.35352,26.35352 l -46.94141,0 c -2.47,-4.941 -2.46989,-13.17752 7.41211,-26.35352 2.008,-3.806 6.50289,-11.4407 6.58789,-16.4707 0,-16.374 -19.17126,-29.64844 -42.82226,-29.64844 -23.654,0 -42.82422,13.27444 -42.82422,29.64844 0.688,6.109 4.54989,13.8227 6.58789,16.4707 9.883,13.177 9.88311,21.41252 7.41211,26.35352 l -106.24023,0 c -14.60001,0 -26.35353,-11.75352 -26.35353,-26.35352 l 0,-86.4707 c 4.941,-2.47 13.17752,-2.46989 26.35353,7.41211 3.80599,2.008 11.4407,6.50289 16.4707,6.58789 16.374,0 29.64648,-19.17322 29.64648,-42.82422 0,-23.654 -13.27248,-42.82422 -29.64648,-42.82422 -6.109,0.688 -13.82271,4.54989 -16.4707,6.58789 -13.17701,9.883 -21.41253,9.88311 -26.35353,7.41211 l 0,-66.70898 c 0,-14.6 11.75353,-26.35352 26.35353,-26.35352 l 79.88085,0 c 2.47,-4.941 2.4699,-13.17751 -7.41211,-26.35351 -2.038,-2.649 -5.89989,-10.36171 -6.58789,-16.47071 0,-16.373996 19.17322,-29.646476 42.82422,-29.646476 z"
     id="path44"
     inkscape:connector-curvature="0" />
  <g
     fill="#654641"
     id="g52">
    <text
       transform="scale(1.05082.95163)"
       font-size="84.77"
       y="185.78"
       x="119.84"
       font-family="Gentium Book Basic"
       line-height="125%"
       word-spacing="0"
       letter-spacing="0"
       id="text54">
      <tspan
         y="185.78"
         x="119.84"
         id="tspan56" />
    </text>
    <text
       transform="scale(4.21679.23715)"
       font-size="30.8"
       y="516.46"
       x="159.14"
       font-family="Arial"
       text-anchor="middle"
       id="text58" />
    <text
       transform="scale(1.05082.95163)"
       font-size="45.38"
       y="162.28"
       x="387.65"
       font-family="Gentium Book Basic"
       line-height="125%"
       word-spacing="0"
       letter-spacing="0"
       id="text60">
      <tspan
         y="162.28"
         x="387.65"
         id="tspan62" />
    </text>
    <text
       transform="scale(4.21679.23715)"
       font-size="16.488"
       y="528.59"
       x="165.81"
       font-family="Arial"
       text-anchor="middle"
       id="text64" />
    <text
       font-size="132.57"
       y="256.28"
       x="-614.98"
       font-family="Gentium Book Basic"
       line-height="125%"
       word-spacing="0"
       letter-spacing="0"
       id="text66">
      <tspan
         y="256.28"
         x="-614.98"
         id="tspan68" />
    </text>
    <text
       transform="scale(4.0128.2492)"
       font-size="48.17"
       y="670.22"
       x="48.929"
       font-family="Arial"
       text-anchor="middle"
       id="text70" />
  </g>
</svg>
