<svg xmlns="http://www.w3.org/2000/svg" width="48" height="48">
<defs>
<defs
     id="defs4291">
  </defs>
  <path
     id="path-main"
       d="M 16.25 8.875 C 11.681578 8.875 8.40625 11.624501 8.40625 16.09375 L 8.40625 20 L 7.125 20 C 5.8197372 20 5.15625 20.659291 5.15625 21.96875 L 5.15625 33.09375 C 5.15625 33.735598 5.8197372 35.0625 7.125 35.0625 L 9.96875 35.0625 C 10.42431 36.509712 11.842015 37.488963 13.40625 37.3125 C 14.71425 37.164943 15.74904 36.24021 16.125 35.0625 L 26.28125 35.0625 C 27.335891 35.0563 28 33.735597 28 33.09375 L 28 21.96875 C 28 20.659291 27.336513 20 26.03125 20 L 24.71875 20 L 24.71875 16.09375 C 24.71875 11.510631 21.474674 8.875 16.90625 8.875 L 16.25 8.875 z M 16.25 12.15625 L 16.90625 12.15625 C 21.474674 12.15625 21.46875 16.06554 21.46875 17.375 L 21.46875 20 L 11.6875 20 L 11.6875 17.375 C 11.6875 16.06554 11.681578 12.15625 16.25 12.15625 z M 33.84375 38.0625 C 32.978314 38.0625 32.28125 38.759564 32.28125 39.625 C 32.28125 40.490436 32.978314 41.1875 33.84375 41.1875 C 34.709186 41.1875 35.4375 40.490436 35.4375 39.625 C 35.4375 38.759564 34.709186 38.0625 33.84375 38.0625 z M 22.03125 40.03125 C 20.78027 40.172374 19.890126 41.31152 20.03125 42.5625 C 20.172374 43.81348 21.31152 44.703624 22.5625 44.5625 C 23.81348 44.421376 24.703624 43.28223 24.5625 42.03125 C 24.421376 40.78027 23.28223 39.890126 22.03125 40.03125 z "
/>
</defs>

<use id="1" style="fill:#E3E3E3" xlink:href="#path-main" />



</svg>
