<?xml version="1.0" encoding="UTF-8" standalone="no"?>
<svg
   xmlns:dc="http://purl.org/dc/elements/1.1/"
   xmlns:cc="http://creativecommons.org/ns#"
   xmlns:rdf="http://www.w3.org/1999/02/22-rdf-syntax-ns#"
   xmlns:svg="http://www.w3.org/2000/svg"
   xmlns="http://www.w3.org/2000/svg"
   xmlns:sodipodi="http://sodipodi.sourceforge.net/DTD/sodipodi-0.dtd"
   xmlns:inkscape="http://www.inkscape.org/namespaces/inkscape"
   height="512"
   viewBox="0 0 512 512"
   width="512"
   version="1.1"
   id="svg2"
   inkscape:version="0.91 r13725"
   sodipodi:docname="akonaditray.svg">
  <defs
     id="defs43" />
  <sodipodi:namedview
     pagecolor="#ffffff"
     bordercolor="#666666"
     borderopacity="1"
     objecttolerance="10"
     gridtolerance="10"
     guidetolerance="10"
     inkscape:pageopacity="0"
     inkscape:pageshadow="2"
     inkscape:window-width="1920"
     inkscape:window-height="1012"
     id="namedview41"
     showgrid="false"
     inkscape:zoom="1.4962463"
     inkscape:cx="256"
     inkscape:cy="256"
     inkscape:window-x="0"
     inkscape:window-y="13"
     inkscape:window-maximized="1"
     inkscape:current-layer="svg2" />
  <metadata
     id="metadata80">
    <rdf:RDF>
      <cc:Work
         rdf:about="">
        <dc:format>image/svg+xml</dc:format>
        <dc:type
           rdf:resource="http://purl.org/dc/dcmitype/StillImage" />
      </cc:Work>
    </rdf:RDF>
  </metadata>
  <text
     id="text20"
     font-size="129.23"
     line-height="125%"
     y="228.058"
     x="793.10583"
     word-spacing="0"
     letter-spacing="0"
     sodipodi:linespacing="125%"
     style="font-size:146.54631042px;line-height:125%;font-family:'Gentium Book Basic';letter-spacing:0;word-spacing:0">
    <tspan
       id="tspan22"
       y="228.058"
       x="793.10583" />
  </text>
  <text
     id="text24"
     font-size="46.954"
     transform="scale(4.0128205,0.24920128)"
     y="519.21075"
     x="421.1319"
     style="font-size:53.2453804px;font-family:Arial;text-anchor:middle" />
  <text
     id="text26"
     font-size="129.23"
     line-height="125%"
     y="137.33832"
     x="1452.2638"
     word-spacing="0"
     letter-spacing="0"
     sodipodi:linespacing="125%"
     style="font-size:146.54631042px;line-height:125%;font-family:'Gentium Book Basic';letter-spacing:0;word-spacing:0">
    <tspan
       id="tspan28"
       y="137.33832"
       x="1452.2638" />
  </text>
  <text
     id="text30"
     font-size="46.954"
     transform="scale(4.0128205,0.24920128)"
     y="155.16583"
     x="585.39038"
     style="font-size:53.2453804px;font-family:Arial;text-anchor:middle" />
  <text
     id="text32"
     font-size="129.23"
     line-height="125%"
     y="-68.21096"
     x="237.09615"
     word-spacing="0"
     letter-spacing="0"
     sodipodi:linespacing="125%"
     style="font-size:146.54631042px;line-height:125%;font-family:'Gentium Book Basic';letter-spacing:0;word-spacing:0">
    <tspan
       id="tspan34"
       y="-68.21096"
       x="237.09615" />
  </text>
  <text
     id="text36"
     font-size="46.954"
     transform="scale(4.0128205,0.24920128)"
     y="-669.65338"
     x="282.56961"
     style="font-size:53.2453804px;font-family:Arial;text-anchor:middle" />
  <text
     id="text38"
     font-size="129.23"
     line-height="125%"
     y="-313.68597"
     x="1482.2806"
     word-spacing="0"
     letter-spacing="0"
     sodipodi:linespacing="125%"
     style="font-size:146.54631042px;line-height:125%;font-family:'Gentium Book Basic';letter-spacing:0;word-spacing:0">
    <tspan
       id="tspan40"
       y="-313.68597"
       x="1482.2806" />
  </text>
  <text
     id="text42"
     font-size="46.954"
     transform="scale(4.0128205,0.24920128)"
     y="-1654.7168"
     x="592.87469"
     style="font-size:53.2453804px;font-family:Arial;text-anchor:middle" />
  <text
     id="text44"
     font-size="129.23"
     line-height="125%"
     y="-404.41699"
     x="2141.4385"
     word-spacing="0"
     letter-spacing="0"
     sodipodi:linespacing="125%"
     style="font-size:146.54631042px;line-height:125%;font-family:'Gentium Book Basic';letter-spacing:0;word-spacing:0">
    <tspan
       id="tspan46"
       y="-404.41699"
       x="2141.4385" />
  </text>
  <text
     id="text48"
     font-size="46.954"
     transform="scale(4.0128205,0.24920128)"
     y="-2018.7729"
     x="757.13324"
     style="font-size:53.2453804px;font-family:Arial;text-anchor:middle" />
  <text
     id="text50"
     font-size="129.23"
     line-height="125%"
     y="-940.11682"
     x="1700.178"
     word-spacing="0"
     letter-spacing="0"
     sodipodi:linespacing="125%"
     style="font-size:146.54631042px;line-height:125%;font-family:'Gentium Book Basic';letter-spacing:0;word-spacing:0">
    <tspan
       id="tspan52"
       y="-940.11682"
       x="1700.178" />
  </text>
  <text
     id="text54"
     font-size="46.954"
     transform="scale(4.0128205,0.24920128)"
     y="-4168.4331"
     x="647.17017"
     style="font-size:53.2453804px;font-family:Arial;text-anchor:middle" />
  <text
     id="text56"
     font-size="129.23"
     line-height="125%"
     y="-1030.8364"
     x="2359.3245"
     word-spacing="0"
     letter-spacing="0"
     sodipodi:linespacing="125%"
     style="font-size:146.54631042px;line-height:125%;font-family:'Gentium Book Basic';letter-spacing:0;word-spacing:0">
    <tspan
       id="tspan58"
       y="-1030.8364"
       x="2359.3245" />
  </text>
  <text
     id="text60"
     font-size="46.954"
     transform="scale(4.0128205,0.24920128)"
     y="-4532.478"
     x="811.42871"
     style="font-size:53.2453804px;font-family:Arial;text-anchor:middle" />
  <g
     id="g62"
     font-size="208.33"
     line-height="125%"
     word-spacing="0"
     letter-spacing="0"
     transform="matrix(1.1339961,0,0,1.1339961,-34.303141,-34.303342)"
     style="font-size:208.33000183px;line-height:125%;font-family:'Gentium Book Basic';letter-spacing:0;word-spacing:0">
    <text
       id="text64"
       y="535.94"
       x="277.98999">
      <tspan
         id="tspan66"
         y="535.94"
         x="277.98999" />
    </text>
    <text
       id="text68"
       y="470.64001"
       x="-1767.8199">
      <tspan
         id="tspan70"
         y="470.64001"
         x="-1767.8199" />
    </text>
  </g>
  <text
     id="text72"
     font-size="75.7"
     transform="scale(4.0128205,0.24920128)"
     y="1365.6777"
     x="-147.81374"
     style="font-size:85.84306335px;font-family:Arial;text-anchor:middle" />
  <path
     id="path74"
     d="m 255.99987,86.319826 c -56.04209,0 -105.03072,30.149554 -131.75901,75.047864 -6.28121,10.55183 -11.29687,21.90994 -14.92226,33.89287 l 147.37414,43.60896 -186.610404,0 c -0.0011,0.29257 0,0.60329 0,0.89699 0,102.68335 83.235314,185.91866 185.918664,185.91866 102.68335,0 185.91866,-83.23531 185.91866,-185.91866 0,-0.29257 0.001,-0.60329 0,-0.89699 l -32.67836,0 c -0.13155,-28.32609 -7.96066,-54.78335 -21.48696,-77.4973 -26.72489,-44.8949 -75.71352,-75.047858 -131.75901,-75.047858"
     inkscape:connector-curvature="0"
     style="fill:#E3E3E3;fill-rule:evenodd" />
</svg>
