<?xml version="1.0" encoding="UTF-8" standalone="no"?>
<svg
   xmlns:dc="http://purl.org/dc/elements/1.1/"
   xmlns:cc="http://creativecommons.org/ns#"
   xmlns:rdf="http://www.w3.org/1999/02/22-rdf-syntax-ns#"
   xmlns:svg="http://www.w3.org/2000/svg"
   xmlns="http://www.w3.org/2000/svg"
   xmlns:sodipodi="http://sodipodi.sourceforge.net/DTD/sodipodi-0.dtd"
   xmlns:inkscape="http://www.inkscape.org/namespaces/inkscape"
   version="1.1"
   width="512"
   height="512"
   viewBox="0 0 512 512"
   id="svg2"
   inkscape:version="0.91 r"
   sodipodi:docname="applications-puzzles.svg">
  <defs
     id="defs39" />
  <sodipodi:namedview
     pagecolor="#ffffff"
     bordercolor="#666666"
     borderopacity="1"
     objecttolerance="10"
     gridtolerance="10"
     guidetolerance="10"
     inkscape:pageopacity="0"
     inkscape:pageshadow="2"
     inkscape:window-width="643"
     inkscape:window-height="480"
     id="namedview37"
     showgrid="false"
     inkscape:zoom="0.4609375"
     inkscape:cx="256"
     inkscape:cy="256"
     inkscape:window-x="0"
     inkscape:window-y="0"
     inkscape:window-maximized="0"
     inkscape:current-layer="svg2" />
  <metadata
     id="metadata72">
    <rdf:RDF>
      <cc:Work
         rdf:about="">
        <dc:format>image/svg+xml</dc:format>
        <dc:type
           rdf:resource="http://purl.org/dc/dcmitype/StillImage" />
      </cc:Work>
    </rdf:RDF>
  </metadata>
  <text
     x="729.64"
     y="231.36"
     id="text20"
     font-family="Gentium Book Basic"
     word-spacing="0"
     line-height="125%"
     letter-spacing="0"
     font-size="129.23">
    <tspan
       x="729.64"
       y="231.36"
       id="tspan22" />
  </text>
  <text
     x="378.91"
     y="579.25"
     transform="scale(4.0128,0.2492)"
     id="text24"
     font-family="Arial"
     text-anchor="middle"
     font-size="46.954" />
  <text
     x="1310.91"
     y="151.36"
     id="text26"
     font-family="Gentium Book Basic"
     word-spacing="0"
     line-height="125%"
     letter-spacing="0"
     font-size="129.23">
    <tspan
       x="1310.91"
       y="151.36"
       id="tspan28" />
  </text>
  <text
     x="523.76"
     y="258.22"
     transform="scale(4.0128,0.2492)"
     id="text30"
     font-family="Arial"
     text-anchor="middle"
     font-size="46.954" />
  <text
     x="239.33"
     y="-29.901"
     id="text32"
     font-family="Gentium Book Basic"
     word-spacing="0"
     line-height="125%"
     letter-spacing="0"
     font-size="129.23">
    <tspan
       x="239.33"
       y="-29.901"
       id="tspan34" />
  </text>
  <text
     x="256.72"
     y="-469.14"
     transform="scale(4.0128,0.2492)"
     id="text36"
     font-family="Arial"
     text-anchor="middle"
     font-size="46.954" />
  <text
     x="1337.38"
     y="-246.37"
     id="text38"
     font-family="Gentium Book Basic"
     word-spacing="0"
     line-height="125%"
     letter-spacing="0"
     font-size="129.23">
    <tspan
       x="1337.38"
       y="-246.37"
       id="tspan40" />
  </text>
  <text
     x="530.36"
     y="-1337.81"
     transform="scale(4.0128,0.2492)"
     id="text42"
     font-family="Arial"
     text-anchor="middle"
     font-size="46.954" />
  <text
     x="1918.65"
     y="-326.38"
     id="text44"
     font-family="Gentium Book Basic"
     word-spacing="0"
     line-height="125%"
     letter-spacing="0"
     font-size="129.23">
    <tspan
       x="1918.65"
       y="-326.38"
       id="tspan46" />
  </text>
  <text
     x="675.21"
     y="-1658.85"
     transform="scale(4.0128,0.2492)"
     id="text48"
     font-family="Arial"
     text-anchor="middle"
     font-size="46.954" />
  <text
     x="1529.53"
     y="-798.78"
     id="text50"
     font-family="Gentium Book Basic"
     word-spacing="0"
     line-height="125%"
     letter-spacing="0"
     font-size="129.23">
    <tspan
       x="1529.53"
       y="-798.78"
       id="tspan52" />
  </text>
  <text
     x="578.24"
     y="-3554.51"
     transform="scale(4.0128,0.2492)"
     id="text54"
     font-family="Arial"
     text-anchor="middle"
     font-size="46.954" />
  <text
     x="2110.79"
     y="-878.78"
     id="text56"
     font-family="Gentium Book Basic"
     word-spacing="0"
     line-height="125%"
     letter-spacing="0"
     font-size="129.23">
    <tspan
       x="2110.79"
       y="-878.78"
       id="tspan58" />
  </text>
  <text
     x="723.09"
     y="-3875.54"
     transform="scale(4.0128,0.2492)"
     id="text60"
     font-family="Arial"
     text-anchor="middle"
     font-size="46.954" />
  <text
     x="277.99"
     y="535.94"
     id="text62"
     font-family="Gentium Book Basic"
     word-spacing="0"
     line-height="125%"
     letter-spacing="0"
     font-size="208.33">
    <tspan
       x="277.99"
       y="535.94"
       id="tspan64" />
  </text>
  <path
     d="m 238.9573,77.179661 c -24.42285,0 -44.22083,13.706702 -44.22083,30.615129 0.71091,6.30771 4.69831,14.27334 6.8035,17.00812 10.20461,13.60701 10.20461,22.11042 7.65346,27.21272 l -82.48942,0 c -15.07606,0 -27.212726,12.13666 -27.212726,27.21272 l 0,68.88765 c 5.102306,2.55116 13.607016,2.55116 27.212726,-7.65345 2.73478,-2.10519 10.7004,-6.0926 17.00811,-6.80351 16.90843,0 30.61513,19.79274 30.61513,44.22084 0,24.42285 -13.7067,44.22083 -30.61513,44.22083 -5.18887,-0.0879 -13.07842,-4.72848 -17.00811,-6.8035 -13.60702,-10.20461 -22.11042,-10.20461 -27.212726,-7.65346 l 0,89.29687 c 0,15.07606 12.136666,27.21272 27.212726,27.21272 l 109.70608,0 c 2.55115,-5.1023 2.55115,-13.60702 -7.65346,-27.21272 -2.10519,-2.73478 -6.0926,-10.70041 -6.80351,-17.00812 0,-16.90843 19.79274,-30.61513 44.22084,-30.61513 24.42285,0 44.22084,13.7067 44.22084,30.61513 -0.0879,5.18887 -4.72849,13.07843 -6.80351,17.00812 -10.20461,13.60701 -10.20461,22.11042 -7.65346,27.21272 l 48.4732,0 c 15.07606,0 27.21272,-12.13666 27.21272,-27.21272 l 0,-75.68592 c 5.1023,-2.55115 13.60701,-2.55115 27.21272,7.65346 3.92969,2.07371 11.81793,6.71563 17.00811,6.80351 16.90843,0 30.61514,-19.79274 30.61514,-44.22084 0,-24.42285 -13.70671,-44.22084 -30.61514,-44.22084 -6.3077,0.71091 -14.27333,4.69832 -17.00811,6.80351 -13.60702,10.20461 -22.11042,10.20461 -27.21272,7.65346 l 0,-82.48943 c 0,-15.07606 -12.13666,-27.21272 -27.21272,-27.21272 l -75.68592,0 c -2.55115,-5.1023 -2.55115,-13.60702 7.65346,-27.21272 2.07371,-3.92969 6.71562,-11.81793 6.8035,-17.00812 0,-16.908426 -19.79274,-30.615127 -44.22083,-30.615127"
     inkscape:connector-curvature="0"
     id="path66"
     style="color:#000000;fill:#E3E3E3" />
</svg>
