<?xml version="1.0" encoding="UTF-8" standalone="no"?>
<svg
   xmlns:dc="http://purl.org/dc/elements/1.1/"
   xmlns:cc="http://creativecommons.org/ns#"
   xmlns:rdf="http://www.w3.org/1999/02/22-rdf-syntax-ns#"
   xmlns:svg="http://www.w3.org/2000/svg"
   xmlns="http://www.w3.org/2000/svg"
   xmlns:sodipodi="http://sodipodi.sourceforge.net/DTD/sodipodi-0.dtd"
   xmlns:inkscape="http://www.inkscape.org/namespaces/inkscape"
   width="1814.17"
   height="1814.17"
   viewBox="0 0 512 512"
   version="1.1"
   id="svg2"
   inkscape:version="0.91 r"
   sodipodi:docname="box.svg">
  <defs
     id="defs18" />
  <sodipodi:namedview
     pagecolor="#ffffff"
     bordercolor="#666666"
     borderopacity="1"
     objecttolerance="10"
     gridtolerance="10"
     guidetolerance="10"
     inkscape:pageopacity="0"
     inkscape:pageshadow="2"
     inkscape:window-width="1920"
     inkscape:window-height="1028"
     id="namedview16"
     showgrid="false"
     inkscape:zoom="0.13008703"
     inkscape:cx="907.08502"
     inkscape:cy="907.08502"
     inkscape:window-x="0"
     inkscape:window-y="0"
     inkscape:window-maximized="1"
     inkscape:current-layer="layer1" />
  <metadata
     id="metadata7282">
    <rdf:RDF>
      <cc:Work
         rdf:about="">
        <dc:format>image/svg+xml</dc:format>
        <dc:type
           rdf:resource="http://purl.org/dc/dcmitype/StillImage" />
      </cc:Work>
    </rdf:RDF>
  </metadata>
  <g
     inkscape:label="Layer 1"
     inkscape:groupmode="layer"
     id="layer1"
     transform="translate(0,215.00001)">
    <path
       style="fill:#E3E3E3"
       inkscape:connector-curvature="0"
       id="path7854"
       d="m 303.38999,-69.030014 c -38.15,0 -70.68,24.150009 -83.08,57.994014 -9.113,-8.702022 -21.41,-14.109997 -35,-14.109997 -25.738,0 -46.945,19.1599744 -50.26,43.992981 -29.7,0.624 -53.608997,24.901983 -53.608997,54.757982 0,25.444005 17.343998,46.727014 40.858997,52.874004 l 258.83999,0 C 409.61199,118.90298 430.57,93.101998 430.57,62.218989 c 0,-27.650002 -16.79902,-51.420017 -40.75801,-61.55001971 -8.60398,-39.82098729 -44.02,-69.68998729 -86.42,-69.68998729 m -122.27,59.1400035 c 4.03,0 7.315,3.179981 7.315,7.2100154 l 0,28.9449811 c 5.561,-3.911999 12.316,-6.270009 19.646,-6.270009 13.13,0 24.548,7.352995 30.3,18.180018 5.763,-10.808012 17.09,-18.180018 30.2,-18.180018 18.904,0 34.17,15.267023 34.17,34.170027 0,18.903987 -15.267,34.279973 -34.17,34.279973 -13.11,0 -24.438,-7.444006 -30.2,-18.286978 -5.754,10.86599 -17.17,18.286978 -30.3,18.286978 -18.904,0 -34.17,-15.370997 -34.17,-34.279973 0,-0.394016 0.091,-0.758022 0.10401,-1.149014 -0.05,-0.346961 -0.10401,-0.685002 -0.10401,-1.045002 l 0,-54.6479972 c 0,-4.0299967 3.18,-7.2100155 7.21,-7.2100155 m 121.43,27.5860147 c 2.387,-0.06992 4.76,1.029997 6.27,3.135004 l 14.629,20.378985 14.526,-20.378985 c 2.404,-3.350021 7.093,-4.186015 10.45,-1.77702 3.35,2.404006 4.186,7.093001 1.777,10.450015 l -17.66,24.451993 17.66,24.556988 c 2.397,3.340006 1.55,7.959004 -1.777,10.34502 -3.333,2.391987 -8.03,1.695005 -10.45,-1.671987 l -14.526,-20.379023 -14.629,20.379023 c -2.417,3.366992 -7.117,4.063974 -10.45,1.671987 -3.326,-2.386998 -4.173,-7.010003 -1.777,-10.34502 l 17.66,-24.556988 -17.66,-24.451993 c -2.409,-3.357014 -1.574,-8.050015 1.777,-10.450015 1.292,-0.927987 2.79,-1.316976 4.18,-1.358967 m -94.47,15.360982 c -11.658,0 -21.11,9.451011 -21.11,21.109984 0,11.658027 9.451,21.110021 21.11,21.110021 11.658,0 21.11,-9.451011 21.11,-21.110021 0,-11.65799 -9.451,-21.109984 -21.11,-21.109984 m 60.5,0 c -11.658,0 -21.11,9.451011 -21.11,21.109984 0,11.658027 9.451,21.110021 21.11,21.110021 11.658,0 21.11,-9.451011 21.11,-21.110021 0,-11.65799 -9.451,-21.109984 -21.11,-21.109984" />
  </g>
</svg>
