<svg xmlns="http://www.w3.org/2000/svg" width="48" height="48">
<defs>
<defs
     id="defs3306">
  </defs>
  <path
     d="M 24.630208,2.0091457 A 21.999999,21.99866 0 0 0 2.0000019,24.007805 a 21.999999,21.99866 0 0 0 43.9999961,0 A 21.999999,21.99866 0 0 0 24.630208,2.0091457 z M 14.919272,13.438137 c 1.068429,2.2e-5 2.082123,0.154254 3.065103,0.429661 0.982951,0.275451 1.929882,0.662053 2.835938,1.203052 l 0,4.583054 c -0.914603,-0.718066 -1.803781,-1.269602 -2.692708,-1.604069 -0.888958,-0.334431 -1.824338,-0.486931 -2.807292,-0.48695 -1.760802,1.9e-5 -3.145045,0.649365 -4.153645,1.947798 -1.008616,1.298466 -1.5182357,3.074333 -1.5182293,5.356445 -6.4e-6,2.272297 0.5096133,4.058001 1.5182293,5.356444 1.0086,1.298456 2.392843,1.947802 4.153645,1.947798 0.982954,4e-6 1.918334,-0.152496 2.807292,-0.486949 0.888927,-0.334445 1.778105,-0.857338 2.692708,-1.575425 l 0,4.55441 c -0.906056,0.541021 -1.852987,0.956267 -2.835938,1.231696 -0.98298,0.275428 -1.996674,0.401017 -3.065103,0.401017 -3.188239,0 -5.7277891,-1.018874 -7.5911456,-3.064918 -1.8633648,-2.055875 -2.7786469,-4.852347 -2.7786456,-8.364073 -1.3e-6,-3.521541 0.9152808,-6.289369 2.7786456,-8.33543 1.8633565,-2.055858 4.4029066,-3.093539 7.5911456,-3.093561 z m 9.997395,0.401017 5.213541,0 c 2.906151,2.2e-5 5.0837,0.234124 6.502603,0.716102 1.427424,0.472185 2.649493,1.293705 3.666667,2.434748 0.897472,0.993529 1.540618,2.138856 1.976562,3.43729 0.435904,1.298465 0.658834,2.768466 0.658854,4.41119 -2e-5,1.662419 -0.22295,3.131554 -0.658854,4.439833 -0.435944,1.298457 -1.07909,2.443784 -1.976562,3.437291 -1.025721,1.141065 -2.259342,1.952748 -3.695312,2.434747 -1.435999,0.472164 -3.601997,0.716103 -6.473958,0.716103 l -5.213541,0 0,-22.027304 z m 4.955728,4.296613 0,13.434077 1.747396,0 c 2.017207,5e-6 3.580718,-0.567741 4.640625,-1.718645 1.068427,-1.150892 1.575505,-2.819112 1.57552,-5.012715 -1.5e-5,-2.183745 -0.515641,-3.842994 -1.57552,-4.984072 -1.059907,-1.141045 -2.614871,-1.718627 -4.640625,-1.718645 l -1.747396,0 z"
     id="path-main" />
</defs>

<use id="1" style="fill:#E3E3E3" xlink:href="#path-main" />



</svg>
