<?xml version="1.0" encoding="UTF-8" standalone="no"?>
<svg
   xmlns:dc="http://purl.org/dc/elements/1.1/"
   xmlns:cc="http://creativecommons.org/ns#"
   xmlns:rdf="http://www.w3.org/1999/02/22-rdf-syntax-ns#"
   xmlns:svg="http://www.w3.org/2000/svg"
   xmlns="http://www.w3.org/2000/svg"
   xmlns:sodipodi="http://sodipodi.sourceforge.net/DTD/sodipodi-0.dtd"
   xmlns:inkscape="http://www.inkscape.org/namespaces/inkscape"
   height="512"
   viewBox="0 0 512 512"
   width="512"
   version="1.1"
   id="svg2"
   inkscape:version="0.91 r"
   sodipodi:docname="calligrakarbon.svg">
  <sodipodi:namedview
     pagecolor="#ffffff"
     bordercolor="#666666"
     borderopacity="1"
     objecttolerance="10"
     gridtolerance="10"
     guidetolerance="10"
     inkscape:pageopacity="0"
     inkscape:pageshadow="2"
     inkscape:window-width="647"
     inkscape:window-height="480"
     id="namedview21"
     showgrid="false"
     inkscape:zoom="0.4609375"
     inkscape:cx="263.59322"
     inkscape:cy="256"
     inkscape:window-x="0"
     inkscape:window-y="0"
     inkscape:window-maximized="0"
     inkscape:current-layer="svg2" />
  <metadata
     id="metadata70">
    <rdf:RDF>
      <cc:Work
         rdf:about="">
        <dc:format>image/svg+xml</dc:format>
        <dc:type
           rdf:resource="http://purl.org/dc/dcmitype/StillImage" />
      </cc:Work>
    </rdf:RDF>
  </metadata>
  <defs
     id="defs68">
    <linearGradient
       id="ButtonShadow"
       y2="7.02"
       gradientUnits="userSpaceOnUse"
       x2="0"
       gradientTransform="scale(1.0059 .99417)"
       y1="92.54">
      <stop
         id="stop3750-1" />
      <stop
         id="stop3752-6"
         stop-opacity="0.588"
         offset="1" />
    </linearGradient>
    <filter
       id="filter3174"
       color-interpolation-filters="sRGB">
      <feGaussianBlur
         id="feGaussianBlur3176"
         stdDeviation="1.71" />
    </filter>
  </defs>
  <text
     id="text649"
     font-size="75.7"
     transform="scale(4.0128 .24920)"
     y="-388.27"
     x="85.61"
     font-family="Arial"
     text-anchor="middle" />
  <path
     id="path30234"
     fill="#E3E3E3"
     d="m279.87 368c39.703-42.356 70.827-92.421 94.425-145.32 13.43-33.12 24.445-69.723 16.719-105.59-4.029-18.868-26.276-31.467-43.885-21.912-21.142 11.091-30.73 35.825-30.296 58.687-0.19353 11.249 3.4909 28.304 8.3878 8.8903 5.0356-11.423 23.43-10.268 25.038 2.8427 1.9835 13.945-4.8135 27.518-10.114 40.077-8.7332 15.968-18.874 34.617-37.335 40.422-14.124 2.9324-26.291-9.2462-23.068-23.699-0.20985-15.116 30.384-19.246 12.806-33.157-14.434-13.952-36.679-2.1978-43.817 13.653-19.218 38.146-14.943 82.837-30.149 122.2-4.088 17.221-30.112 34.776-40.867 13.323-4.1073-10.765 3.23-22.287 11.999-29.126 9.1308-9.5255 22.437-12.052 34.916-13.969-9.3577-13.298-28.577-15.238-43.576-12.559-33.189 7.133-57.893 38.81-62.082 71.701-4.2495 29.559 17.294 60.85 47.55 64.469 38.483 6.4054 75.658-14.499 102.54-40.379 3.6515-3.4684 7.1679-7.075 10.814-10.549zm-31.908-10.574c-1.3376 1.3376-2.6747 2.6747-4.0275 3.9908-15.669 11.462-33.477 26.997-54.477 22.059-6.5218-0.34154-23.065-13.953-7.8425-7.9357 25.66 6.1092 49.088-13.671 60.564-34.966 12.242-20.861 17.831-44.721 23.057-68.109 10.169 9.0033 25.814 8.5938 36.994 10.606-4.7992 10.738-12.467 21.658-19.041 32.156-10.166 15.296-22.332 29.235-35.228 42.198z"
     color="#000000" />
</svg>
