<?xml version="1.0" encoding="UTF-8" standalone="no"?>
<svg
   xmlns:dc="http://purl.org/dc/elements/1.1/"
   xmlns:cc="http://creativecommons.org/ns#"
   xmlns:rdf="http://www.w3.org/1999/02/22-rdf-syntax-ns#"
   xmlns:svg="http://www.w3.org/2000/svg"
   xmlns="http://www.w3.org/2000/svg"
   xmlns:sodipodi="http://sodipodi.sourceforge.net/DTD/sodipodi-0.dtd"
   xmlns:inkscape="http://www.inkscape.org/namespaces/inkscape"
   height="512"
   viewBox="0 0 512 512"
   width="512"
   version="1.1"
   id="svg2"
   inkscape:version="0.92.2 5c3e80d, 2017-08-06"
   sodipodi:docname="cantata.svg">
  <defs
     id="defs16" />
  <sodipodi:namedview
     pagecolor="#ffffff"
     bordercolor="#666666"
     borderopacity="1"
     objecttolerance="10"
     gridtolerance="10"
     guidetolerance="10"
     inkscape:pageopacity="0"
     inkscape:pageshadow="2"
     inkscape:window-width="1197"
     inkscape:window-height="620"
     id="namedview14"
     showgrid="false"
     inkscape:zoom="0.4609375"
     inkscape:cx="-10.847458"
     inkscape:cy="256"
     inkscape:window-x="0"
     inkscape:window-y="29"
     inkscape:window-maximized="0"
     inkscape:current-layer="svg2" />
  <metadata
     id="metadata74">
    <rdf:RDF>
      <cc:Work
         rdf:about="">
        <dc:format>image/svg+xml</dc:format>
        <dc:type
           rdf:resource="http://purl.org/dc/dcmitype/StillImage" />
      </cc:Work>
    </rdf:RDF>
  </metadata>
  <path
     style="fill:#E3E3E3;stroke-width:0.99828774"
     inkscape:connector-curvature="0"
     d="m 228.0564,347.8892 c -119.40167,-53.08085 -192.585329,1.44102 -173.534229,70.06514 11.726706,42.23 109.473369,81.61234 194.961709,14.99724 5.54213,-3.8631 12.82423,-17.03441 13.11825,-23.76085 12.46179,-80.62659 28.05512,-161.5817 40.11206,-242.17702 135.02924,92.50232 91.91251,148.45428 63.9924,212.90239 57.39699,-18.37688 147.29362,-99.51196 49.07977,-213.95069 C 369.30648,115.27061 373.66848,151.0652 328.64665,49.946355 312.77543,47.909176 296.90221,45.873561 281.03098,43.836385 262.10873,148.04229 246.97256,243.68956 228.05035,347.89548"
     id="path68" />
</svg>
