<svg xmlns="http://www.w3.org/2000/svg" width="48" height="48">
<defs>
  <path
     id="path-main"
     d="m 29.608438,45.237563 c -0.9952,-1.571219 1.862322,-5.65938 -1.449801,-5.109995 -2.931922,0.76383 -5.850974,1.778054 -8.9296,1.588535 -2.233427,-0.07835 -4.587094,0.468083 -6.511652,-0.927467 C 10.191471,39.764257 7.4491114,38.603441 6.1311268,36.038973 4.0899933,33.068878 1.9098611,29.749234 2.0028728,26.011417 3.1946783,18.921318 7.7694161,13.05283 12.433714,7.8310433 17.312817,5.1821735 22.534743,2.7452384 28.166225,2.4481296 c 3.697864,0.7581561 7.278484,2.7116649 9.453531,5.8639998 -0.528273,2.6635366 -3.681263,1.2135223 -5.104895,0.1523848 -1.895622,-2.1690125 -4.868667,-2.6518722 -7.46255,-1.4510223 -5.228667,1.3149232 -9.26449,5.1795451 -12.876798,8.9598241 -1.470958,2.145795 -1.90243,4.788181 -2.7821726,7.194304 -0.6015472,2.389653 -1.213147,5.020691 -0.3954778,7.417946 1.6397974,2.987028 4.1194154,5.741412 7.3183704,7.03247 3.288949,0.723112 6.830389,0.443238 9.82989,-1.140704 1.439484,-0.873525 3.681373,-1.442751 4.139161,-3.187784 0.664187,-3.54414 0.399061,-7.163763 0.384954,-10.745568 -2.468373,-0.962952 -4.935334,1.847899 -7.304241,0.395824 -1.333792,-2.418346 2.778978,-3.309805 4.567967,-3.562972 5.631136,-1.186875 11.3082,-2.266646 17.06252,-2.612803 2.686982,1.459647 -0.658507,4.262013 -2.608616,3.088244 -2.912398,0.208859 -5.882794,0.551101 -8.572559,1.761349 -0.103056,2.858434 -0.835412,5.780142 -0.02819,8.60045 2.382242,0.39533 5.466638,-3.921589 7.187754,-1.093039 0.261476,2.679498 -2.130282,4.701947 -3.993936,6.263657 -1.121946,1.406412 -4.029193,1.539464 -4.074231,3.554789 -0.293694,2.350672 -0.587395,4.701337 -0.88109,7.052008 -0.838878,0.02186 -1.910517,0.0624 -2.417183,-0.753924 z"
      />
</defs>

<use id="1" style="fill:#E3E3E3" xlink:href="#path-main" />



</svg>
