<?xml version="1.0" encoding="UTF-8" standalone="no"?>
<svg
   xmlns:dc="http://purl.org/dc/elements/1.1/"
   xmlns:cc="http://creativecommons.org/ns#"
   xmlns:rdf="http://www.w3.org/1999/02/22-rdf-syntax-ns#"
   xmlns:svg="http://www.w3.org/2000/svg"
   xmlns="http://www.w3.org/2000/svg"
   xmlns:sodipodi="http://sodipodi.sourceforge.net/DTD/sodipodi-0.dtd"
   xmlns:inkscape="http://www.inkscape.org/namespaces/inkscape"
   height="512"
   viewBox="0 0 512 512"
   width="512"
   version="1.1"
   id="svg2"
   inkscape:version="0.91 r13725"
   sodipodi:docname="cs-tiling.svg">
  <sodipodi:namedview
     pagecolor="#ffffff"
     bordercolor="#666666"
     borderopacity="1"
     objecttolerance="10"
     gridtolerance="10"
     guidetolerance="10"
     inkscape:pageopacity="0"
     inkscape:pageshadow="2"
     inkscape:window-width="1920"
     inkscape:window-height="1021"
     id="namedview15"
     showgrid="false"
     inkscape:zoom="1.5070222"
     inkscape:cx="101.01854"
     inkscape:cy="204.52252"
     inkscape:window-x="0"
     inkscape:window-y="0"
     inkscape:window-maximized="1"
     inkscape:current-layer="svg2" />
  <defs
     id="defs17" />
  <metadata
     id="metadata28">
    <rdf:RDF>
      <cc:Work
         rdf:about="">
        <dc:format>image/svg+xml</dc:format>
        <dc:type
           rdf:resource="http://purl.org/dc/dcmitype/StillImage" />
        <dc:title></dc:title>
      </cc:Work>
    </rdf:RDF>
  </metadata>
  <g
     transform="matrix(2.010402,0,0,2.934319,-239.34433,-420.06659)"
     id="g3372">
    <rect
       style="fill:#E3E3E3"
       id="rect3340"
       width="94.403442"
       height="52.587151"
       x="150.30205"
       y="171.9902"
       ry="9.5037031" />
    <rect
       style="fill:#E3E3E3"
       id="rect3340-3"
       width="94.403442"
       height="52.587151"
       x="149.98524"
       y="230.59637"
       ry="9.5037031" />
    <rect
       style="fill:#E3E3E3"
       id="rect3340-3-6"
       width="96.395737"
       height="112.802"
       x="253.52983"
       y="170.40627"
       ry="20.385908" />
  </g>
</svg>
