<?xml version="1.0" encoding="UTF-8" standalone="no"?>
<svg
   xmlns:dc="http://purl.org/dc/elements/1.1/"
   xmlns:cc="http://creativecommons.org/ns#"
   xmlns:rdf="http://www.w3.org/1999/02/22-rdf-syntax-ns#"
   xmlns:svg="http://www.w3.org/2000/svg"
   xmlns="http://www.w3.org/2000/svg"
   xmlns:sodipodi="http://sodipodi.sourceforge.net/DTD/sodipodi-0.dtd"
   xmlns:inkscape="http://www.inkscape.org/namespaces/inkscape"
   height="512"
   viewBox="0 0 512 512"
   width="512"
   version="1.1"
   id="svg2"
   inkscape:version="0.91 r"
   sodipodi:docname="cups-launcher.svg">
  <defs
     id="defs18" />
  <sodipodi:namedview
     pagecolor="#ffffff"
     bordercolor="#666666"
     borderopacity="1"
     objecttolerance="10"
     gridtolerance="10"
     guidetolerance="10"
     inkscape:pageopacity="0"
     inkscape:pageshadow="2"
     inkscape:window-width="640"
     inkscape:window-height="480"
     id="namedview16"
     showgrid="false"
     inkscape:zoom="0.4609375"
     inkscape:cx="256"
     inkscape:cy="256"
     inkscape:window-x="0"
     inkscape:window-y="0"
     inkscape:window-maximized="0"
     inkscape:current-layer="svg2" />
  <metadata
     id="metadata70">
    <rdf:RDF>
      <cc:Work
         rdf:about="">
        <dc:format>image/svg+xml</dc:format>
        <dc:type
           rdf:resource="http://purl.org/dc/dcmitype/StillImage" />
      </cc:Work>
    </rdf:RDF>
  </metadata>
  <path
     id="path68"
     fill="#E3E3E3"
     d="m186.3 134.03h139.4v34.851h17.425v-34.851c0-9.6144-7.794-17.425-17.425-17.425h-139.4c-9.6144 0-17.425 7.8109-17.425 17.425v34.851h17.425v-34.851" />
  <path
     id="path70"
     fill="#E3E3E3"
     d="m377.98 186.3h-243.95c-9.6144 0-17.425 7.8109-17.425 17.425v87.126c0 9.6318 7.8109 17.425 17.425 17.425h34.851v69.701c0 9.6318 7.8109 17.425 17.425 17.425h139.4c9.6318 0 17.425-7.794 17.425-17.425v-69.701h34.851c9.6318 0 17.425-7.794 17.425-17.425v-87.126c0-9.6144-7.7935-17.425-17.425-17.425m-52.28 191.68h-139.4v-121.98h139.4v121.98m34.851-139.4c-9.6318 0-17.425-7.794-17.425-17.425 0-9.6144 7.794-17.425 17.425-17.425 9.6313 0 17.425 7.8109 17.425 17.425 0 9.6318-7.7935 17.425-17.425 17.425" />
  <path
     id="path72"
     fill="#E3E3E3"
     d="m203.73 273.43h69.701v17.42h-69.7z" />
  <path
     id="path74"
     fill="#E3E3E3"
     d="m203.73 308.28h104.55v17.425h-104.55z" />
  <path
     id="path76"
     fill="#E3E3E3"
     d="m203.73 343.13h104.55v17.425h-104.55z" />
</svg>
