<?xml version="1.0" encoding="UTF-8" standalone="no"?>
<svg
   xmlns:dc="http://purl.org/dc/elements/1.1/"
   xmlns:cc="http://creativecommons.org/ns#"
   xmlns:rdf="http://www.w3.org/1999/02/22-rdf-syntax-ns#"
   xmlns:svg="http://www.w3.org/2000/svg"
   xmlns="http://www.w3.org/2000/svg"
   xmlns:sodipodi="http://sodipodi.sourceforge.net/DTD/sodipodi-0.dtd"
   xmlns:inkscape="http://www.inkscape.org/namespaces/inkscape"
   height="512"
   viewBox="0 0 512 512"
   width="512"
   version="1.1"
   id="svg2"
   inkscape:version="0.91 r"
   sodipodi:docname="default-icon-backup.svg">
  <defs
     id="defs17" />
  <sodipodi:namedview
     pagecolor="#ffffff"
     bordercolor="#666666"
     borderopacity="1"
     objecttolerance="10"
     gridtolerance="10"
     guidetolerance="10"
     inkscape:pageopacity="0"
     inkscape:pageshadow="2"
     inkscape:window-width="1920"
     inkscape:window-height="1028"
     id="namedview15"
     showgrid="false"
     inkscape:zoom="1.3037281"
     inkscape:cx="172.48005"
     inkscape:cy="244.919"
     inkscape:window-x="0"
     inkscape:window-y="0"
     inkscape:window-maximized="1"
     inkscape:current-layer="svg2" />
  <metadata
     id="metadata28">
    <rdf:RDF>
      <cc:Work
         rdf:about="">
        <dc:format>image/svg+xml</dc:format>
        <dc:type
           rdf:resource="http://purl.org/dc/dcmitype/StillImage" />
        <dc:title />
      </cc:Work>
    </rdf:RDF>
  </metadata>
  <path
     inkscape:connector-curvature="0"
     style="fill:#E3E3E3"
     id="path4192"
     d="m 330.30836,111.70481 c -11.198,0.1 -21.02,1.705 -27.751,3.222 -0.849,0.192 -1.489,0.381 -2.237,0.569 19.983,7.198 34.679,19.796 44.849,32.34 7.636,9.417 12.762,18.797 15.847,25.931 1.542,3.567 2.57,6.576 3.147,8.833 0.288,1.129 0.473,2.031 0.531,2.919 0.029,0.444 0.073,0.869 -0.076,1.516 -0.016,0.069 -0.053,0.152 -0.076,0.227 0.406,11.974 -2.787,20.04 -3.222,31.884 -0.256,8.562 1.965,18.34 2.502,28.813 0.52,10.136 -0.674,21.06 -7.696,31.808 0.049,0.06 0.103,0.13 0.152,0.19 1.349,1.64 2.633,3.09 3.715,4.587 18.683,-27.822 32.05,-58.859 39.12,-85.22 3.703,-13.811 5.683,-26.34 5.838,-36.36 0.155,-10.02 -1.665,-17.432 -4.549,-20.965 -20.09,-24.719 -47.702,-30.491 -70.1,-30.29 m -67.6,3.639 c -16.356,0.358 -28.393,5.333 -37.532,12.662 -9.749,7.818 -16.201,18.436 -20.434,29.23 -5.608,14.297 -7.255,28.607 -7.734,36.736 1,-0.634 2.09,-1.285 3.298,-1.933 4.945,-2.653 11.47,-5.36 18.387,-6.9 3.458,-0.77 7.04,-1.251 10.539,-1.251 3.5,0 6.941,0.509 10.16,1.706 6.439,2.394 11.724,7.897 13.724,16.795 9.931,44.24 -2.907,59.907 -7.886,72.828 -2.6,6.748 -4.848,12.556 -5.535,17.288 1.589,-0.952 3.162,-1.501 4.663,-1.63 2.875,-0.247 5.206,0.716 6.786,1.327 a 2.9612,2.9612 0 0 1 0.0379,0 c 4.175,1.687 7.295,5.406 8.947,9.705 0.947,2.464 1.394,5.234 1.024,7.923 -0.179,7.096 -0.262,14.12 -0.265,20.965 1.106,6.578 1.703,14.562 1.479,22.22 -0.179,6.086 -0.363,11.438 -0.303,16.188 0.23,2.96 0.508,5.696 0.796,8.113 0.616,5.176 1.442,9.103 2.123,10.767 1.817,4.399 4.532,10.386 9.743,14.596 5.211,4.21 12.903,6.944 25.931,4.322 11.08,-2.289 18.216,-5.582 23.05,-10.426 4.834,-4.843 7.636,-11.455 9.364,-21.15 2.563,-14.359 7.636,-54.947 8.378,-63.729 -0.001,-0.012 10e-4,-0.025 0,-0.038 -0.363,-5.98 0.521,-10.375 2.351,-13.61 1.834,-3.243 4.581,-5.15 7.05,-6.217 2.298,-0.993 4.275,-1.387 5.459,-1.744 -0.714,-1.413 -2.235,-3.425 -4.625,-6.331 -2.854,-3.469 -6.375,-8.08 -9.175,-14.596 -0.4,-0.935 -1.861,-3.514 -3.753,-6.786 -1.892,-3.272 -4.264,-7.385 -6.748,-11.98 -4.968,-9.19 -10.35,-20.321 -13.12,-31.01 -2.767,-10.691 -3.04,-21.409 3.602,-28.737 6.19,-6.83 17.722,-9.468 35.713,-7.279 -0.501,-1.816 -1.298,-4.193 -2.616,-7.241 -2.882,-6.666 -7.809,-15.597 -15.05,-24.529 -14.485,-17.863 -38.13,-35.691 -74.5,-36.24 -1.129,-0.018 -2.246,-0.024 -3.336,0 m -92.69001,0.569 c -1.835,0.001 -3.665,0.05 -5.497,0.152 -14.657,0.81 -28.757,4.966 -38.859,15.278 -10.1,10.313 -16.548,27.05 -15.13,54.21 0.286,5.357 2.6,19.547 6.559,36.547 3.958,17 9.54,37.03 16.302,54.744 6.762,17.717 14.851,33.15 23.01,40.793 4.081,3.819 7.949,5.618 11.715,5.459 3.766,-0.158 7.948,-2.264 12.662,-7.734 12.13001,-14.1 22.88301,-25.278 26.53801,-29.04 -12.273,-9.356 -19.73901,-25.26 -17.21201,-42.688 a 2.9612,2.9612 0 0 1 0,-0.0378 c 1.50101,-10.28 1.68701,-19.807 1.51601,-27.334 -0.158,-6.957 -0.61,-11.869 -0.682,-14.748 a 2.9612,2.9612 0 0 1 -0.0378,-0.60659 l 0,-0.152 a 2.9612,2.9612 0 0 1 0,-0.11368 c -0.031,-1.413 -0.362,-23.382 8.341,-45.57 4.269,-10.884 10.748,-21.839 20.624,-30.33 -8.754,-2.926 -29.06,-8.851 -49.85401,-8.833 m 176.10001,72.45 c -10.02,0.142 -15.981,2.68 -19.221,6.255 -4.609,5.085 -4.821,13.441 -2.275,23.278 2.546,9.836 7.722,20.686 12.587,29.685 2.432,4.499 4.814,8.551 6.71,11.828 1.896,3.278 3.264,5.629 4.02,7.393 1.314,3.055 2.81,5.618 4.322,7.848 5.203,-8.856 6.103,-17.522 5.649,-26.386 -0.502,-9.792 -2.792,-19.64 -2.502,-29.31 0.443,-12.04 3.18,-19.775 3.185,-29.723 -3.838,-0.511 -7.333,-0.818 -10.426,-0.872 -0.705,-0.012 -1.379,-0.01 -2.047,0 m -116.92,1.479 c -2.952,-0.001 -6.09,0.404 -9.212,1.099 -6.245,1.39 -12.378,3.921 -16.871,6.331 -2.246,1.205 -4.104,2.387 -5.27,3.298 -0.494,0.386 -0.78,0.694 -0.986,0.91 0.047,2.039 0.515,7.285 0.682,14.672 0.176,7.75 -0.027,17.6 -1.592,28.32 -3.598,24.803 15.791,45.499 38.4,44.508 1.089,-5.04 3.177,-10.257 5.346,-15.885 5.605,-14.546 17.299,-26.429 7.658,-69.38 -1.654,-7.355 -5.252,-10.804 -10.05,-12.587 -2.397,-0.891 -5.161,-1.288 -8.113,-1.289 m 113.24,3.639 c 0.976,0.027 1.879,0.153 2.692,0.341 0.813,0.189 1.527,0.442 2.161,0.872 0.598,0.406 1.122,1.066 1.289,1.896 l 0.076,0 c 0.006,0.028 -0.006,0.048 0,0.076 0.001,0.012 -10e-4,0.026 0,0.038 0.001,0.002 -0.038,-0.002 -0.038,0 0.164,0.924 -0.078,1.697 -0.455,2.426 -0.395,0.764 -0.952,1.514 -1.668,2.237 -1.433,1.445 -3.491,2.741 -5.952,3.071 l -0.038,0 c -2.456,0.253 -4.622,-0.535 -6.217,-1.592 -0.798,-0.529 -1.456,-1.147 -1.971,-1.744 -0.516,-0.597 -0.915,-1.136 -1.099,-1.896 l 0,-0.114 c -0.151,-0.905 0.225,-1.762 0.72,-2.351 0.495,-0.589 1.126,-1.01 1.858,-1.403 1.463,-0.787 3.372,-1.375 5.535,-1.668 1.083,-0.147 2.133,-0.217 3.109,-0.19 m -112.71,1.63 c 1.06,-0.023 2.178,0.033 3.336,0.19 2.307,0.312 4.344,0.914 6.03,1.82 0.842,0.453 1.64,0.944 2.313,1.744 0.673,0.8 1.261,2.102 1.024,3.526 l 0,0.114 c -0.246,1.229 -0.781,1.916 -1.403,2.654 -0.622,0.738 -1.39,1.437 -2.313,2.047 -1.846,1.221 -4.394,2.172 -7.279,1.782 -2.881,-0.386 -5.139,-1.889 -6.748,-3.526 -0.805,-0.818 -1.458,-1.685 -1.933,-2.616 -0.448,-0.877 -0.85,-1.836 -0.607,-3.26 l -0.038,0 c 0.006,-0.043 0.031,-0.071 0.038,-0.114 0.008,-0.044 -0.01,-0.068 0,-0.114 l 0.038,0 c 0.267,-1.29 1.094,-2.262 1.896,-2.805 0.854,-0.579 1.72,-0.883 2.654,-1.099 0.934,-0.217 1.935,-0.318 2.995,-0.341 m 130,100.05 c -0.373,0.168 -0.747,0.298 -1.099,0.417 -1.858,0.627 -3.724,0.973 -5.421,1.706 -1.698,0.733 -3.132,1.708 -4.246,3.677 -1.043,1.844 -1.835,4.748 -1.668,9.402 a 2.9612,2.9612 0 0 1 0.11368,1.1374 c 0.03,0.103 0.102,0.231 0.417,0.493 0.476,0.396 1.464,0.91 2.843,1.327 2.758,0.834 6.971,1.286 11.639,1.251 9.335,-0.071 20.621,-2.046 26.955,-4.891 8.227,-3.681 14.834,-8.917 16.719,-11.677 0.094,-0.138 0.046,-0.108 0.114,-0.227 -0.851,-0.077 -2.262,-0.114 -4.625,0.341 -0.017,0.004 -0.021,-0.004 -0.038,0 -19.549,3.897 -30.355,2.76 -36.66,0.227 -2.315,-0.93 -3.839,-2.059 -5.04,-3.185 m -114.87,1.63 c -1.283,0.11 -2.873,0.643 -5.194,3.147 a 2.9612,2.9612 0 0 1 -0.49285,0.45494 c -4.682,5.165 -6.557,8.439 -10.16,11.184 -3.727,2.839 -8.659,4.42 -19.18,6.521 -5.04,0.996 -7.889,2.284 -8.833,3.03 -0.373,0.296 -0.314,0.29 -0.303,0.265 0.241,0.397 1.457,1.54 3.147,2.426 1.712,0.898 3.817,1.636 5.573,2.047 a 2.9612,2.9612 0 0 1 0.0379,0 c 4.704,1.13 12.39,2.483 20.586,1.137 8.196,-1.346 16.853,-5.246 24.04,-14.975 0.594,-0.802 0.982,-1.721 1.175,-2.692 0.022,-0.85 0.014,-1.689 0.038,-2.54 a 2.9612,2.9612 0 0 1 0,-0.22746 c -0.113,-0.84 -0.315,-1.681 -0.644,-2.54 -1.116,-2.903 -3.489,-5.447 -5.649,-6.331 -0.014,-0.005 -0.024,0.005 -0.038,0 -1.551,-0.599 -2.823,-1.019 -4.094,-0.91" />
</svg>
