<svg xmlns="http://www.w3.org/2000/svg" width="48" height="48">
<defs>
  <path
     id="path-main"
     d="M 23.11298,2 C 13.153814,23.17747 10.021439,24.591046 10.00003,33.977065 9.9824403,41.748216 17.791337,46.338769 24.53605,45.980458 31.280765,45.622148 38.54749,42.149673 36.398447,31.52261 34.862765,23.928644 29.712963,18.960125 23.11298,2 z M 11.24122,33.269736 c -0.0064,2.743217 2.174741,8.974389 7.937311,10.617942 5.797023,1.65338 10.024975,0.722542 12.617266,-1.522818 -6.822832,1.386184 -11.091375,0.111066 -12.775878,-0.613432 -1.719547,-0.739571 -5.374556,-2.683969 -7.778699,-8.481692 z" />
</defs>

<use id="1" style="fill:#E3E3E3" xlink:href="#path-main" />



</svg>
