<?xml version="1.0" encoding="UTF-8" standalone="no"?>
<svg
   xmlns:dc="http://purl.org/dc/elements/1.1/"
   xmlns:cc="http://creativecommons.org/ns#"
   xmlns:rdf="http://www.w3.org/1999/02/22-rdf-syntax-ns#"
   xmlns:svg="http://www.w3.org/2000/svg"
   xmlns="http://www.w3.org/2000/svg"
   xmlns:sodipodi="http://sodipodi.sourceforge.net/DTD/sodipodi-0.dtd"
   xmlns:inkscape="http://www.inkscape.org/namespaces/inkscape"
   height="512"
   viewBox="0 0 512 512"
   width="512"
   version="1.1"
   id="svg2"
   inkscape:version="0.91 r13725"
   sodipodi:docname="discord.svg">
  <defs
     id="defs17" />
  <sodipodi:namedview
     pagecolor="#ffffff"
     bordercolor="#666666"
     borderopacity="1"
     objecttolerance="10"
     gridtolerance="10"
     guidetolerance="10"
     inkscape:pageopacity="0"
     inkscape:pageshadow="2"
     inkscape:window-width="1920"
     inkscape:window-height="1019"
     id="namedview15"
     showgrid="false"
     inkscape:zoom="0.70044782"
     inkscape:cx="133.40538"
     inkscape:cy="129.27212"
     inkscape:window-x="0"
     inkscape:window-y="13"
     inkscape:window-maximized="1"
     inkscape:current-layer="svg2"
     showguides="false" />
  <metadata
     id="metadata28">
    <rdf:RDF>
      <cc:Work
         rdf:about="">
        <dc:format>image/svg+xml</dc:format>
        <dc:type
           rdf:resource="http://purl.org/dc/dcmitype/StillImage" />
        <dc:title></dc:title>
      </cc:Work>
    </rdf:RDF>
  </metadata>
  <path
     inkscape:connector-curvature="0"
     style="fill:#E3E3E3;fill-opacity:1"
     d="m 201.74025,91.968008 c 0,0 -47.6057,-1.061373 -97.6463,36.476892 0,0 -50.025008,90.68494 -50.025008,202.56612 0,0 29.172149,50.36839 105.965598,52.80329 0,0 12.89257,-15.60841 23.30338,-28.81314 -44.12501,-13.20474 -60.81043,-40.98771 -60.81043,-40.98771 0,0 3.46508,2.4349 9.70844,5.89997 0.3434,0.34338 0.68678,0.68677 1.38916,1.03017 1.04576,0.70237 2.09152,1.04575 3.1373,1.74813 8.69389,4.86983 17.37216,8.69389 25.36369,11.81558 14.25048,5.55659 31.21683,11.1288 51.05515,14.95287 26.06606,4.86982 56.62736,6.57115 89.98255,0.31217 16.32643,-2.77831 33.01182,-7.64813 50.384,-14.95287 12.15895,-4.51084 25.70707,-11.1132 39.95756,-20.49386 0,0 -17.35656,28.48536 -62.90194,41.34671 10.42642,13.20473 22.91316,28.14198 22.91316,28.14198 76.8715,-2.48174 106.37141,-52.80329 106.37141,-52.80329 0,-111.88118 -50.025,-202.56612 -50.025,-202.56612 -50.0406,-37.522661 -97.64629,-36.476892 -97.64629,-36.476892 l -4.83862,5.556595 c 59.06228,18.074567 86.50189,44.125007 86.50189,44.125007 -36.13351,-19.80708 -71.56463,-29.51551 -104.57645,-33.33958 -25.0203,-2.7783 -49.01044,-2.10714 -70.20668,0.67117 -2.09154,0 -3.82407,0.35898 -5.89999,0.71798 -12.15896,1.04577 -41.67449,5.55659 -78.82255,21.88301 -12.86133,5.89998 -20.49385,10.06742 -20.49385,10.06742 0,0 28.82876,-27.43959 91.37171,-45.514156 l -3.49628,-4.167446 m -9.70843,129.596752 c 19.80708,0 35.7901,17.37217 35.44672,38.56841 0,21.19624 -15.60843,38.5684 -35.44672,38.5684 -19.46372,0 -35.44674,-17.37216 -35.44674,-38.5684 0,-21.19624 15.60842,-38.56841 35.44674,-38.56841 m 126.81843,0 c 19.80709,0 35.44674,17.37217 35.44674,38.56841 0,21.19624 -15.60843,38.5684 -35.44674,38.5684 -19.4637,0 -35.44672,-17.37216 -35.44672,-38.5684 0,-21.19624 15.60842,-38.56841 35.44672,-38.56841"
     id="path29" />
</svg>
