<?xml version="1.0" encoding="UTF-8" standalone="no"?>
<svg
   xmlns:dc="http://purl.org/dc/elements/1.1/"
   xmlns:cc="http://creativecommons.org/ns#"
   xmlns:rdf="http://www.w3.org/1999/02/22-rdf-syntax-ns#"
   xmlns:svg="http://www.w3.org/2000/svg"
   xmlns="http://www.w3.org/2000/svg"
   xmlns:sodipodi="http://sodipodi.sourceforge.net/DTD/sodipodi-0.dtd"
   xmlns:inkscape="http://www.inkscape.org/namespaces/inkscape"
   height="512"
   viewBox="0 0 512 512"
   width="512"
   version="1.1"
   id="svg2"
   inkscape:version="0.91 r"
   sodipodi:docname="distributor-logo-siduction.svg">
  <defs
     id="defs27" />
  <sodipodi:namedview
     pagecolor="#ffffff"
     bordercolor="#666666"
     borderopacity="1"
     objecttolerance="10"
     gridtolerance="10"
     guidetolerance="10"
     inkscape:pageopacity="0"
     inkscape:pageshadow="2"
     inkscape:window-width="647"
     inkscape:window-height="480"
     id="namedview25"
     showgrid="false"
     inkscape:zoom="0.4609375"
     inkscape:cx="263.59322"
     inkscape:cy="256"
     inkscape:window-x="0"
     inkscape:window-y="0"
     inkscape:window-maximized="0"
     inkscape:current-layer="svg2" />
  <metadata
     id="metadata96">
    <rdf:RDF>
      <cc:Work
         rdf:about="">
        <dc:format>image/svg+xml</dc:format>
        <dc:type
           rdf:resource="http://purl.org/dc/dcmitype/StillImage" />
      </cc:Work>
    </rdf:RDF>
  </metadata>
  <text
     id="text4"
     font-size="208.33"
     line-height="125%"
     y="516.99"
     x="-422.65"
     font-family="Gentium Book Basic"
     word-spacing="0"
     letter-spacing="0">
    <tspan
       id="tspan6"
       y="516.99"
       x="-422.65" />
  </text>
  <text
     id="text8"
     font-size="75.7"
     transform="scale(4.0128 .2492)"
     y="1511.7"
     x="212.4"
     font-family="Arial"
     text-anchor="middle" />
  <g
     id="g72"
     fill="#E3E3E3"
     transform="matrix(.56268 -.53558 .55043 .5492 -337.88 -40.62)"
     fill-rule="evenodd">
    <path
       id="path74"
       d="m378.91 855.96c-18.817 0-35.27 10.11-44.24 25.18-4.579 7.693-7.217 16.673-7.217 26.28 0 28.419 23.04 51.46 51.46 51.46 28.419 0 51.46-23.04 51.46-51.46 0-9.603-2.638-18.583-7.217-26.28-8.974-15.07-25.424-25.18-44.24-25.18" />
    <path
       id="path76"
       d="m151.12 866.12c-15.694 0-29.415 8.431-36.899 21-3.82 6.416-6.02 13.906-6.02 21.915 0 23.703 19.215 42.919 42.919 42.919 23.703 0 42.919-19.215 42.919-42.919 0-8.01-2.2-15.499-6.02-21.915-7.484-12.573-21.21-21-36.899-21" />
    <path
       id="path78"
       d="m384.01 744.02c-16.878 0-31.633 9.07-39.682 22.587-4.108 6.9-6.473 14.955-6.473 23.568 0 25.491 20.664 46.15 46.15 46.15 25.491 0 46.15-20.664 46.15-46.15 0-8.613-2.366-16.668-6.473-23.568-8.05-13.52-22.8-22.59-39.68-22.59" />
    <path
       id="path80"
       d="m143.78 754.4c-14.306 0-26.814 7.685-33.637 19.15-3.482 5.849-5.487 12.677-5.487 19.978 0 21.607 17.516 39.12 39.12 39.12 21.607 0 39.12-17.516 39.12-39.12 0-7.301-2.01-14.13-5.487-19.978-6.823-11.461-19.33-19.15-33.637-19.15" />
    <path
       id="path82"
       d="m371.48 637.86c-15.694 0-29.415 8.431-36.899 21-3.82 6.416-6.02 13.906-6.02 21.915 0 23.703 19.215 42.919 42.919 42.919 23.703 0 42.919-19.215 42.919-42.919 0-8.01-2.2-15.499-6.02-21.915-7.484-12.573-21.21-21-36.899-21" />
    <path
       id="path84"
       d="m153.69 648.62c-13.786 0-25.839 7.406-32.413 18.45-3.355 5.636-5.288 12.215-5.288 19.251 0 20.821 16.879 37.701 37.701 37.701 20.821 0 37.701-16.879 37.701-37.701 0-7.04-1.932-13.615-5.287-19.251-6.574-11.04-18.627-18.45-32.413-18.45" />
    <path
       id="path86"
       d="m259.9 868.21c-16.704 0-31.31 8.973-39.27 22.355-4.065 6.829-6.407 14.801-6.407 23.326 0 25.23 20.452 45.68 45.68 45.68 25.23 0 45.68-20.452 45.68-45.68 0-8.525-2.341-16.497-6.407-23.326-7.966-13.382-22.57-22.355-39.27-22.355" />
    <path
       id="path88"
       d="m262.59 750.14c-16.37 0-30.682 8.794-38.489 21.908-3.984 6.693-6.279 14.505-6.279 22.86 0 24.725 20.04 44.768 44.768 44.768 24.725 0 44.768-20.04 44.768-44.768 0-8.354-2.295-16.17-6.279-22.86-7.807-13.11-22.12-21.908-38.489-21.908" />
    <path
       id="path90"
       d="m261.38 635.59c-14.511 0-27.2 7.795-34.12 19.42-3.532 5.932-5.565 12.858-5.565 20.263 0 21.916 17.767 39.683 39.683 39.683s39.683-17.767 39.683-39.683c0-7.405-2.034-14.331-5.565-20.263-6.92-11.625-19.606-19.42-34.12-19.42" />
  </g>
</svg>
