<svg xmlns="http://www.w3.org/2000/svg" width="48" height="48">
<defs>
  <path
     d="m 4.6,2 0,10.39781 0.655718,0 0,-7.052311 4.817518,1.525547 0,-1.137469 16.138686,0 0,1.137469 4.817518,-1.512165 0,7.079075 0.6691,0 0,-10.411192 -0.6691,0 0,2.903893 -4.817518,-1.498784 0,1.13747 -16.138686,0 0,-1.13747 L 5.255718,4.944039 5.255718,2 4.6,2 z M 4.988078,13.709246 4.6,21.283455 l 0.909976,0 c 0.111107,-1.460268 0.4565,-2.622162 1.043795,-3.479319 0.587289,-0.857099 1.288967,-1.424665 2.114356,-1.726277 0.634904,-0.222189 1.717141,-0.33452 3.22506,-0.33455 l 3.880779,0 0,24.663021 c -1.3e-5,1.80949 -0.186092,2.97139 -0.53528,3.47931 -0.571431,0.82539 -1.538846,1.23115 -2.903893,1.23115 l -1.137469,0 0,0.88321 13.689781,0 0,-0.88321 -1.124088,0 c -1.253967,0 -2.180309,-0.33699 -2.783455,-1.00365 -0.428582,-0.49205 -0.642353,-1.72272 -0.642336,-3.70681 l 0,-24.663021 4.549879,0 c 1.333289,3e-5 2.402143,0.224692 3.211678,0.6691 0.825358,0.428594 1.488454,1.100089 1.980536,2.020681 0.301555,0.571446 0.534618,1.517079 0.709245,2.850365 l 0.909976,0 -0.361314,-7.574209 -26.349148,0 z m 28.021898,0 0,0.669099 7.266423,0 3.131387,0 0,-0.669099 -10.39781,0 z m 7.266423,0.669099 -1.753041,5.486619 1.164233,0 0,17.490266 0,2.51582 -1.164233,0 1.753041,5.45985 1.712895,-5.45985 -1.137469,0 0,-2.51582 0,-17.490266 1.137469,0 -1.712895,-5.486619 z m -7.266423,30.965935 0,0.65572 10.39781,0 0,-0.65572 -10.39781,0 z"
     id="path-main"
      />
</defs>

<use id="1" style="fill:#E3E3E3" xlink:href="#path-main" />



</svg>
