<?xml version="1.0" encoding="UTF-8" standalone="no"?>
<svg
   xmlns:dc="http://purl.org/dc/elements/1.1/"
   xmlns:cc="http://creativecommons.org/ns#"
   xmlns:rdf="http://www.w3.org/1999/02/22-rdf-syntax-ns#"
   xmlns:svg="http://www.w3.org/2000/svg"
   xmlns="http://www.w3.org/2000/svg"
   xmlns:sodipodi="http://sodipodi.sourceforge.net/DTD/sodipodi-0.dtd"
   xmlns:inkscape="http://www.inkscape.org/namespaces/inkscape"
   height="512"
   viewBox="0 0 512 512"
   width="512"
   version="1.1"
   id="svg2"
   inkscape:version="0.91 r"
   sodipodi:docname="fontmatrix.svg">
  <defs
     id="defs15" />
  <sodipodi:namedview
     pagecolor="#ffffff"
     bordercolor="#666666"
     borderopacity="1"
     objecttolerance="10"
     gridtolerance="10"
     guidetolerance="10"
     inkscape:pageopacity="0"
     inkscape:pageshadow="2"
     inkscape:window-width="647"
     inkscape:window-height="480"
     id="namedview13"
     showgrid="false"
     inkscape:zoom="0.4609375"
     inkscape:cx="256"
     inkscape:cy="256"
     inkscape:window-x="0"
     inkscape:window-y="0"
     inkscape:window-maximized="0"
     inkscape:current-layer="svg2" />
  <metadata
     id="metadata72">
    <rdf:RDF>
      <cc:Work
         rdf:about="">
        <dc:format>image/svg+xml</dc:format>
        <dc:type
           rdf:resource="http://purl.org/dc/dcmitype/StillImage" />
      </cc:Work>
    </rdf:RDF>
  </metadata>
  <path
     id="path66"
     fill="#E3E3E3"
     d="m127.73 131.98v60.436l1.395 0.392 30.05 8.76v89.367l1.199 0.514s11.793 4.913 23.638 9.861c5.923 2.474 11.865 4.945 16.346 6.827 2.241 0.941 4.105 1.737 5.432 2.3 0.664 0.281 1.18 0.504 1.542 0.661 0.181 0.078 0.327 0.156 0.416 0.196h0.024l2.888 1.884 0.024-3.597 0.44-98.25c5.789 1.228 11.441 2.788 16.199 5.702 5.363 3.284 9.689 8.113 12.211 16.224v48.472l1.126 0.514 48.915 22.268 2.765 1.272v-76.908c-0.779-24.06-11.768-48.901-35.751-58.12l-0.074-0.024-0.049-0.024-126.22-37.977-2.52-0.759m164.81 48.45-2.129 3.157c3.22 3.471 5.555 6.891 7.39 10.498 0.008 0.01 0.02 0.015 0.024 0.024 3.185 6.485 5.263 11.484 6.387 17.863 0.884 5.02 1.238 6.451 1.737 16.542v0.147c0 0.138-0.083 2.695 0.074 5.506 0.08 1.443 0.22 2.905 0.489 4.184 0.135 0.64 0.284 1.225 0.563 1.811s0.71 1.338 1.762 1.688l0.196 0.073 0.196 0.024c5.128 0.605 7.804 3.206 9.788 6.925 1.955 3.665 2.948 8.401 3.915 12.675l0.612 74.51 0.024 1.223 1.101 0.514 51.24 24.715 3.01 1.444-0.196-3.328c-1.528-27.419-0.372-53.29-0.587-77.25-0.168-18.671-1.098-36.38-9.445-54.49l-0.049-0.098-0.049-0.098c-11.196-18.09-25.17-27.695-41.13-34.894-10.761-4.853-22.434-8.656-34.919-13.361" />
</svg>
