<?xml version="1.0" encoding="UTF-8" standalone="no"?>
<svg
   xmlns:dc="http://purl.org/dc/elements/1.1/"
   xmlns:cc="http://creativecommons.org/ns#"
   xmlns:rdf="http://www.w3.org/1999/02/22-rdf-syntax-ns#"
   xmlns:svg="http://www.w3.org/2000/svg"
   xmlns="http://www.w3.org/2000/svg"
   xmlns:sodipodi="http://sodipodi.sourceforge.net/DTD/sodipodi-0.dtd"
   xmlns:inkscape="http://www.inkscape.org/namespaces/inkscape"
   viewBox="0 0 512 512"
   id="svg2"
   version="1.1"
   inkscape:version="0.91 r13725"
   sodipodi:docname="four-in-a-row.svg">
  <metadata
     id="metadata480">
    <rdf:RDF>
      <cc:Work
         rdf:about="">
        <dc:format>image/svg+xml</dc:format>
        <dc:type
           rdf:resource="http://purl.org/dc/dcmitype/StillImage" />
      </cc:Work>
    </rdf:RDF>
  </metadata>
  <defs
     id="defs478" />
  <sodipodi:namedview
     pagecolor="#ffffff"
     bordercolor="#666666"
     borderopacity="1"
     objecttolerance="10"
     gridtolerance="10"
     guidetolerance="10"
     inkscape:pageopacity="0"
     inkscape:pageshadow="2"
     inkscape:window-width="1680"
     inkscape:window-height="997"
     id="namedview476"
     showgrid="false"
     inkscape:zoom="0.4609375"
     inkscape:cx="256"
     inkscape:cy="256"
     inkscape:window-x="0"
     inkscape:window-y="35"
     inkscape:window-maximized="1"
     inkscape:current-layer="svg2" />
  <text
     font-size="129.23"
     y="231.36"
     x="729.64"
     font-family="'Gentium Book Basic'"
     line-height="125%"
     word-spacing="0"
     letter-spacing="0"
     id="text20">
    <tspan
       y="231.36"
       x="729.64"
       id="tspan22" />
  </text>
  <text
     transform="scale(4.0128.2492)"
     font-size="46.954"
     y="579.26"
     x="378.91"
     font-family="Arial"
     text-anchor="middle"
     id="text24" />
  <text
     font-size="129.23"
     y="151.36"
     x="1310.91"
     font-family="'Gentium Book Basic'"
     line-height="125%"
     word-spacing="0"
     letter-spacing="0"
     id="text26">
    <tspan
       y="151.36"
       x="1310.91"
       id="tspan28" />
  </text>
  <text
     transform="scale(4.0128.2492)"
     font-size="46.954"
     y="258.22"
     x="523.76"
     font-family="Arial"
     text-anchor="middle"
     id="text30" />
  <text
     font-size="129.23"
     y="-29.9"
     x="239.33"
     font-family="'Gentium Book Basic'"
     line-height="125%"
     word-spacing="0"
     letter-spacing="0"
     id="text32">
    <tspan
       y="-29.9"
       x="239.33"
       id="tspan34" />
  </text>
  <text
     transform="scale(4.0128.2492)"
     font-size="46.954"
     y="-469.13"
     x="256.72"
     font-family="Arial"
     text-anchor="middle"
     id="text36" />
  <text
     font-size="129.23"
     y="-246.37"
     x="1337.38"
     font-family="'Gentium Book Basic'"
     line-height="125%"
     word-spacing="0"
     letter-spacing="0"
     id="text38">
    <tspan
       y="-246.37"
       x="1337.38"
       id="tspan40" />
  </text>
  <text
     transform="scale(4.0128.2492)"
     font-size="46.954"
     y="-1337.8"
     x="530.36"
     font-family="Arial"
     text-anchor="middle"
     id="text42" />
  <text
     font-size="129.23"
     y="-326.37"
     x="1918.65"
     font-family="'Gentium Book Basic'"
     line-height="125%"
     word-spacing="0"
     letter-spacing="0"
     id="text44">
    <tspan
       y="-326.37"
       x="1918.65"
       id="tspan46" />
  </text>
  <text
     transform="scale(4.0128.2492)"
     font-size="46.954"
     y="-1658.83"
     x="675.21"
     font-family="Arial"
     text-anchor="middle"
     id="text48" />
  <text
     font-size="129.23"
     y="-798.77"
     x="1529.53"
     font-family="'Gentium Book Basic'"
     line-height="125%"
     word-spacing="0"
     letter-spacing="0"
     id="text50">
    <tspan
       y="-798.77"
       x="1529.53"
       id="tspan52" />
  </text>
  <text
     transform="scale(4.0128.2492)"
     font-size="46.954"
     y="-3554.48"
     x="578.24"
     font-family="Arial"
     text-anchor="middle"
     id="text54" />
  <text
     font-size="129.23"
     y="-878.78"
     x="2110.79"
     font-family="'Gentium Book Basic'"
     line-height="125%"
     word-spacing="0"
     letter-spacing="0"
     id="text56">
    <tspan
       y="-878.78"
       x="2110.79"
       id="tspan58" />
  </text>
  <text
     transform="scale(4.0128.2492)"
     font-size="46.954"
     y="-3875.52"
     x="723.09"
     font-family="Arial"
     text-anchor="middle"
     id="text60" />
  <g
     font-family="'Gentium Book Basic'"
     line-height="125%"
     word-spacing="0"
     letter-spacing="0"
     id="g62">
    <text
       y="535.94"
       x="277.99"
       font-size="208.33"
       id="text64">
      <tspan
         y="535.94"
         x="277.99"
         id="tspan66" />
    </text>
    <text
       y="272.59"
       x="1722.37"
       font-size="129.23"
       id="text68">
      <tspan
         y="272.59"
         x="1722.37"
         id="tspan70" />
    </text>
  </g>
  <text
     transform="scale(4.0128.2492)"
     font-size="46.954"
     y="744.7"
     x="626.3"
     font-family="Arial"
     text-anchor="middle"
     id="text72" />
  <text
     font-size="129.23"
     y="192.59"
     x="2303.64"
     font-family="'Gentium Book Basic'"
     line-height="125%"
     word-spacing="0"
     letter-spacing="0"
     id="text74">
    <tspan
       y="192.59"
       x="2303.64"
       id="tspan76" />
  </text>
  <text
     transform="scale(4.0128.2492)"
     font-size="46.954"
     y="423.67"
     x="771.15"
     font-family="Arial"
     text-anchor="middle"
     id="text78" />
  <text
     font-size="129.23"
     y="11.33"
     x="1232.06"
     font-family="'Gentium Book Basic'"
     line-height="125%"
     word-spacing="0"
     letter-spacing="0"
     id="text80">
    <tspan
       y="11.33"
       x="1232.06"
       id="tspan82" />
  </text>
  <text
     transform="scale(4.0128.2492)"
     font-size="46.954"
     y="-303.68"
     x="504.11"
     font-family="Arial"
     text-anchor="middle"
     id="text84" />
  <text
     font-size="129.23"
     y="-205.14"
     x="2330.11"
     font-family="'Gentium Book Basic'"
     line-height="125%"
     word-spacing="0"
     letter-spacing="0"
     id="text86">
    <tspan
       y="-205.14"
       x="2330.11"
       id="tspan88" />
  </text>
  <text
     transform="scale(4.0128.2492)"
     font-size="46.954"
     y="-1172.35"
     x="777.75"
     font-family="Arial"
     text-anchor="middle"
     id="text90" />
  <text
     font-size="129.23"
     y="-285.15"
     x="2911.38"
     font-family="'Gentium Book Basic'"
     line-height="125%"
     word-spacing="0"
     letter-spacing="0"
     id="text92">
    <tspan
       y="-285.15"
       x="2911.38"
       id="tspan94" />
  </text>
  <text
     transform="scale(4.0128.2492)"
     font-size="46.954"
     y="-1493.39"
     x="922.6"
     font-family="Arial"
     text-anchor="middle"
     id="text96" />
  <text
     font-size="129.23"
     y="-757.55"
     x="2522.26"
     font-family="'Gentium Book Basic'"
     line-height="125%"
     word-spacing="0"
     letter-spacing="0"
     id="text98">
    <tspan
       y="-757.55"
       x="2522.26"
       id="tspan100" />
  </text>
  <text
     transform="scale(4.0128.2492)"
     font-size="46.954"
     y="-3389.04"
     x="825.63"
     font-family="Arial"
     text-anchor="middle"
     id="text102" />
  <text
     font-size="129.23"
     y="-837.55"
     x="3103.52"
     font-family="'Gentium Book Basic'"
     line-height="125%"
     word-spacing="0"
     letter-spacing="0"
     id="text104">
    <tspan
       y="-837.55"
       x="3103.52"
       id="tspan106" />
  </text>
  <text
     transform="scale(4.0128.2492)"
     font-size="46.954"
     y="-3710.07"
     x="970.48"
     font-family="Arial"
     text-anchor="middle"
     id="text108" />
  <g
     font-family="'Gentium Book Basic'"
     line-height="125%"
     word-spacing="0"
     letter-spacing="0"
     id="g110">
    <text
       y="577.17"
       x="1270.72"
       font-size="208.33"
       id="text112">
      <tspan
         y="577.17"
         x="1270.72"
         id="tspan114" />
    </text>
    <text
       y="231.36"
       x="729.64"
       font-size="129.23"
       id="text116">
      <tspan
         y="231.36"
         x="729.64"
         id="tspan118" />
    </text>
  </g>
  <text
     transform="scale(4.0128.2492)"
     font-size="46.954"
     y="579.25"
     x="378.91"
     font-family="Arial"
     text-anchor="middle"
     id="text120" />
  <text
     font-size="129.23"
     y="151.36"
     x="1310.91"
     font-family="'Gentium Book Basic'"
     line-height="125%"
     word-spacing="0"
     letter-spacing="0"
     id="text122">
    <tspan
       y="151.36"
       x="1310.91"
       id="tspan124" />
  </text>
  <text
     transform="scale(4.0128.2492)"
     font-size="46.954"
     y="258.22"
     x="523.76"
     font-family="Arial"
     text-anchor="middle"
     id="text126" />
  <text
     font-size="129.23"
     y="-29.901"
     x="239.33"
     font-family="'Gentium Book Basic'"
     line-height="125%"
     word-spacing="0"
     letter-spacing="0"
     id="text128">
    <tspan
       y="-29.901"
       x="239.33"
       id="tspan130" />
  </text>
  <text
     transform="scale(4.0128.2492)"
     font-size="46.954"
     y="-469.14"
     x="256.72"
     font-family="Arial"
     text-anchor="middle"
     id="text132" />
  <text
     font-size="129.23"
     y="-246.37"
     x="1337.38"
     font-family="'Gentium Book Basic'"
     line-height="125%"
     word-spacing="0"
     letter-spacing="0"
     id="text134">
    <tspan
       y="-246.37"
       x="1337.38"
       id="tspan136" />
  </text>
  <text
     transform="scale(4.0128.2492)"
     font-size="46.954"
     y="-1337.8"
     x="530.36"
     font-family="Arial"
     text-anchor="middle"
     id="text138" />
  <text
     font-size="129.23"
     y="-326.38"
     x="1918.65"
     font-family="'Gentium Book Basic'"
     line-height="125%"
     word-spacing="0"
     letter-spacing="0"
     id="text140">
    <tspan
       y="-326.38"
       x="1918.65"
       id="tspan142" />
  </text>
  <text
     transform="scale(4.0128.2492)"
     font-size="46.954"
     y="-1658.84"
     x="675.21"
     font-family="Arial"
     text-anchor="middle"
     id="text144" />
  <text
     font-size="129.23"
     y="-798.78"
     x="1529.53"
     font-family="'Gentium Book Basic'"
     line-height="125%"
     word-spacing="0"
     letter-spacing="0"
     id="text146">
    <tspan
       y="-798.78"
       x="1529.53"
       id="tspan148" />
  </text>
  <text
     transform="scale(4.0128.2492)"
     font-size="46.954"
     y="-3554.49"
     x="578.24"
     font-family="Arial"
     text-anchor="middle"
     id="text150" />
  <text
     font-size="129.23"
     y="-878.78"
     x="2110.79"
     font-family="'Gentium Book Basic'"
     line-height="125%"
     word-spacing="0"
     letter-spacing="0"
     id="text152">
    <tspan
       y="-878.78"
       x="2110.79"
       id="tspan154" />
  </text>
  <text
     transform="scale(4.0128.2492)"
     font-size="46.954"
     y="-3875.52"
     x="723.09"
     font-family="Arial"
     text-anchor="middle"
     id="text156" />
  <g
     font-family="'Gentium Book Basic'"
     line-height="125%"
     word-spacing="0"
     letter-spacing="0"
     id="g158">
    <text
       y="535.94"
       x="277.99"
       font-size="208.33"
       id="text160">
      <tspan
         y="535.94"
         x="277.99"
         id="tspan162" />
    </text>
    <text
       y="1377.33"
       x="-26569.5"
       font-size="4848.4"
       id="text164">
      <tspan
         y="1377.33"
         x="-26569.5"
         id="tspan166" />
    </text>
  </g>
  <text
     transform="scale(4.0128.2492)"
     font-size="1761.7"
     y="-7573.02"
     x="773.15"
     font-family="Arial"
     text-anchor="middle"
     id="text168" />
  <text
     font-size="4848.4"
     y="2289.39"
     x="-26704.25"
     font-family="'Gentium Book Basic'"
     line-height="125%"
     word-spacing="0"
     letter-spacing="0"
     id="text170">
    <tspan
       y="2289.39"
       x="-26704.25"
       id="tspan172" />
  </text>
  <text
     transform="scale(4.0128.2492)"
     font-size="1761.7"
     y="-3913.17"
     x="739.61"
     font-family="Arial"
     text-anchor="middle"
     id="text174" />
  <g
     fill="#555753"
     id="g176">
    <text
       transform="scale(1.05082.95163)"
       font-size="2976.1"
       y="-4757.27"
       x="-12267.45"
       font-family="'Gentium Book Basic'"
       line-height="125%"
       word-spacing="0"
       letter-spacing="0"
       id="text178">
      <tspan
         y="-4757.27"
         x="-12267.45"
         id="tspan180" />
    </text>
    <text
       transform="scale(4.21677.23715)"
       font-size="1081.5"
       y="-27131.37"
       x="1481.85"
       font-family="Arial"
       text-anchor="middle"
       id="text182" />
    <text
       transform="scale(1.05082.95163)"
       font-size="1593.2"
       y="-5582.29"
       x="-2864.61"
       font-family="'Gentium Book Basic'"
       line-height="125%"
       word-spacing="0"
       letter-spacing="0"
       id="text184">
      <tspan
         y="-5582.29"
         x="-2864.61"
         id="tspan186" />
    </text>
    <text
       transform="scale(4.21677.23715)"
       font-size="578.89"
       y="-26705.24"
       x="1715.95"
       font-family="Arial"
       text-anchor="middle"
       id="text188" />
    <text
       font-size="4654.6"
       y="-1736.32"
       x="-38904.05"
       font-family="'Gentium Book Basic'"
       line-height="125%"
       word-spacing="0"
       letter-spacing="0"
       id="text190">
      <tspan
         y="-1736.32"
         x="-38904.05"
         id="tspan192" />
    </text>
    <text
       transform="scale(4.0128.2492)"
       font-size="1691.2"
       y="-19543.06"
       x="-2596.26"
       font-family="Arial"
       text-anchor="middle"
       id="text194" />
  </g>
  <text
     stroke-width="23.273"
     font-size="4848.4"
     stroke="#cd1d31"
     y="-13962.89"
     x="-24720.95"
     font-family="'Gentium Book Basic'"
     line-height="125%"
     word-spacing="0"
     letter-spacing="0"
     id="text196">
    <tspan
       y="-13962.89"
       x="-24720.95"
       id="tspan198" />
  </text>
  <text
     transform="scale(4.0128.2492)"
     font-size="1761.7"
     y="-69130.72"
     x="1233.94"
     font-family="Arial"
     text-anchor="middle"
     id="text200" />
  <text
     stroke-width="23.273"
     font-size="4848.4"
     stroke="#cd1d31"
     y="-13050.83"
     x="-24855.93"
     font-family="'Gentium Book Basic'"
     line-height="125%"
     word-spacing="0"
     letter-spacing="0"
     id="text202">
    <tspan
       y="-13050.83"
       x="-24855.93"
       id="tspan204" />
  </text>
  <text
     transform="scale(4.0128.2492)"
     font-size="1761.7"
     y="-65470.63"
     x="1200.27"
     font-family="Arial"
     text-anchor="middle"
     id="text206" />
  <g
     fill="#555753"
     id="g208">
    <g
       stroke="#cd1d31"
       stroke-width="23.273"
       id="g210">
      <text
         transform="scale(1.05082.95163)"
         font-size="2976.1"
         y="-20877.06"
         x="-10508.27"
         font-family="'Gentium Book Basic'"
         line-height="125%"
         word-spacing="0"
         letter-spacing="0"
         id="text212">
        <tspan
           y="-20877.06"
           x="-10508.27"
           id="tspan214" />
      </text>
      <text
         transform="scale(4.21677.23715)"
         font-size="1081.5"
         y="-91818.3"
         x="1920.29"
         font-family="Arial"
         text-anchor="middle"
         id="text216" />
      <text
         transform="scale(1.05082.95163)"
         font-size="1593.2"
         y="-21702.08"
         x="-1105.66"
         font-family="'Gentium Book Basic'"
         line-height="125%"
         word-spacing="0"
         letter-spacing="0"
         id="text218">
        <tspan
           y="-21702.08"
           x="-1105.66"
           id="tspan220" />
      </text>
      <text
         transform="scale(4.21677.23715)"
         font-size="578.89"
         y="-91392.18"
         x="2154.18"
         font-family="Arial"
         text-anchor="middle"
         id="text222" />
      <text
         font-size="4654.6"
         y="-17076.54"
         x="-37055.5"
         font-family="'Gentium Book Basic'"
         line-height="125%"
         word-spacing="0"
         letter-spacing="0"
         id="text224">
        <tspan
           y="-17076.54"
           x="-37055.5"
           id="tspan226" />
      </text>
    </g>
    <text
       transform="scale(4.0128.2492)"
       font-size="1691.2"
       y="-81100.75"
       x="-2135.7"
       font-family="Arial"
       text-anchor="middle"
       id="text228" />
  </g>
  <text
     stroke-width="23.273"
     font-size="4654.6"
     stroke="#cd1d31"
     y="-20652.4"
     x="-7745.12"
     font-family="'Gentium Book Basic'"
     line-height="125%"
     word-spacing="0"
     letter-spacing="0"
     id="text230">
    <tspan
       y="-20652.4"
       x="-7745.12"
       id="tspan232" />
  </text>
  <text
     transform="scale(4.0128.2492)"
     font-size="1691.2"
     y="-95449.94"
     x="5168.41"
     font-family="Arial"
     text-anchor="middle"
     id="text234" />
  <text
     stroke-width="23.273"
     font-size="4654.6"
     stroke="#cd1d31"
     y="-23534.03"
     x="13191.49"
     font-family="'Gentium Book Basic'"
     line-height="125%"
     word-spacing="0"
     letter-spacing="0"
     id="text236">
    <tspan
       y="-23534.03"
       x="13191.49"
       id="tspan238" />
  </text>
  <text
     transform="scale(4.0128.2492)"
     font-size="1691.2"
     y="-107013.17"
     x="10385.9"
     font-family="Arial"
     text-anchor="middle"
     id="text240" />
  <g
     fill="#555753"
     id="g242">
    <text
       stroke-width="23.273"
       font-size="4654.6"
       stroke="#555753"
       y="-506.69"
       x="2674.54"
       font-family="'Gentium Book Basic'"
       line-height="125%"
       word-spacing="0"
       letter-spacing="0"
       id="text244">
      <tspan
         y="-506.69"
         x="2674.54"
         id="tspan246" />
    </text>
    <text
       transform="scale(4.0128.2492)"
       font-size="1691.2"
       y="-14609.03"
       x="7764.94"
       font-family="Arial"
       text-anchor="middle"
       id="text248" />
    <text
       stroke-width="23.273"
       font-size="4654.6"
       stroke="#555753"
       y="730.1"
       x="20021.57"
       font-family="'Gentium Book Basic'"
       line-height="125%"
       word-spacing="0"
       letter-spacing="0"
       id="text250">
      <tspan
         y="730.1"
         x="20021.57"
         id="tspan252" />
    </text>
    <text
       transform="scale(4.0128.2492)"
       font-size="1691.2"
       y="-9646.15"
       x="12087.82"
       font-family="Arial"
       text-anchor="middle"
       id="text254" />
    <text
       stroke-width="23.273"
       font-size="4654.6"
       stroke="#555753"
       y="-2151.51"
       x="40957.95"
       font-family="'Gentium Book Basic'"
       line-height="125%"
       word-spacing="0"
       letter-spacing="0"
       id="text256">
      <tspan
         y="-2151.51"
         x="40957.95"
         id="tspan258" />
    </text>
    <text
       transform="scale(4.0128.2492)"
       font-size="1691.2"
       y="-21209.38"
       x="17305.31"
       font-family="Arial"
       text-anchor="middle"
       id="text260" />
    <text
       stroke-width="23.273"
       font-size="4654.6"
       stroke="#555753"
       y="-3376.59"
       x="20660.64"
       font-family="'Gentium Book Basic'"
       line-height="125%"
       word-spacing="0"
       letter-spacing="0"
       id="text262">
      <tspan
         y="-3376.59"
         x="20660.64"
         id="tspan264" />
    </text>
    <text
       transform="scale(4.0128.2492)"
       font-size="1691.2"
       y="-26125.02"
       x="12247.24"
       font-family="Arial"
       text-anchor="middle"
       id="text266" />
    <text
       stroke-width="23.273"
       font-size="4654.6"
       stroke="#555753"
       y="-6257.98"
       x="41597.25"
       font-family="'Gentium Book Basic'"
       line-height="125%"
       word-spacing="0"
       letter-spacing="0"
       id="text268">
      <tspan
         y="-6257.98"
         x="41597.25"
         id="tspan270" />
    </text>
    <text
       transform="scale(4.0128.2492)"
       font-size="1691.2"
       y="-37688.25"
       x="17464.5"
       font-family="Arial"
       text-anchor="middle"
       id="text272" />
    <text
       stroke-width="23.273"
       font-size="4654.6"
       stroke="#555753"
       y="7140.13"
       x="-49389.81"
       font-family="'Gentium Book Basic'"
       line-height="125%"
       word-spacing="0"
       letter-spacing="0"
       id="text274">
      <tspan
         y="7140.13"
         x="-49389.81"
         id="tspan276" />
    </text>
    <text
       transform="scale(4.0128.2492)"
       font-size="1691.2"
       y="16075.9"
       x="-5209.31"
       font-family="Arial"
       text-anchor="middle"
       id="text278" />
  </g>
  <text
     font-size="129.23"
     y="231.36"
     x="729.64"
     font-family="'Gentium Book Basic'"
     line-height="125%"
     word-spacing="0"
     letter-spacing="0"
     id="text280">
    <tspan
       y="231.36"
       x="729.64"
       id="tspan282" />
  </text>
  <text
     transform="scale(4.0128.2492)"
     font-size="46.954"
     y="579.26"
     x="378.91"
     font-family="Arial"
     text-anchor="middle"
     id="text284" />
  <text
     font-size="129.23"
     y="151.36"
     x="1310.91"
     font-family="'Gentium Book Basic'"
     line-height="125%"
     word-spacing="0"
     letter-spacing="0"
     id="text286">
    <tspan
       y="151.36"
       x="1310.91"
       id="tspan288" />
  </text>
  <text
     transform="scale(4.0128.2492)"
     font-size="46.954"
     y="258.22"
     x="523.76"
     font-family="Arial"
     text-anchor="middle"
     id="text290" />
  <text
     font-size="129.23"
     y="-29.9"
     x="239.33"
     font-family="'Gentium Book Basic'"
     line-height="125%"
     word-spacing="0"
     letter-spacing="0"
     id="text292">
    <tspan
       y="-29.9"
       x="239.33"
       id="tspan294" />
  </text>
  <text
     transform="scale(4.0128.2492)"
     font-size="46.954"
     y="-469.13"
     x="256.72"
     font-family="Arial"
     text-anchor="middle"
     id="text296" />
  <text
     font-size="129.23"
     y="-246.37"
     x="1337.38"
     font-family="'Gentium Book Basic'"
     line-height="125%"
     word-spacing="0"
     letter-spacing="0"
     id="text298">
    <tspan
       y="-246.37"
       x="1337.38"
       id="tspan300" />
  </text>
  <text
     transform="scale(4.0128.2492)"
     font-size="46.954"
     y="-1337.79"
     x="530.36"
     font-family="Arial"
     text-anchor="middle"
     id="text302" />
  <text
     font-size="129.23"
     y="-326.37"
     x="1918.65"
     font-family="'Gentium Book Basic'"
     line-height="125%"
     word-spacing="0"
     letter-spacing="0"
     id="text304">
    <tspan
       y="-326.37"
       x="1918.65"
       id="tspan306" />
  </text>
  <text
     transform="scale(4.0128.2492)"
     font-size="46.954"
     y="-1658.82"
     x="675.21"
     font-family="Arial"
     text-anchor="middle"
     id="text308" />
  <text
     font-size="129.23"
     y="-798.77"
     x="1529.53"
     font-family="'Gentium Book Basic'"
     line-height="125%"
     word-spacing="0"
     letter-spacing="0"
     id="text310">
    <tspan
       y="-798.77"
       x="1529.53"
       id="tspan312" />
  </text>
  <text
     transform="scale(4.0128.2492)"
     font-size="46.954"
     y="-3554.46"
     x="578.24"
     font-family="Arial"
     text-anchor="middle"
     id="text314" />
  <text
     font-size="129.23"
     y="-878.78"
     x="2110.79"
     font-family="'Gentium Book Basic'"
     line-height="125%"
     word-spacing="0"
     letter-spacing="0"
     id="text316">
    <tspan
       y="-878.78"
       x="2110.79"
       id="tspan318" />
  </text>
  <text
     transform="scale(4.0128.2492)"
     font-size="46.954"
     y="-3875.5"
     x="723.09"
     font-family="Arial"
     text-anchor="middle"
     id="text320" />
  <g
     font-family="'Gentium Book Basic'"
     line-height="125%"
     word-spacing="0"
     letter-spacing="0"
     id="g322">
    <text
       y="535.94"
       x="277.99"
       font-size="208.33"
       id="text324">
      <tspan
         y="535.94"
         x="277.99"
         id="tspan326" />
    </text>
    <text
       y="177.12"
       x="1532.35"
       font-size="129.23"
       id="text328">
      <tspan
         y="177.12"
         x="1532.35"
         id="tspan330" />
    </text>
  </g>
  <text
     transform="scale(4.0128.2492)"
     font-size="46.954"
     y="361.61"
     x="578.94"
     font-family="Arial"
     text-anchor="middle"
     id="text332" />
  <text
     font-size="129.23"
     y="97.12"
     x="2113.62"
     font-family="'Gentium Book Basic'"
     line-height="125%"
     word-spacing="0"
     letter-spacing="0"
     id="text334">
    <tspan
       y="97.12"
       x="2113.62"
       id="tspan336" />
  </text>
  <text
     transform="scale(4.0128.2492)"
     font-size="46.954"
     y="40.575"
     x="723.79"
     font-family="Arial"
     text-anchor="middle"
     id="text338" />
  <text
     font-size="129.23"
     y="-84.14"
     x="1042.04"
     font-family="'Gentium Book Basic'"
     line-height="125%"
     word-spacing="0"
     letter-spacing="0"
     id="text340">
    <tspan
       y="-84.14"
       x="1042.04"
       id="tspan342" />
  </text>
  <text
     transform="scale(4.0128.2492)"
     font-size="46.954"
     y="-686.77"
     x="456.76"
     font-family="Arial"
     text-anchor="middle"
     id="text344" />
  <text
     font-size="129.23"
     y="-300.61"
     x="2140.09"
     font-family="'Gentium Book Basic'"
     line-height="125%"
     word-spacing="0"
     letter-spacing="0"
     id="text346">
    <tspan
       y="-300.61"
       x="2140.09"
       id="tspan348" />
  </text>
  <text
     transform="scale(4.0128.2492)"
     font-size="46.954"
     y="-1555.45"
     x="730.39"
     font-family="Arial"
     text-anchor="middle"
     id="text350" />
  <text
     font-size="129.23"
     y="-380.61"
     x="2721.36"
     font-family="'Gentium Book Basic'"
     line-height="125%"
     word-spacing="0"
     letter-spacing="0"
     id="text352">
    <tspan
       y="-380.61"
       x="2721.36"
       id="tspan354" />
  </text>
  <text
     transform="scale(4.0128.2492)"
     font-size="46.954"
     y="-1876.47"
     x="875.24"
     font-family="Arial"
     text-anchor="middle"
     id="text356" />
  <text
     font-size="129.23"
     y="-853.01"
     x="2332.24"
     font-family="'Gentium Book Basic'"
     line-height="125%"
     word-spacing="0"
     letter-spacing="0"
     id="text358">
    <tspan
       y="-853.01"
       x="2332.24"
       id="tspan360" />
  </text>
  <text
     transform="scale(4.0128.2492)"
     font-size="46.954"
     y="-3772.13"
     x="778.27"
     font-family="Arial"
     text-anchor="middle"
     id="text362" />
  <text
     font-size="129.23"
     y="-933.02"
     x="2913.5"
     font-family="'Gentium Book Basic'"
     line-height="125%"
     word-spacing="0"
     letter-spacing="0"
     id="text364">
    <tspan
       y="-933.02"
       x="2913.5"
       id="tspan366" />
  </text>
  <text
     transform="scale(4.0128.2492)"
     font-size="46.954"
     y="-4093.16"
     x="923.12"
     font-family="Arial"
     text-anchor="middle"
     id="text368" />
  <g
     font-family="'Gentium Book Basic'"
     line-height="125%"
     word-spacing="0"
     letter-spacing="0"
     id="g370">
    <text
       y="481.7"
       x="1080.7"
       font-size="208.33"
       id="text372">
      <tspan
         y="481.7"
         x="1080.7"
         id="tspan374" />
    </text>
    <text
       y="-78.71"
       x="1662.54"
       font-size="129.23"
       id="text376">
      <tspan
         y="-78.71"
         x="1662.54"
         id="tspan378" />
    </text>
  </g>
  <text
     transform="scale(4.0128.2492)"
     font-size="46.954"
     y="-664.99"
     x="611.39"
     font-family="Arial"
     text-anchor="middle"
     id="text380" />
  <text
     font-size="129.23"
     y="-158.71"
     x="2243.81"
     font-family="'Gentium Book Basic'"
     line-height="125%"
     word-spacing="0"
     letter-spacing="0"
     id="text382">
    <tspan
       y="-158.71"
       x="2243.81"
       id="tspan384" />
  </text>
  <text
     transform="scale(4.0128.2492)"
     font-size="46.954"
     y="-986.03"
     x="756.24"
     font-family="Arial"
     text-anchor="middle"
     id="text386" />
  <text
     font-size="129.23"
     y="-339.97"
     x="1172.23"
     font-family="'Gentium Book Basic'"
     line-height="125%"
     word-spacing="0"
     letter-spacing="0"
     id="text388">
    <tspan
       y="-339.97"
       x="1172.23"
       id="tspan390" />
  </text>
  <text
     transform="scale(4.0128.2492)"
     font-size="46.954"
     y="-1713.38"
     x="489.2"
     font-family="Arial"
     text-anchor="middle"
     id="text392" />
  <text
     font-size="129.23"
     y="-556.44"
     x="2270.28"
     font-family="'Gentium Book Basic'"
     line-height="125%"
     word-spacing="0"
     letter-spacing="0"
     id="text394">
    <tspan
       y="-556.44"
       x="2270.28"
       id="tspan396" />
  </text>
  <text
     transform="scale(4.0128.2492)"
     font-size="46.954"
     y="-2582.05"
     x="762.84"
     font-family="Arial"
     text-anchor="middle"
     id="text398" />
  <text
     font-size="129.23"
     y="-636.44"
     x="2851.55"
     font-family="'Gentium Book Basic'"
     line-height="125%"
     word-spacing="0"
     letter-spacing="0"
     id="text400">
    <tspan
       y="-636.44"
       x="2851.55"
       id="tspan402" />
  </text>
  <text
     transform="scale(4.0128.2492)"
     font-size="46.954"
     y="-2903.08"
     x="907.69"
     font-family="Arial"
     text-anchor="middle"
     id="text404" />
  <text
     font-size="129.23"
     y="-1108.84"
     x="2462.43"
     font-family="'Gentium Book Basic'"
     line-height="125%"
     word-spacing="0"
     letter-spacing="0"
     id="text406">
    <tspan
       y="-1108.84"
       x="2462.43"
       id="tspan408" />
  </text>
  <text
     transform="scale(4.0128.2492)"
     font-size="46.954"
     y="-4798.73"
     x="810.72"
     font-family="Arial"
     text-anchor="middle"
     id="text410" />
  <text
     font-size="129.23"
     y="-1188.85"
     x="3043.69"
     font-family="'Gentium Book Basic'"
     line-height="125%"
     word-spacing="0"
     letter-spacing="0"
     id="text412">
    <tspan
       y="-1188.85"
       x="3043.69"
       id="tspan414" />
  </text>
  <text
     transform="scale(4.0128.2492)"
     font-size="46.954"
     y="-5119.77"
     x="955.57"
     font-family="Arial"
     text-anchor="middle"
     id="text416" />
  <g
     font-family="'Gentium Book Basic'"
     line-height="125%"
     word-spacing="0"
     letter-spacing="0"
     id="g418">
    <text
       y="225.87"
       x="1210.89"
       font-size="208.33"
       id="text420">
      <tspan
         y="225.87"
         x="1210.89"
         id="tspan422" />
    </text>
    <text
       y="-813.41"
       x="1901.43"
       font-size="129.23"
       id="text424">
      <tspan
         y="-813.41"
         x="1901.43"
         id="tspan426" />
    </text>
  </g>
  <text
     transform="scale(4.0128.2492)"
     font-size="46.954"
     y="-3613.22"
     x="670.92"
     font-family="Arial"
     text-anchor="middle"
     id="text428" />
  <text
     font-size="129.23"
     y="-893.41"
     x="2482.7"
     font-family="'Gentium Book Basic'"
     line-height="125%"
     word-spacing="0"
     letter-spacing="0"
     id="text430">
    <tspan
       y="-893.41"
       x="2482.7"
       id="tspan432" />
  </text>
  <text
     transform="scale(4.0128.2492)"
     font-size="46.954"
     y="-3934.26"
     x="815.77"
     font-family="Arial"
     text-anchor="middle"
     id="text434" />
  <text
     font-size="129.23"
     y="-1074.67"
     x="1411.12"
     font-family="'Gentium Book Basic'"
     line-height="125%"
     word-spacing="0"
     letter-spacing="0"
     id="text436">
    <tspan
       y="-1074.67"
       x="1411.12"
       id="tspan438" />
  </text>
  <text
     transform="scale(4.0128.2492)"
     font-size="46.954"
     y="-4661.61"
     x="548.73"
     font-family="Arial"
     text-anchor="middle"
     id="text440" />
  <text
     font-size="129.23"
     y="-1291.14"
     x="2509.17"
     font-family="'Gentium Book Basic'"
     line-height="125%"
     word-spacing="0"
     letter-spacing="0"
     id="text442">
    <tspan
       y="-1291.14"
       x="2509.17"
       id="tspan444" />
  </text>
  <text
     transform="scale(4.0128.2492)"
     font-size="46.954"
     y="-5530.27"
     x="822.37"
     font-family="Arial"
     text-anchor="middle"
     id="text446" />
  <text
     font-size="129.23"
     y="-1371.14"
     x="3090.44"
     font-family="'Gentium Book Basic'"
     line-height="125%"
     word-spacing="0"
     letter-spacing="0"
     id="text448">
    <tspan
       y="-1371.14"
       x="3090.44"
       id="tspan450" />
  </text>
  <text
     transform="scale(4.0128.2492)"
     font-size="46.954"
     y="-5851.3"
     x="967.22"
     font-family="Arial"
     text-anchor="middle"
     id="text452" />
  <text
     font-size="129.23"
     y="-1843.54"
     x="2701.32"
     font-family="'Gentium Book Basic'"
     line-height="125%"
     word-spacing="0"
     letter-spacing="0"
     id="text454">
    <tspan
       y="-1843.54"
       x="2701.32"
       id="tspan456" />
  </text>
  <text
     transform="scale(4.0128.2492)"
     font-size="46.954"
     y="-7746.94"
     x="870.25"
     font-family="Arial"
     text-anchor="middle"
     id="text458" />
  <text
     font-size="129.23"
     y="-1923.55"
     x="3282.58"
     font-family="'Gentium Book Basic'"
     line-height="125%"
     word-spacing="0"
     letter-spacing="0"
     id="text460">
    <tspan
       y="-1923.55"
       x="3282.58"
       id="tspan462" />
  </text>
  <text
     transform="scale(4.0128.2492)"
     font-size="46.954"
     y="-8067.98"
     x="1015.1"
     font-family="Arial"
     text-anchor="middle"
     id="text464" />
  <text
     font-size="208.33"
     y="-508.83"
     x="1449.78"
     font-family="'Gentium Book Basic'"
     line-height="125%"
     word-spacing="0"
     letter-spacing="0"
     id="text466">
    <tspan
       y="-508.83"
       x="1449.78"
       id="tspan468" />
  </text>
  <path
     style="fill:#E3E3E3;fill-rule:evenodd"
     inkscape:connector-curvature="0"
     id="path474"
     d="m 428.81891,25.491864 c -31.82632,0 -57.63544,25.866232 -57.63544,57.685829 0,31.824637 25.81416,57.635437 57.63544,57.635437 31.82631,0 57.68583,-25.81416 57.68583,-57.635437 0,-31.824637 -25.86624,-57.685829 -57.68583,-57.685829 m 0,115.338056 c -31.82632,0 -57.63544,25.86624 -57.63544,57.68583 0,31.82464 25.81416,57.68583 57.63544,57.68583 31.82631,0 57.68583,-25.86623 57.68583,-57.68583 0,-31.82463 -25.86624,-57.68583 -57.68583,-57.68583 m 0,115.38846 c -31.82632,0 -57.63544,25.44963 -57.63544,57.26587 0,31.82463 25.81416,57.68583 57.63544,57.68583 31.82631,0 57.68583,-25.86624 57.68583,-57.68583 0,-31.82464 -25.86624,-57.26587 -57.68583,-57.26587 m 0,114.96849 c -31.82632,0 -57.63544,25.81416 -57.63544,57.63544 0,31.82463 25.81416,57.68583 57.63544,57.68583 31.82631,0 57.68583,-25.86624 57.68583,-57.68583 0,-31.82464 -25.86624,-57.63544 -57.68583,-57.63544 m -57.63544,57.63544 c 0,-31.82464 -25.86623,-57.63544 -57.68582,-57.63544 -31.82632,0 -57.68583,25.81416 -57.68583,57.63544 0,31.82463 25.86623,57.68583 57.68583,57.68583 31.82463,0 57.68582,-25.86624 57.68582,-57.68583 m -115.38845,0 c 0,-31.82464 -25.44963,-57.63544 -57.26587,-57.63544 -31.82463,0 -57.68583,25.81416 -57.68583,57.63544 0,31.82463 25.86623,57.68583 57.68583,57.68583 31.82464,0 57.26587,-25.86624 57.26587,-57.68583 m -114.96849,0 c 0,-31.82464 -25.81416,-57.63544 -57.635438,-57.63544 -31.824637,0 -57.685828,25.81416 -57.685828,57.63544 0,31.82463 25.866231,57.68583 57.685828,57.68583 31.824638,0 57.635438,-25.86624 57.635438,-57.68583 M 83.191092,371.18687 c 31.824638,0 57.635438,-25.86623 57.635438,-57.68582 0,-31.82464 -25.81416,-57.26587 -57.635438,-57.26587 -31.824637,0 -57.685828,25.44963 -57.685828,57.26587 0,31.82463 25.866231,57.68582 57.685828,57.68582 m 57.635438,-57.68582 c 0,31.82463 25.86623,57.68582 57.68582,57.68582 31.82464,0 57.26587,-25.86623 57.26587,-57.68582 0,-31.82464 -25.44963,-57.26587 -57.26587,-57.26587 -31.82463,0 -57.68582,25.44963 -57.68582,57.26587 m 114.96849,0 c 0,31.82463 25.86623,57.68582 57.68583,57.68582 31.82463,0 57.68583,-25.86623 57.68583,-57.68582 0,-31.82464 -25.86623,-57.26587 -57.68583,-57.26587 -31.82632,0 -57.68583,25.44963 -57.68583,57.26587 m 57.68583,-57.26587 c 31.82463,0 57.68583,-25.86623 57.68583,-57.68583 0,-31.82464 -25.86623,-57.68583 -57.68583,-57.68583 -31.82632,0 -57.68583,25.86623 -57.68583,57.68583 0,31.82464 25.86623,57.68583 57.68583,57.68583" />
</svg>
