<?xml version="1.0" encoding="UTF-8" standalone="no"?>
<svg
   xmlns:dc="http://purl.org/dc/elements/1.1/"
   xmlns:cc="http://creativecommons.org/ns#"
   xmlns:rdf="http://www.w3.org/1999/02/22-rdf-syntax-ns#"
   xmlns:svg="http://www.w3.org/2000/svg"
   xmlns="http://www.w3.org/2000/svg"
   xmlns:sodipodi="http://sodipodi.sourceforge.net/DTD/sodipodi-0.dtd"
   xmlns:inkscape="http://www.inkscape.org/namespaces/inkscape"
   height="512"
   viewBox="0 0 512 512"
   width="512"
   version="1.1"
   id="svg2"
   inkscape:version="0.91 r"
   sodipodi:docname="gitg.svg">
  <defs
     id="defs15" />
  <sodipodi:namedview
     pagecolor="#ffffff"
     bordercolor="#666666"
     borderopacity="1"
     objecttolerance="10"
     gridtolerance="10"
     guidetolerance="10"
     inkscape:pageopacity="0"
     inkscape:pageshadow="2"
     inkscape:window-width="647"
     inkscape:window-height="480"
     id="namedview13"
     showgrid="false"
     inkscape:zoom="0.4609375"
     inkscape:cx="218.0339"
     inkscape:cy="256"
     inkscape:window-x="0"
     inkscape:window-y="0"
     inkscape:window-maximized="0"
     inkscape:current-layer="svg2" />
  <metadata
     id="metadata72">
    <rdf:RDF>
      <cc:Work
         rdf:about="">
        <dc:format>image/svg+xml</dc:format>
        <dc:type
           rdf:resource="http://purl.org/dc/dcmitype/StillImage" />
      </cc:Work>
    </rdf:RDF>
  </metadata>
  <path
     id="path66"
     d="m 101.14921,296.20903 c 0,30.50854 19.4663,56.42967 46.67744,66.06102 l 0,97.55417 46.75697,0 0,-97.55417 c 27.21591,-9.6393 46.75697,-35.55089 46.75697,-66.06102 0,-11.75486 -2.95701,-22.78597 -8.06933,-32.51594 l 92.32095,-92.32096 c 9.7252,5.10597 20.77381,7.98504 32.51594,7.98504 38.71468,0 70.09966,-31.38181 70.09966,-70.09967 0,-38.71468 -31.3818,-70.09967 -70.09966,-70.09967 -38.71468,0 -70.09967,31.381809 -70.09967,70.09967 0,11.76122 2.95065,22.86073 8.06934,32.59547 l -92.24938,92.24938 c -2.95064,-1.55247 -6.07626,-2.82976 -9.25595,-3.95593 l 0,-54.74837 c 27.21591,-9.6393 46.75697,-35.62882 46.75697,-66.14055 0,-38.71468 -31.38181,-70.09967 -70.09967,-70.09967 -38.71468,0 -70.09967,31.381809 -70.09967,70.09967 0,30.50855 19.4663,56.50921 46.67744,66.14055 l 0,54.74837 c -27.21591,9.6393 -46.67744,35.55088 -46.67744,66.06102"
     inkscape:connector-curvature="0"
     style="fill:#E3E3E3;fill-opacity:1" />
</svg>
