<svg xmlns="http://www.w3.org/2000/svg" width="48" height="48">
<defs>
<defs
     id="defs3">
  </defs>
  <path
     id="path-main"
     d="M 8.3626894,2 C 5.4182395,2 2.96875,4.3894041 2.96875,7.2424242 l 0,33.5151518 C 2.96875,43.610596 5.4182391,46 8.3626894,46 l 29.9999996,0 c 2.94445,-10e-7 5.39394,-2.389402 5.39394,-5.242424 l 0,-33.5151518 C 43.756629,4.3894039 41.30714,2 38.362689,2 L 8.3626894,2 z m 0,3.8484848 2.1818186,0 0,27.0606062 L 18.120265,24 l 7.363637,8.909091 0,-27.0606062 12.878787,0 c 0.830337,-10e-8 1.424243,0.5908108 1.424243,1.3939394 l 0,33.5151518 c 0,0.803131 -0.593909,1.393939 -1.424243,1.393939 l -29.9999996,0 c -0.8303336,-1e-6 -1.4242424,-0.59081 -1.4242424,-1.393939 l 0,-33.5151518 c -1e-7,-0.8031288 0.5939083,-1.3939394 1.4242424,-1.3939394 z M 32.817235,15.060606 c -2.511267,0 -4.623156,0.727601 -5.878788,1.454546 l 1.181818,3.757575 c 0.925204,-0.594773 2.295301,-0.969696 3.484849,-0.969697 1.718235,0 2.51515,0.840757 2.515151,2.030303 0,1.189548 -0.906842,2.375251 -2.030303,3.69697 -1.586063,1.850407 -2.126693,3.700529 -2.060606,5.484849 l 0.06061,0.939393 4.636364,0 0,-0.666666 c -0.06609,-1.586064 0.532244,-2.975831 1.787879,-4.363637 1.321719,-1.519977 3.030303,-3.229868 3.030303,-5.939394 0,-2.841696 -2.101253,-5.424242 -6.727273,-5.424242 z M 32.27178,33.181818 c -1.784321,0 -3.090909,1.235022 -3.090909,3.151515 0,1.784321 1.240503,3.181819 3.090909,3.181819 l 0.06061,0 c 1.850407,0 3.121213,-1.331412 3.121212,-3.181819 -0.06608,-1.850406 -1.265324,-3.151515 -3.181818,-3.151515 z" />
</defs>

<use id="1" style="fill:#E3E3E3" xlink:href="#path-main" />



</svg>
