<?xml version="1.0" encoding="UTF-8" standalone="no"?>
<svg
   xmlns:dc="http://purl.org/dc/elements/1.1/"
   xmlns:cc="http://creativecommons.org/ns#"
   xmlns:rdf="http://www.w3.org/1999/02/22-rdf-syntax-ns#"
   xmlns:svg="http://www.w3.org/2000/svg"
   xmlns="http://www.w3.org/2000/svg"
   xmlns:sodipodi="http://sodipodi.sourceforge.net/DTD/sodipodi-0.dtd"
   xmlns:inkscape="http://www.inkscape.org/namespaces/inkscape"
   height="512"
   viewBox="0 0 512 512"
   width="512"
   version="1.1"
   id="svg2"
   inkscape:version="0.91 r"
   sodipodi:docname="yahoo.svg">
  <sodipodi:namedview
     pagecolor="#ffffff"
     bordercolor="#666666"
     borderopacity="1"
     objecttolerance="10"
     gridtolerance="10"
     guidetolerance="10"
     inkscape:pageopacity="0"
     inkscape:pageshadow="2"
     inkscape:window-width="647"
     inkscape:window-height="480"
     id="namedview18"
     showgrid="false"
     inkscape:zoom="0.4609375"
     inkscape:cx="256"
     inkscape:cy="256"
     inkscape:window-x="0"
     inkscape:window-y="0"
     inkscape:window-maximized="0"
     inkscape:current-layer="svg2" />
  <metadata
     id="metadata70">
    <rdf:RDF>
      <cc:Work
         rdf:about="">
        <dc:format>image/svg+xml</dc:format>
        <dc:type
           rdf:resource="http://purl.org/dc/dcmitype/StillImage" />
      </cc:Work>
    </rdf:RDF>
  </metadata>
  <defs
     id="defs68">
    <filter
       id="filter3174"
       color-interpolation-filters="sRGB">
      <feGaussianBlur
         id="feGaussianBlur3176"
         stdDeviation="1.71" />
    </filter>
    <linearGradient
       id="linearGradient3251"
       gradientUnits="userSpaceOnUse"
       y1="92.54"
       gradientTransform="scale(1.0059 .99417)"
       x2="0"
       y2="7.02">
      <stop
         id="stop3750" />
      <stop
         id="stop3752"
         stop-opacity="0.588"
         offset="1" />
    </linearGradient>
  </defs>
  <path
     id="path3851"
     fill="#E3E3E3"
     d="m366.22 159.75 0.50822 134.94 22.998 3.0494 31.892-130.49-55.397-7.4965zm-150.18 4.0659c-69.406 0-125.66 42.13-125.66 94.15s56.254 94.277 125.66 94.277 125.66-42.257 125.66-94.277-56.254-94.15-125.66-94.15zm-78.903 49.553 74.202 1.0165-1.0165 5.4635-22.871 1.7788 32.654 43.962s29.86-23.906 30.113-27.699c-1.8963-1.5171-19.313-2.9224-19.313-2.9224l-1.6517-7.7506 63.656 0.3812-4.32 7.4964-18.678 3.1764s-27.522 19.272-42.946 36.339c-1.1378 11.125 0.38119 30.24 0.38119 30.24l23.506 0.63529s-0.30861 6.2796-0.12704 7.2423c-0.37708-0.85577-72.804 0.63529-72.804 0.63529l1.6518-7.7506s19.329 0.86838 22.489-3.3035l-0.50825-26.809c-4.9304-9.6081-37.257-47.037-43.073-52.094l-21.219-2.7953-0.12705-7.2423zm224.64 96.183-3.6847 26.682 28.08 4.5741 4.193-28.08-28.588-3.1765z"
     color="#000000" />
</svg>
