<svg xmlns="http://www.w3.org/2000/svg" width="48" height="48">
<defs>
<defs
     id="defs3">
  </defs>
  <path
     d="m 36.489583,5.0625 c -3.369702,0 -6.454396,1.3568649 -8.679687,3.5807292 -0.138626,0.1072309 -0.207492,0.286732 -0.171875,0.4583333 0.03562,0.1716011 0.173901,0.3005452 0.34375,0.34375 0.16985,0.043204 0.34505,-0.0095 0.458333,-0.1432292 2.059266,-2.0579462 4.9275,-3.3229166 8.049479,-3.3229166 3.121978,0 5.961569,1.2649705 8.020834,3.3229166 0.113283,0.1337255 0.288483,0.186434 0.458333,0.1432292 0.169847,-0.043205 0.308133,-0.1721488 0.34375,-0.34375 C 45.348112,8.9299611 45.279252,8.7504601 45.140625,8.6432292 42.915335,6.4193647 39.859285,5.0625 36.489583,5.0625 z M 11.625,5.578125 C 10.894397,5.5928466 10.264324,5.9714008 9.8776042,6.4375 9.4908841,6.9035992 9.3065324,7.4397271 9.3046875,8.0130208 l -0.028646,0.9453125 -3.265625,0 C 3.8097488,8.9583333 2,10.769868 2,12.96875 l 0,27.528646 c 0,2.17727 1.7520156,3.97612 3.9244792,4.010416 0.021543,3.41e-4 0.064305,0 0.085938,0 l 17.6458328,0 c 2.200669,0 4.010416,-1.811535 4.010417,-4.010416 l 0,-1.117188 c 0,2.88598 2.327559,5.213542 5.213541,5.213542 l 7.90625,0 C 43.67244,44.593748 46,42.266188 46,39.380208 l 0,-11.859375 -18.333333,0 0,-1.260416 8.45052,0 0,-9.166667 -3.236979,0 c -2.885982,0 -5.213541,2.32756 -5.213541,5.213542 l 0,-9.338542 c 0,-2.198882 -1.809748,-4.0104165 -4.010417,-4.0104167 l -3.122396,0 0,-1.03125 0,-0.028646 C 20.497747,6.6726093 19.501966,5.59671 18.213542,5.6067708 l -6.559896,-0.028646 -0.02865,0 z m 0.05729,1.8333333 6.53125,0.028646 0.02865,0 c 0.218427,-0.00171 0.450513,0.2501263 0.458334,0.515625 l 0,1.9192708 0,0.9166669 0.916666,0 4.039063,0 c 1.219139,0 2.177083,0.964588 2.177083,2.177083 l 0,27.528646 c -1e-6,1.212495 -0.957944,2.177083 -2.177083,2.177083 l -17.645833,0 c -0.011978,0 -0.045356,1.88e-4 -0.057292,0 -1.2005573,-0.01895 -2.1197917,-0.976505 -2.1197917,-2.177083 l 0,-27.528646 c 0,-1.212496 0.957946,-2.177083 2.1770834,-2.177083 l 4.1822913,0 0.888021,0 0.02865,-0.8880211 0.02865,-1.8619791 c 3.21e-4,-0.101196 0.06925,-0.3059985 0.17187,-0.4296876 C 11.41252,7.48829 11.505186,7.415027 11.682292,7.4114583 z m 24.807291,1.375 c -2.343932,1.9e-6 -4.496732,0.9443787 -6.044271,2.4921877 -0.181937,0.181937 -0.181937,0.476916 0,0.658854 0.181938,0.181938 0.476917,0.181938 0.658855,0 1.382199,-1.382441 3.290403,-2.2343733 5.385416,-2.234375 2.095013,0 3.974573,0.851933 5.356771,2.234375 0.181937,0.181938 0.476917,0.181938 0.658854,0 0.181938,-0.181938 0.181938,-0.476917 0,-0.658854 C 40.957671,9.7308351 38.833515,8.7864583 36.489583,8.7864583 z m 0,3.7239587 c -1.322006,2e-6 -2.53851,0.561927 -3.408854,1.432291 -0.133725,0.113284 -0.186434,0.288484 -0.143229,0.458334 0.0432,0.169849 0.172149,0.308133 0.34375,0.34375 0.1716,0.03561 0.351103,-0.03325 0.458333,-0.171875 0.708818,-0.708835 1.679359,-1.145832 2.75,-1.145834 1.070638,0 2.012536,0.436999 2.721354,1.145834 0.107231,0.138625 0.286732,0.207492 0.458334,0.171875 0.171603,-0.03561 0.300545,-0.173901 0.34375,-0.34375 0.0432,-0.16985 -0.0095,-0.34505 -0.143229,-0.458334 -0.870345,-0.870364 -2.058203,-1.432291 -3.380209,-1.432291 z m 0.888021,4.583333 0,9.166667 8.622396,0 0,-3.953125 C 46,19.42131 43.67244,17.09375 40.786458,17.09375 l -3.408854,0 z m -31.710937,5.242187 0,2.20573 18.333333,0 0,-2.20573 -18.333333,0 z m 0,4.039063 0,6.416667 18.333333,0 0,-6.416667 -18.333333,0 z m 18.390625,8.192708 -18.3619795,0.05729 0,4.526042 c 0,1.342463 0.6146251,1.890626 1.9192708,1.890625 l 14.5520837,0.02865 c 1.220149,0 1.890625,-0.65654 1.890625,-1.861979 l 0,-4.640625 z"
     id="path-main"
      />
  <g
     id="layer2" />
</defs>

<use id="1" style="fill:#E3E3E3" xlink:href="#path-main" />



</svg>
