<svg xmlns="http://www.w3.org/2000/svg" width="48" height="48">
<defs>
  <path
     d="m 31.046838,2 c 0,0 -1.571142,2.793032 -3.487805,4.012725 -1.916663,1.219693 -7.752808,3.83194 -9.495228,5.225875 -1.650744,1.320595 -2.996168,2.925375 -3.487805,4.222694 l 0,4.397667 c 0.07746,0.146942 0.179471,0.281287 0.268293,0.431601 1.132573,1.916662 4.176034,3.406148 4.176034,3.406148 0,0 -3.606794,2.04294 -4.444327,4.00106 l 0,4.74762 c 0.42792,0.64337 1.330975,1.93735 2.099682,2.57794 0.849954,0.70829 1.555609,1.15418 1.843054,1.3298 -0.906335,0.50966 -1.788144,1.03561 -2.379639,1.45811 C 14.919402,38.68245 14.576,39.64263 14.576,39.64263 L 14.65765,46 c 0,0 1.571142,-2.79303 3.487805,-4.01273 1.916663,-1.21969 7.752808,-3.83194 9.495228,-5.22587 1.650744,-1.3206 2.996168,-2.92538 3.487805,-4.22269 l 0,-4.39767 c -0.07746,-0.14694 -0.179471,-0.28129 -0.268293,-0.4316 -1.132573,-1.91666 -4.176034,-3.40615 -4.176034,-3.40615 0,0 3.606794,-2.031278 4.444327,-3.989398 l 0,-4.759279 c -0.42792,-0.643374 -1.330975,-1.937354 -2.099682,-2.577943 -0.849954,-0.708295 -1.555609,-1.15418 -1.843054,-1.329798 0.906335,-0.509664 1.788144,-1.035616 2.37964,-1.458113 C 30.785086,9.31755 31.128488,8.35737 31.128488,8.35737 L 31.046838,2 z m -8.317073,11.991516 c 0.797774,0.337266 1.662966,0.736601 2.204666,1.084836 1.219694,0.78409 2.357772,1.739533 2.706256,2.088017 0.348484,0.348484 0.348484,0.526383 0,0.874867 -0.293314,0.293314 -3.034037,2.191163 -4.59597,3.219513 -0.06439,-0.03067 -0.120415,-0.06275 -0.186639,-0.09332 -1.132573,-0.522726 -2.791568,-1.659341 -3.662778,-2.356309 -0.87121,-0.696969 -1.394321,-1.045106 -1.481442,-1.306469 -0.08712,-0.261363 0.433796,-0.957984 0.956522,-1.306469 0.366375,-0.24425 2.392482,-1.331364 4.059385,-2.204666 z m -0.06999,12.749734 c 0.06477,0.0309 0.120017,0.0626 0.186639,0.0933 1.132573,0.52273 2.791568,1.65934 3.662778,2.35631 0.87121,0.69697 1.394321,1.04511 1.481442,1.30647 0.08712,0.26136 -0.433796,0.95798 -0.956522,1.30647 -0.366306,0.2442 -2.392654,1.33144 -4.059385,2.20466 -0.797262,-0.3371 -1.663387,-0.73687 -2.204665,-1.08483 -1.219695,-0.78409 -2.357773,-1.73954 -2.706257,-2.08802 -0.348484,-0.34848 -0.348484,-0.52638 0,-0.87487 0.293547,-0.29354 3.034803,-2.19182 4.59597,-3.21951 z"
     id="path-main"
      />
</defs>

<use id="1" style="fill:#E3E3E3" xlink:href="#path-main" />



</svg>
