<?xml version="1.0" encoding="UTF-8" standalone="no"?>
<svg
   xmlns:dc="http://purl.org/dc/elements/1.1/"
   xmlns:cc="http://creativecommons.org/ns#"
   xmlns:rdf="http://www.w3.org/1999/02/22-rdf-syntax-ns#"
   xmlns:svg="http://www.w3.org/2000/svg"
   xmlns="http://www.w3.org/2000/svg"
   xmlns:sodipodi="http://sodipodi.sourceforge.net/DTD/sodipodi-0.dtd"
   xmlns:inkscape="http://www.inkscape.org/namespaces/inkscape"
   sodipodi:docname="ice.svg"
   inkscape:version="0.91 r13725"
   id="svg2"
   version="1.1"
   width="512"
   viewBox="0 0 512 512"
   height="512">
  <defs
     id="defs17" />
  <sodipodi:namedview
     inkscape:current-layer="svg2"
     inkscape:window-maximized="1"
     inkscape:window-y="0"
     inkscape:window-x="1920"
     inkscape:cy="427.82974"
     inkscape:cx="268.51576"
     inkscape:zoom="0.51858143"
     showgrid="false"
     id="namedview15"
     inkscape:window-height="1022"
     inkscape:window-width="1680"
     inkscape:pageshadow="2"
     inkscape:pageopacity="0"
     guidetolerance="10"
     gridtolerance="10"
     objecttolerance="10"
     borderopacity="1"
     bordercolor="#666666"
     pagecolor="#ffffff" />
  <metadata
     id="metadata28">
    <rdf:RDF>
      <cc:Work
         rdf:about="">
        <dc:format>image/svg+xml</dc:format>
        <dc:type
           rdf:resource="http://purl.org/dc/dcmitype/StillImage" />
        <dc:title></dc:title>
      </cc:Work>
    </rdf:RDF>
  </metadata>
  <path
     inkscape:connector-curvature="0"
     style="fill:#E3E3E3"
     d="m 239.53936,71.798074 c -7.56143,0.094 -14.82519,2.10714 -23.84204,5.531833 L 92.494554,121.97938 c -16.437262,5.99242 -16.909614,9.26986 -17.502589,26.06903 l -5.801291,183.32446 c -0.945482,21.55238 -0.512297,25.99617 18.212276,34.12158 l 145.52829,63.77042 c 15.14948,6.49376 24.99273,5.99634 35.39528,2.52074 l 142.5164,-44.28131 c 17.19397,-5.71435 19.61445,-7.54106 20.26852,-28.86157 l 6.02063,-195.95243 c 0.51855,-13.60634 -4.43911,-19.34419 -14.71083,-23.20598 L 265.1196,77.69729 c -10.1652,-4.18608 -18.01881,-5.994785 -25.58102,-5.898426 z m 0.63684,19.485184 c 18.51544,-0.04155 35.69138,6.60656 68.83382,19.484402 74.84269,29.07935 103.17161,42.14284 54.5875,61.04993 -57.96755,22.5613 -100.40255,35.33967 -134.95106,20.22072 L 141.67399,153.97347 C 114.59447,142.12413 106.66724,132.46339 155.65084,114.73363 199.235,98.957488 220.46464,91.326349 240.1762,91.283258 Z m 35.02869,34.270422 c -29.98879,0.31491 -43.30607,16.61039 -44.50299,30.49952 -0.68384,7.93663 2.3108,15.35315 9.71792,20.56225 7.40711,5.20911 19.86117,8.2719 38.35938,4.65138 28.05631,-5.4911 48.20263,-11.79373 60.7076,-17.89425 6.2525,-3.05026 10.54668,-6.06059 12.92485,-8.49438 2.37818,-2.43377 2.70483,-3.87118 2.69307,-4.69994 -0.0123,-0.82796 -0.34466,-2.09538 -2.59514,-4.23465 -2.2505,-2.13847 -6.29011,-4.73127 -11.92221,-7.17211 -11.26262,-4.88245 -28.79263,-9.30354 -51.47769,-12.31386 -4.97803,-0.65955 -9.61923,-0.95017 -13.90401,-0.90473 z M 99.202159,155.73595 c 8.124641,-0.22717 22.886371,5.63994 50.059101,17.74699 110.38995,49.18178 110.0727,51.60225 102.59196,157.17867 -6.09662,86.01681 -6.89091,86.04814 -100.63364,46.43701 C 93.919432,352.88608 83.222346,345.09748 84.490554,307.40629 l 4.283215,-127.63248 c 0.527964,-15.69311 1.219641,-23.78014 10.427614,-24.03786 z m 299.181211,24.20941 c 22.85113,-0.3008 22.79473,21.99183 20.95392,82.44486 -3.22572,105.85214 -7.08908,109.8095 -94.29262,136.07905 -55.16169,16.6143 -63.83309,20.06406 -61.8591,-9.42495 l 8.61656,-128.58735 c 2.51995,-37.62618 5.94386,-40.34745 74.2693,-65.72636 24.53605,-9.11242 41.15114,-14.6372 52.31038,-14.78446 z m -16.00956,31.87189 c -0.26008,-0.001 -0.52797,0.0123 -0.78334,0.0236 -4.08895,0.20601 -8.01027,2.1698 -11.1138,6.5854 -3.10197,4.41638 -5.33443,11.52271 -4.45476,21.86023 1.13425,13.34235 -3.53044,29.85247 -11.87206,44.6009 -8.3424,14.74764 -20.75965,28.12917 -37.45386,30.40316 -22.81587,3.10823 -33.22077,18.47078 -34.0746,32.94817 -0.4269,7.23791 1.65126,14.12333 6.0222,19.26507 4.37095,5.14174 11.03548,8.87898 21.29623,9.42339 32.23065,1.71157 55.87921,-8.43326 71.74858,-30.67105 15.87014,-22.23857 23.80991,-57.77798 20.2685,-106.99815 -1.46952,-20.42596 -11.52113,-27.39832 -19.58309,-27.43984 z m -192.89355,6.92772 c -0.50447,0 -0.95409,0.0493 -1.34732,0.14648 -1.569,0.38696 -2.88655,1.19849 -4.4297,3.77014 -1.49849,2.49567 -2.88891,6.75068 -3.45132,12.80187 l -0.0501,0.51464 c -1.08726,13.10658 -6.34335,22.40463 -13.97764,27.46569 -7.63348,5.06027 -16.28844,6.11619 -24.38095,7.12355 -8.09173,1.00736 -15.80513,1.87215 -22.05528,4.5041 -6.24857,2.63197 -11.24853,6.56426 -15.24974,15.49415 -5.639936,12.59273 -5.595292,21.95424 -2.44712,30.20734 3.14741,8.25388 9.93882,15.74951 19.33793,22.52056 18.79821,13.54368 47.21094,23.46525 69.64221,32.77741 8.91893,3.70278 16.055,5.07908 21.37065,4.79865 5.31641,-0.28044 8.83432,-1.89799 12.0436,-5.14017 6.41934,-6.48593 11.01118,-21.69182 11.74986,-44.91894 1.58545,-49.83742 -14.75783,-86.38811 -30.28018,-102.51754 -6.78985,-7.05618 -12.9405,-9.55107 -16.4733,-9.54714 z m 144.30395,5.33601 c -0.74416,-0.003 -1.50946,0.0274 -2.32648,0.0736 -27.77979,1.55881 -37.97319,10.07903 -41.1245,18.84834 -3.15131,8.77009 0.64701,21.20458 8.49436,31.16063 8.99882,11.42087 16.12865,12.32638 23.84203,9.62157 7.71418,-2.70639 16.09105,-11.05114 21.44428,-21.07769 5.35324,-10.02654 7.45098,-21.46072 5.63054,-28.419 -0.91101,-3.4803 -2.46277,-5.81382 -5.06811,-7.54027 -2.27791,-1.51024 -5.6979,-2.6539 -10.89212,-2.668 z"
     id="path6-3" />
</svg>
