<?xml version="1.0" encoding="UTF-8" standalone="no"?>
<svg
   xmlns:dc="http://purl.org/dc/elements/1.1/"
   xmlns:cc="http://creativecommons.org/ns#"
   xmlns:rdf="http://www.w3.org/1999/02/22-rdf-syntax-ns#"
   xmlns:svg="http://www.w3.org/2000/svg"
   xmlns="http://www.w3.org/2000/svg"
   xmlns:sodipodi="http://sodipodi.sourceforge.net/DTD/sodipodi-0.dtd"
   xmlns:inkscape="http://www.inkscape.org/namespaces/inkscape"
   height="512"
   viewBox="0 0 512 512"
   width="512"
   version="1.1"
   id="svg2"
   inkscape:version="0.91 r13725"
   sodipodi:docname="im-chooser.svg">
  <defs
     id="defs17" />
  <sodipodi:namedview
     pagecolor="#ffffff"
     bordercolor="#666666"
     borderopacity="1"
     objecttolerance="10"
     gridtolerance="10"
     guidetolerance="10"
     inkscape:pageopacity="0"
     inkscape:pageshadow="2"
     inkscape:window-width="1920"
     inkscape:window-height="1027"
     id="namedview15"
     showgrid="false"
     inkscape:zoom="1.8198004"
     inkscape:cx="220.02509"
     inkscape:cy="179.62007"
     inkscape:window-x="0"
     inkscape:window-y="0"
     inkscape:window-maximized="1"
     inkscape:current-layer="svg2" />
  <metadata
     id="metadata28">
    <rdf:RDF>
      <cc:Work
         rdf:about="">
        <dc:format>image/svg+xml</dc:format>
        <dc:type
           rdf:resource="http://purl.org/dc/dcmitype/StillImage" />
        <dc:title></dc:title>
      </cc:Work>
    </rdf:RDF>
  </metadata>
  <g
     id="g4187"
     transform="matrix(1.2429797,0,0,1.2429797,-81.239371,-74.669107)">
    <path
       id="path61"
       style="color:#000000;display:inline;visibility:visible;fill:#E3E3E3;fill-opacity:1;fill-rule:nonzero;stroke:none"
       d="m 180.9904,156.40602 c 0.68088,5.93788 -0.12667,12.00244 -0.49086,17.22777 -9.23143,0.87089 -15.581,0.69671 -23.65652,1.09257 -0.22168,5.57369 0.53837,9.34227 0.87089,14.66261 8.31303,-0.17418 15.04263,-1.0134 22.3106,-1.48843 -0.30086,6.41291 -0.55421,13.17418 -0.49087,21.17052 -18.65286,10.38733 -27.21924,24.13155 -27.23507,42.32521 -0.0158,18.98538 17.35444,26.14251 31.19366,20.67966 3.5944,-1.42509 5.77954,-2.96102 7.91717,-4.41778 0.80755,1.36175 0.99757,2.96102 1.48843,4.41778 4.51279,-3.5944 10.27649,-5.30451 14.85262,-7.37881 l 0.49086,-1.48843 c 0.095,-3.19853 -2.32765,-5.93788 -3.46772,-8.86723 9.00974,-11.63825 15.0268,-25.0341 19.2704,-37.89159 12.65164,1.71011 24.65408,8.81973 22.75396,23.62484 -2.1218,16.62607 -21.17052,22.12059 -34.62972,25.09744 0.47503,6.36541 3.87942,11.46407 6.42875,16.73691 23.0073,-4.86115 43.89281,-22.18392 44.51035,-42.32521 0.5067,-16.46772 -6.91961,-25.50913 -21.7564,-32.49208 -5.38368,-2.5335 -9.81729,-3.0877 -13.36419,-3.94275 0.25335,-2.61267 2.0743,-4.46529 2.97686,-6.39708 1.85262,-2.581 0.26919,-2.94519 -0.98173,-4.92448 l -12.36662,-2.45433 c -1.37759,-0.39585 -2.64434,0.31669 -3.46773,0.99757 -1.26674,3.34105 -0.98172,7.17296 -1.48842,10.83069 -7.31547,0.4592 -13.47503,1.55177 -18.79537,2.96102 0.0475,-4.73447 0.0792,-10.0073 0.49086,-16.7369 8.8514,-0.64921 28.31181,-5.43118 40.07673,-7.85384 -1.25091,-5.00365 -2.02679,-9.51644 -3.29354,-14.52009 -12.63581,4.08526 -25.06577,6.55542 -35.65895,7.85383 -0.12668,-5.7637 1.99513,-9.42143 3.34105,-14.02923 -0.36419,-1.17174 -1.55177,-1.71011 -2.47016,-1.96346 l -12.36663,-1.48843 c -1.25091,-0.6492 -2.26431,0.34836 -2.97685,0.99757 z m 27.20341,59.04628 c -2.09013,8.56639 -6.25457,15.83435 -9.89647,23.13398 -2.43849,-6.60292 -3.08769,-13.95006 -3.95858,-20.17295 5.36784,-1.55177 9.89646,-2.5335 13.85505,-2.96103 z m -27.69427,9.3581 c 1.21924,9.70646 3.37271,19.6821 5.93788,28.04263 -5.85871,5.52619 -14.55177,10.10231 -18.30451,4.41778 -8.59805,-13.03166 4.43362,-25.01826 12.36663,-32.49208 z"
       inkscape:connector-curvature="0" />
    <path
       id="path59"
       style="fill:#E3E3E3;fill-opacity:1;stroke:none"
       d="m 249.13264,291.19151 c 6.22548,0 11.50065,2.30739 15.79798,6.93699 4.31103,4.6296 6.45955,10.32412 6.45955,17.1131 0,5.41362 -1.73532,10.23534 -5.21994,14.46558 2.39645,1.09475 4.37983,2.21875 6.72132,3.40198 6.50095,3.13565 9.33828,1.77486 12.98819,0.91633 l 0,-28.54651 -14.26919,0 0,-14.27333 71.35937,0 0,14.27333 -14.26919,0 0,71.36636 -14.26905,0 0,-71.36636 -14.26905,0 0,71.36636 -14.26919,0 0,-27.11179 c -1.8318,0.48814 -2.18991,0.78359 -4.47631,0.78359 -0.92347,0 -1.92829,-0.0999 -3.01633,-0.29545 0.0999,0.78359 0.0138,1.86363 0.0138,3.23927 0,8.16461 -2.10742,13.03086 -6.32196,17.45336 -4.1182,4.4225 -10.02696,5.91632 -17.72627,5.91632 -4.66914,0 -9.43462,-0.75362 -14.28275,-3.71256 -4.84826,-2.94339 -9.02156,-6.44885 -12.50618,-10.47199 -5.70208,-6.53763 -9.32444,-12.83846 -12.23072,-20.98837 l -0.0137,-1.77485 11.81751,-7.67648 1.37735,2.66235 c 9.88922,18.29634 18.69041,27.43722 26.37587,27.43722 3.01633,0 5.1236,-0.63658 6.32196,-1.92286 1.2803,-1.37592 1.92815,-3.68288 1.92815,-6.93699 0,-4.03784 -1.14327,-7.23272 -3.42953,-9.58449 -2.20361,-2.36661 -5.22008,-3.53501 -9.06281,-3.53501 -3.48462,0 -5.77102,0.3397 -6.87276,1.0348 l -2.74099,1.47912 -6.32182,-15.93001 c 2.56173,-0.0143 5.13744,0.0143 7.68546,0.0143 4.31103,-0.0999 7.60283,-1.18324 9.88923,-3.23927 2.38274,-2.15937 3.62235,-5.05851 3.70499,-8.71184 0,-2.55887 -0.55094,-4.37811 -1.65282,-5.45787 -1.00482,-1.07904 -2.79594,-1.67137 -5.35781,-1.77485 -5.67454,0 -10.5779,3.15049 -14.6961,9.43662 l -1.65282,2.66235 -11.5419,-9.28875 0,-1.47912 c 0,-3.23912 3.15406,-7.02562 9.47602,-11.35934 6.40446,-4.42251 12.58868,-6.64125 18.55253,-6.64125"
       inkscape:connector-curvature="0" />
    <path
       id="path55"
       style="fill:#E3E3E3;fill-opacity:1;fill-rule:nonzero;stroke:none"
       d="m 354.9231,245.82713 -39.39573,0 -9.69134,26.7891 -25.76481,0 41.5231,-110.30804 27.68731,0 41.05035,110.30804 -25.05568,0 m -29.97227,-84.25958 -13.70971,36.98471 27.51397,0"
       inkscape:connector-curvature="0" />
  </g>
</svg>
