<?xml version="1.0" encoding="UTF-8" standalone="no"?>
<svg
   xmlns:dc="http://purl.org/dc/elements/1.1/"
   xmlns:cc="http://creativecommons.org/ns#"
   xmlns:rdf="http://www.w3.org/1999/02/22-rdf-syntax-ns#"
   xmlns:svg="http://www.w3.org/2000/svg"
   xmlns="http://www.w3.org/2000/svg"
   xmlns:sodipodi="http://sodipodi.sourceforge.net/DTD/sodipodi-0.dtd"
   xmlns:inkscape="http://www.inkscape.org/namespaces/inkscape"
   viewBox="0 0 512 512"
   id="svg2"
   version="1.1"
   inkscape:version="0.91 r"
   sodipodi:docname="jabber.svg">
  <metadata
     id="metadata72">
    <rdf:RDF>
      <cc:Work
         rdf:about="">
        <dc:format>image/svg+xml</dc:format>
        <dc:type
           rdf:resource="http://purl.org/dc/dcmitype/StillImage" />
      </cc:Work>
    </rdf:RDF>
  </metadata>
  <defs
     id="defs70" />
  <sodipodi:namedview
     pagecolor="#ffffff"
     bordercolor="#666666"
     borderopacity="1"
     objecttolerance="10"
     gridtolerance="10"
     guidetolerance="10"
     inkscape:pageopacity="0"
     inkscape:pageshadow="2"
     inkscape:window-width="640"
     inkscape:window-height="480"
     id="namedview68"
     showgrid="false"
     inkscape:zoom="0.4609375"
     inkscape:cx="256"
     inkscape:cy="256"
     inkscape:window-x="0"
     inkscape:window-y="0"
     inkscape:window-maximized="0"
     inkscape:current-layer="svg2" />
  <path
     d="m172.2 84.68c-24.16 0.549-50.87 3.429-69.03 19.16-11.52 9.976-15.518 46.979 7.563 41.34 14.987-3.659 18.997-25.19 36.03-28.563 21.896-4.334 44.38-5.304 66.44-3.375 34.06 4.457 67.2 25.286 80.12 58.38 10.512 26.92 16.598 59.21 0.25 85.28-13.937 22.23-36.795 35.863-55.781 52.969-20.238 18.234-18.93 48.585-18.656 75 0.635 61.3 25.27 52.595 12.625-2.969-5.33-23.423 3.8-50.22 25.531-62.844 28.14-16.34 53.772-40.29 64.09-72.34 6.39-19.847 2.959-40.686-3.906-59.906-13.752-38.499-37.758-77.71-77.938-92.06-21.465-7.962-44.606-10.04-67.34-10.06m-26.5 113.31c-9.571-0.012-18.579 4.813-22.12 16.313-5.799 18.803-11.1 64.795 9.813 63.44 24.356-1.58-5.442-41.36 8.688-59.44 18.485-23.646 16.12 17.333 26.625 26.28 8.866 7.551 38.563-32.57 42.906-7.094 4.052 23.77-48.84 53.646-24.469 64.34 17.598 7.724 24.865-28.985 35.31-43.938 11.405-16.323 11.128-56.98-17.438-51.938-12.802 2.26-21.715 13.8-29.406 23.656 3.558-18.19-13.955-31.606-29.906-31.625m-25.781 107.56c-0.321 0.031-0.649 0.1-0.969 0.188-14.978 9.362-2.684 30.715 7.25 38.38 22.278 18.09 52.17 26.427 77.47 12.563 5.37-23.22-22.943-3.21-32.813-7.5-19.86-3.383-32.573-24.01-44.656-41.12-1.778-1.607-4.03-2.718-6.281-2.5m-7.625 52.22c-19.92 11.231 1.47 37.777 14.906 43.625 26.05 11.339 54.58 23.476 79.38 6.156 9.408-9.136 1.418-20.42-7.125-10.344-22.58 10.189-47.68-0.498-67.03-14.969-8.273-6.186-10.73-20.721-20.12-24.469"
     fill="#E3E3E3"
     id="path8" />
  <text
     font-size="129.22"
     y="231.34"
     x="729.63"
     font-family="'Gentium Book Basic'"
     line-height="125%"
     word-spacing="0"
     letter-spacing="0"
     id="text22">
    <tspan
       y="231.34"
       x="729.63"
       id="tspan24" />
  </text>
  <text
     transform="scale(4.0128.2492)"
     font-size="46.952"
     y="579.26"
     x="378.92"
     font-family="Arial"
     text-anchor="middle"
     id="text26" />
  <text
     font-size="129.22"
     y="151.36"
     x="1310.91"
     font-family="'Gentium Book Basic'"
     line-height="125%"
     word-spacing="0"
     letter-spacing="0"
     id="text28">
    <tspan
       y="151.36"
       x="1310.91"
       id="tspan30" />
  </text>
  <text
     transform="scale(4.0128.2492)"
     font-size="46.952"
     y="258.22"
     x="523.77"
     font-family="Arial"
     text-anchor="middle"
     id="text32" />
  <text
     font-size="129.22"
     y="-29.902"
     x="239.31"
     font-family="'Gentium Book Basic'"
     line-height="125%"
     word-spacing="0"
     letter-spacing="0"
     id="text34">
    <tspan
       y="-29.902"
       x="239.31"
       id="tspan36" />
  </text>
  <text
     transform="scale(4.0128.2492)"
     font-size="46.952"
     y="-469.13"
     x="256.71"
     font-family="Arial"
     text-anchor="middle"
     id="text38" />
  <text
     font-size="129.22"
     y="-246.37"
     x="1337.38"
     font-family="'Gentium Book Basic'"
     line-height="125%"
     word-spacing="0"
     letter-spacing="0"
     id="text40">
    <tspan
       y="-246.37"
       x="1337.38"
       id="tspan42" />
  </text>
  <text
     transform="scale(4.0128.2492)"
     font-size="46.952"
     y="-1337.81"
     x="530.36"
     font-family="Arial"
     text-anchor="middle"
     id="text44" />
  <text
     font-size="129.22"
     y="-326.37"
     x="1918.66"
     font-family="'Gentium Book Basic'"
     line-height="125%"
     word-spacing="0"
     letter-spacing="0"
     id="text46">
    <tspan
       y="-326.37"
       x="1918.66"
       id="tspan48" />
  </text>
  <text
     transform="scale(4.0128.2492)"
     font-size="46.952"
     y="-1658.83"
     x="675.21"
     font-family="Arial"
     text-anchor="middle"
     id="text50" />
  <text
     font-size="129.22"
     y="-798.77"
     x="1529.54"
     font-family="'Gentium Book Basic'"
     line-height="125%"
     word-spacing="0"
     letter-spacing="0"
     id="text52">
    <tspan
       y="-798.77"
       x="1529.54"
       id="tspan54" />
  </text>
  <text
     transform="scale(4.0128.2492)"
     font-size="46.952"
     y="-3554.49"
     x="578.23"
     font-family="Arial"
     text-anchor="middle"
     id="text56" />
  <text
     font-size="129.22"
     y="-878.78"
     x="2110.78"
     font-family="'Gentium Book Basic'"
     line-height="125%"
     word-spacing="0"
     letter-spacing="0"
     id="text58">
    <tspan
       y="-878.78"
       x="2110.78"
       id="tspan60" />
  </text>
  <text
     transform="scale(4.0128.2492)"
     font-size="46.952"
     y="-3875.51"
     x="723.08"
     font-family="Arial"
     text-anchor="middle"
     id="text62" />
  <text
     font-size="208.33"
     y="535.92"
     x="277.97"
     font-family="'Gentium Book Basic'"
     line-height="125%"
     word-spacing="0"
     letter-spacing="0"
     id="text64">
    <tspan
       y="535.92"
       x="277.97"
       id="tspan66" />
  </text>
</svg>
