<?xml version="1.0" encoding="UTF-8" standalone="no"?>
<svg
   xmlns:dc="http://purl.org/dc/elements/1.1/"
   xmlns:cc="http://creativecommons.org/ns#"
   xmlns:rdf="http://www.w3.org/1999/02/22-rdf-syntax-ns#"
   xmlns:svg="http://www.w3.org/2000/svg"
   xmlns="http://www.w3.org/2000/svg"
   xmlns:sodipodi="http://sodipodi.sourceforge.net/DTD/sodipodi-0.dtd"
   xmlns:inkscape="http://www.inkscape.org/namespaces/inkscape"
   height="512"
   viewBox="0 0 512 512"
   width="512"
   version="1.1"
   id="svg2"
   inkscape:version="0.91 r"
   sodipodi:docname="gwget.svg">
  <defs
     id="defs43" />
  <sodipodi:namedview
     pagecolor="#ffffff"
     bordercolor="#666666"
     borderopacity="1"
     objecttolerance="10"
     gridtolerance="10"
     guidetolerance="10"
     inkscape:pageopacity="0"
     inkscape:pageshadow="2"
     inkscape:window-width="647"
     inkscape:window-height="480"
     id="namedview41"
     showgrid="false"
     inkscape:zoom="0.4609375"
     inkscape:cx="256"
     inkscape:cy="256"
     inkscape:window-x="0"
     inkscape:window-y="0"
     inkscape:window-maximized="0"
     inkscape:current-layer="svg2" />
  <metadata
     id="metadata80">
    <rdf:RDF>
      <cc:Work
         rdf:about="">
        <dc:format>image/svg+xml</dc:format>
        <dc:type
           rdf:resource="http://purl.org/dc/dcmitype/StillImage" />
      </cc:Work>
    </rdf:RDF>
  </metadata>
  <text
     style="font-size:208.33000183px;line-height:125%;font-family:'Gentium Book Basic';letter-spacing:0;word-spacing:0"
     sodipodi:linespacing="125%"
     letter-spacing="0"
     word-spacing="0"
     x="-1773.62"
     y="598.62"
     line-height="125%"
     font-size="208.33"
     id="text6">
    <tspan
       x="-1773.62"
       y="598.62"
       id="tspan8" />
  </text>
  <text
     style="font-size:75.69999695px;font-family:Arial;text-anchor:middle"
     x="-124.25937"
     y="1839.2717"
     transform="scale(4.0128205,0.24920128)"
     font-size="75.7"
     id="text10" />
  <text
     style="font-size:129.22999573px;line-height:125%;font-family:'Gentium Book Basic';letter-spacing:0;word-spacing:0"
     sodipodi:linespacing="125%"
     letter-spacing="0"
     word-spacing="0"
     x="729.64001"
     y="231.35997"
     line-height="125%"
     font-size="129.23"
     id="text28">
    <tspan
       x="729.64001"
       y="231.35997"
       id="tspan30" />
  </text>
  <text
     style="font-size:46.95399857px;font-family:Arial;text-anchor:middle"
     x="378.90805"
     y="579.25812"
     transform="scale(4.0128205,0.24920128)"
     font-size="46.954"
     id="text32" />
  <text
     style="font-size:129.22999573px;line-height:125%;font-family:'Gentium Book Basic';letter-spacing:0;word-spacing:0"
     sodipodi:linespacing="125%"
     letter-spacing="0"
     word-spacing="0"
     x="1310.91"
     y="151.35997"
     line-height="125%"
     font-size="129.23"
     id="text34">
    <tspan
       x="1310.91"
       y="151.35997"
       id="tspan36" />
  </text>
  <text
     style="font-size:46.95399857px;font-family:Arial;text-anchor:middle"
     x="523.75732"
     y="258.21997"
     transform="scale(4.0128205,0.24920128)"
     font-size="46.954"
     id="text38" />
  <text
     style="font-size:129.22999573px;line-height:125%;font-family:'Gentium Book Basic';letter-spacing:0;word-spacing:0"
     sodipodi:linespacing="125%"
     letter-spacing="0"
     word-spacing="0"
     x="239.33"
     y="-29.900009"
     line-height="125%"
     font-size="129.23"
     id="text40">
    <tspan
       x="239.33"
       y="-29.900009"
       id="tspan42" />
  </text>
  <text
     style="font-size:46.95399857px;font-family:Arial;text-anchor:middle"
     x="256.71869"
     y="-469.1264"
     transform="scale(4.0128205,0.24920128)"
     font-size="46.954"
     id="text44" />
  <text
     style="font-size:129.22999573px;line-height:125%;font-family:'Gentium Book Basic';letter-spacing:0;word-spacing:0"
     sodipodi:linespacing="125%"
     letter-spacing="0"
     word-spacing="0"
     x="1337.38"
     y="-246.37001"
     line-height="125%"
     font-size="129.23"
     id="text46">
    <tspan
       x="1337.38"
       y="-246.37001"
       id="tspan48" />
  </text>
  <text
     style="font-size:46.95399857px;font-family:Arial;text-anchor:middle"
     x="530.3573"
     y="-1337.802"
     transform="scale(4.0128205,0.24920128)"
     font-size="46.954"
     id="text50" />
  <text
     style="font-size:129.22999573px;line-height:125%;font-family:'Gentium Book Basic';letter-spacing:0;word-spacing:0"
     sodipodi:linespacing="125%"
     letter-spacing="0"
     word-spacing="0"
     x="1918.65"
     y="-326.37"
     line-height="125%"
     font-size="129.23"
     id="text52">
    <tspan
       x="1918.65"
       y="-326.37"
       id="tspan54" />
  </text>
  <text
     style="font-size:46.95399857px;font-family:Arial;text-anchor:middle"
     x="675.20654"
     y="-1658.8303"
     transform="scale(4.0128205,0.24920128)"
     font-size="46.954"
     id="text56" />
  <text
     style="font-size:129.22999573px;line-height:125%;font-family:'Gentium Book Basic';letter-spacing:0;word-spacing:0"
     sodipodi:linespacing="125%"
     letter-spacing="0"
     word-spacing="0"
     x="1529.53"
     y="-798.77002"
     line-height="125%"
     font-size="129.23"
     id="text58">
    <tspan
       x="1529.53"
       y="-798.77002"
       id="tspan60" />
  </text>
  <text
     style="font-size:46.95399857px;font-family:Arial;text-anchor:middle"
     x="578.237"
     y="-3554.4807"
     transform="scale(4.0128205,0.24920128)"
     font-size="46.954"
     id="text62" />
  <text
     style="font-size:129.22999573px;line-height:125%;font-family:'Gentium Book Basic';letter-spacing:0;word-spacing:0"
     sodipodi:linespacing="125%"
     letter-spacing="0"
     word-spacing="0"
     x="2110.79"
     y="-878.78003"
     line-height="125%"
     font-size="129.23"
     id="text64">
    <tspan
       x="2110.79"
       y="-878.78003"
       id="tspan66" />
  </text>
  <text
     style="font-size:46.95399857px;font-family:Arial;text-anchor:middle"
     x="723.0863"
     y="-3875.519"
     transform="scale(4.0128205,0.24920128)"
     font-size="46.954"
     id="text68" />
  <text
     style="font-size:208.33000183px;line-height:125%;font-family:'Gentium Book Basic';letter-spacing:0;word-spacing:0"
     sodipodi:linespacing="125%"
     letter-spacing="0"
     word-spacing="0"
     x="277.98999"
     y="535.94006"
     line-height="125%"
     font-size="208.33"
     id="text70">
    <tspan
       x="277.98999"
       y="535.94006"
       id="tspan72" />
  </text>
  <path
     style="color:#000000;fill:#E3E3E3"
     inkscape:connector-curvature="0"
     d="m 217.61,94.68 c -0.747,0 -1.423,0.169 -2.069,0.441 -0.646,0.272 -1.223,0.671 -1.71,1.159 -0.488,0.488 -0.914,1.065 -1.186,1.71 -0.272,0.646 -0.414,1.349 -0.414,2.097 l 0,5.407 87.558,0 0,-5.407 c 0,-0.747 -0.142,-1.451 -0.414,-2.097 -0.272,-0.646 -0.671,-1.223 -1.159,-1.71 -0.488,-0.488 -1.092,-0.886 -1.738,-1.159 -0.646,-0.272 -1.322,-0.441 -2.069,-0.441 l -76.8,0 m -5.379,24.304 0,10.786 87.56,0 0,-10.786 -87.56,0 m 0,24.304 0,10.786 87.56,0 0,-10.786 -87.56,0 m 0,24.304 0,8.441 c -0.008,0.133 -0.028,0.252 -0.028,0.386 l 0,123.04 c -15.777,-1.789 -29.956,-4.233 -45.1,-6.372 -0.403,-0.051 -0.781,-0.057 -1.186,-0.028 -2.229,0.142 -4.335,1.6 -5.241,3.641 -0.906,2.041 -0.589,4.596 0.8,6.345 l 89.71,111.78 c 1.297,1.617 2.681,3.052 5.186,2.29 2.119,-0.691 13.569,-13.729 18.4,-19.752 8.406,-10.478 19.618,-24.482 30.842,-38.456 22.448,-27.948 44.911,-55.863 44.911,-55.863 1.525,-1.893 1.76,-4.717 0.579,-6.841 -1.181,-2.125 -3.684,-3.414 -6.097,-3.117 -17.263,2.063 -30.847,4.412 -45.21,6.179 l 0,-131.68 -87.56,0"
     id="path74" />
</svg>
