<?xml version="1.0" encoding="UTF-8" standalone="no"?>
<svg
   xmlns:dc="http://purl.org/dc/elements/1.1/"
   xmlns:cc="http://creativecommons.org/ns#"
   xmlns:rdf="http://www.w3.org/1999/02/22-rdf-syntax-ns#"
   xmlns:svg="http://www.w3.org/2000/svg"
   xmlns="http://www.w3.org/2000/svg"
   xmlns:sodipodi="http://sodipodi.sourceforge.net/DTD/sodipodi-0.dtd"
   xmlns:inkscape="http://www.inkscape.org/namespaces/inkscape"
   sodipodi:docname="knights.svg"
   inkscape:version="0.91 r13725"
   id="svg2"
   version="1.1"
   width="512"
   viewBox="0 0 512 512"
   height="512">
  <defs
     id="defs17" />
  <sodipodi:namedview
     inkscape:current-layer="svg2"
     inkscape:window-maximized="1"
     inkscape:window-y="0"
     inkscape:window-x="0"
     inkscape:cy="222.78079"
     inkscape:cx="124.26898"
     inkscape:zoom="1.5087994"
     showgrid="false"
     id="namedview15"
     inkscape:window-height="1022"
     inkscape:window-width="1920"
     inkscape:pageshadow="2"
     inkscape:pageopacity="0"
     guidetolerance="10"
     gridtolerance="10"
     objecttolerance="10"
     borderopacity="1"
     bordercolor="#666666"
     pagecolor="#ffffff" />
  <metadata
     id="metadata28">
    <rdf:RDF>
      <cc:Work
         rdf:about="">
        <dc:format>image/svg+xml</dc:format>
        <dc:type
           rdf:resource="http://purl.org/dc/dcmitype/StillImage" />
        <dc:title></dc:title>
      </cc:Work>
    </rdf:RDF>
  </metadata>
  <path
     inkscape:connector-curvature="0"
     d="m 229.59918,42.345006 c -5.05251,0 -12.47197,8.071888 -22.22804,24.215663 -14.61133,-8.739487 -37.05178,-17.099657 -56.51839,-17.008621 1.68418,13.731312 2.51868,23.017017 2.51868,27.826775 0,5.841492 -0.16691,10.302275 -0.50071,13.397514 -17.00862,61.146063 -51.79967,95.117783 -63.088171,156.112123 -1.031746,5.5684 4.56699,9.27053 6.584962,12.35059 6.053919,9.27054 16.295489,15.80999 30.755099,19.588 6.73669,1.7145 10.10504,2.57936 10.10504,2.57936 4.36974,0 8.25396,-2.2304 11.62229,-6.69117 0,10.65125 4.21803,15.97687 12.62372,15.97687 3.36835,0 5.87185,-1.36554 7.55602,-4.11181 17.2969,-27.09848 32.16616,-52.14865 66.62342,-66.47169 -8.69398,43.80365 -52.8466,71.26627 -54.7887,125.70599 l -22.91081,0 c -4.20285,0 -7.58636,3.38352 -7.58636,7.58637 l 0,7.58635 -30.34545,75.86362 333.79987,0 -30.34543,-75.86362 0,-7.58635 c 0,-4.20285 -3.38352,-7.58637 -7.58637,-7.58637 l -22.60735,0 C 393.2825,224.43283 362.95222,103.05106 258.38183,84.085156 253.29897,68.335873 248.07955,52.34383 229.61435,42.360178 m 23.1991,64.393032 c 76.47051,3.56559 114.59956,107.55942 115.57061,183.89338 l 0,19.05694 c -0.6676,8.93673 -3.68697,13.39751 -9.07328,13.39751 -6.38772,0 -9.60434,-7.55601 -9.60434,-22.66804 -0.3338,-77.95745 -21.49975,-156.90112 -95.95229,-179.55399 -7.04014,-1.5021 -7.49532,-7.13118 -7.49532,-8.5119 0,-3.77801 2.1697,-5.65942 6.55462,-5.65942 z m -71.1449,20.61973 c 8.07189,0 12.12301,2.23038 12.12301,6.69117 0,3.77801 -2.53385,8.23878 -7.58637,13.39751 -9.42225,9.9533 -18.34382,14.92995 -26.76467,14.92995 -4.36975,0 -6.55463,-3.09523 -6.55463,-9.27053 0.10615,-10.81815 11.25817,-24.36738 28.76749,-25.7481 z m -61.14607,103.03795 -0.091,0.0152 c 2.6097,8.14774 -4.23319,19.17832 -15.55203,20.95353 -2.35179,-9.27053 1.03173,-18.20728 15.64306,-21.10525 z"
     style="display:inline;fill:#E3E3E3;fill-opacity:1;stroke:none"
     id="path29" />
</svg>
