<?xml version="1.0" encoding="UTF-8" standalone="no"?>
<svg
   xmlns:dc="http://purl.org/dc/elements/1.1/"
   xmlns:cc="http://creativecommons.org/ns#"
   xmlns:rdf="http://www.w3.org/1999/02/22-rdf-syntax-ns#"
   xmlns:svg="http://www.w3.org/2000/svg"
   xmlns="http://www.w3.org/2000/svg"
   xmlns:sodipodi="http://sodipodi.sourceforge.net/DTD/sodipodi-0.dtd"
   xmlns:inkscape="http://www.inkscape.org/namespaces/inkscape"
   height="512"
   viewBox="0 0 512 512"
   width="512"
   version="1.1"
   id="svg2"
   inkscape:version="0.91 r13725"
   sodipodi:docname="kreversi.svg">
  <defs
     id="defs17">
    <linearGradient
       id="linearGradient4735"
       y1="39"
       x2="0"
       y2="9"
       gradientUnits="userSpaceOnUse"
       gradientTransform="matrix(12.486549,0,0,12.486549,-37.759166,-44.497373)">
      <stop
         style="stop-color:#d04848;stop-opacity:1"
         id="stop12" />
      <stop
         offset="1"
         style="stop-color:#d25252;stop-opacity:1"
         id="stop14" />
    </linearGradient>
    <linearGradient
       id="linearGradient4810"
       y1="39"
       x2="0"
       y2="9"
       gradientUnits="userSpaceOnUse"
       gradientTransform="matrix(12.486549,0,0,12.486549,-37.759166,-44.497373)">
      <stop
         style="stop-color:#726cac;stop-opacity:1"
         id="stop17" />
      <stop
         offset="1"
         style="stop-color:#7974b0;stop-opacity:1"
         id="stop19" />
    </linearGradient>
    <radialGradient
       id="radialGradient4850"
       cx="24"
       cy="16.5"
       r="3.5"
       gradientUnits="userSpaceOnUse"
       gradientTransform="matrix(12.486549,0,0,12.486549,-37.759166,-44.497373)">
      <stop
         style="stop-color:#6461a5;stop-opacity:1"
         id="stop22" />
      <stop
         offset="1"
         style="stop-color:#5c579b;stop-opacity:1"
         id="stop24" />
    </radialGradient>
    <radialGradient
       id="radialGradient4858"
       cx="24"
       cy="31.5"
       r="3.5"
       gradientUnits="userSpaceOnUse"
       gradientTransform="matrix(12.486549,0,0,12.486549,-37.759166,-44.497373)">
      <stop
         style="stop-color:#cd3939;stop-opacity:1"
         id="stop27" />
      <stop
         offset="1"
         style="stop-color:#c13131;stop-opacity:1"
         id="stop29" />
    </radialGradient>
    <linearGradient
       id="linearGradient4810-3"
       y1="39"
       x2="0"
       y2="9"
       gradientUnits="userSpaceOnUse"
       gradientTransform="matrix(-12.46009,0.81243354,-0.81243354,-12.46009,597.79581,543.09682)">
      <stop
         style="stop-color:#726cac;stop-opacity:1"
         id="stop17-5" />
      <stop
         offset="1"
         style="stop-color:#7974b0;stop-opacity:1"
         id="stop19-6" />
    </linearGradient>
    <radialGradient
       id="radialGradient4850-9"
       cx="24"
       cy="16.5"
       r="3.5"
       gradientUnits="userSpaceOnUse"
       gradientTransform="matrix(12.486549,0,0,12.486549,-7.4779194,154.43244)">
      <stop
         style="stop-color:#6461a5;stop-opacity:1"
         id="stop22-1" />
      <stop
         offset="1"
         style="stop-color:#5c579b;stop-opacity:1"
         id="stop24-2" />
    </radialGradient>
  </defs>
  <sodipodi:namedview
     pagecolor="#ffffff"
     bordercolor="#666666"
     borderopacity="1"
     objecttolerance="10"
     gridtolerance="10"
     guidetolerance="10"
     inkscape:pageopacity="0"
     inkscape:pageshadow="2"
     inkscape:window-width="1920"
     inkscape:window-height="1022"
     id="namedview15"
     showgrid="false"
     inkscape:zoom="0.6433966"
     inkscape:cx="211.98939"
     inkscape:cy="549.66866"
     inkscape:window-x="0"
     inkscape:window-y="0"
     inkscape:window-maximized="1"
     inkscape:current-layer="svg2" />
  <metadata
     id="metadata28">
    <rdf:RDF>
      <cc:Work
         rdf:about="">
        <dc:format>image/svg+xml</dc:format>
        <dc:type
           rdf:resource="http://purl.org/dc/dcmitype/StillImage" />
        <dc:title></dc:title>
      </cc:Work>
    </rdf:RDF>
  </metadata>
  <path
     inkscape:connector-curvature="0"
     style="opacity:1;fill:#E3E3E3;fill-opacity:1;fill-rule:nonzero;stroke:none"
     d="m 255.89308,63.208083 a 89.29821,89.29821 0 0 0 -7.60785,0.357577 c -95.07282,4.048186 -170.989138,82.16645 -170.989138,178.23941 0,95.60862 75.093838,173.345 169.428458,178.13139 -44.99438,-4.57207 -80.12904,-42.6369 -80.12904,-88.83384 0,-49.31643 39.98114,-89.29755 89.29757,-89.29755 a 89.29821,89.29821 0 0 0 89.29756,-89.29756 89.29821,89.29821 0 0 0 -89.29756,-89.299427 z m 0,47.626727 a 41.6725,41.6725 0 0 1 41.67269,41.6727 41.6725,41.6725 0 0 1 -41.67269,41.67269 41.6725,41.6725 0 0 1 -41.6727,-41.67269 41.6725,41.6725 0 0 1 41.6727,-41.6727 z"
     id="path55" />
  <path
     style="opacity:1;fill:#E3E3E3;fill-opacity:1;fill-rule:nonzero;stroke:none"
     d="m 305.76369,68.082398 c 32.26368,10.425354 73.72434,52.473022 74.06968,89.944402 -0.91363,49.30796 -41.62913,88.54128 -90.93711,87.62766 -49.30997,-0.91368 -90.02413,38.31956 -90.93725,87.62954 -0.91362,49.30918 38.31847,90.02296 87.62767,90.9371 2.53978,0.0358 5.07992,-0.0369 7.61352,-0.2177 95.13152,-2.2862 172.48104,-78.98302 174.26083,-175.03949 C 469.20456,154.86532 397.8746,76.732735 305.76369,68.082398 Z m -8.8068,229.158962 c 22.93481,1.92258 39.96849,22.07358 38.04569,45.00836 -1.92258,22.93478 -22.07358,39.96847 -45.00836,38.04569 -22.93479,-1.9226 -39.96848,-22.07358 -38.04569,-45.00836 1.92259,-22.93479 22.07358,-39.96849 45.00836,-38.04569 z"
     id="path55-2"
     inkscape:connector-curvature="0"
     sodipodi:nodetypes="ccssccscsssss" />
</svg>
