<?xml version="1.0" encoding="UTF-8" standalone="no"?>
<svg
   xmlns:dc="http://purl.org/dc/elements/1.1/"
   xmlns:cc="http://creativecommons.org/ns#"
   xmlns:rdf="http://www.w3.org/1999/02/22-rdf-syntax-ns#"
   xmlns:svg="http://www.w3.org/2000/svg"
   xmlns="http://www.w3.org/2000/svg"
   xmlns:sodipodi="http://sodipodi.sourceforge.net/DTD/sodipodi-0.dtd"
   xmlns:inkscape="http://www.inkscape.org/namespaces/inkscape"
   height="512"
   viewBox="0 0 512 512"
   width="512"
   version="1.1"
   id="svg2"
   inkscape:version="0.91 r"
   sodipodi:docname="kuaipan4uk.svg">
  <defs
     id="defs19" />
  <sodipodi:namedview
     pagecolor="#ffffff"
     bordercolor="#666666"
     borderopacity="1"
     objecttolerance="10"
     gridtolerance="10"
     guidetolerance="10"
     inkscape:pageopacity="0"
     inkscape:pageshadow="2"
     inkscape:window-width="640"
     inkscape:window-height="480"
     id="namedview17"
     showgrid="false"
     inkscape:zoom="0.4609375"
     inkscape:cx="256"
     inkscape:cy="256"
     inkscape:window-x="0"
     inkscape:window-y="0"
     inkscape:window-maximized="0"
     inkscape:current-layer="svg2" />
  <metadata
     id="metadata80">
    <rdf:RDF>
      <cc:Work
         rdf:about="">
        <dc:format>image/svg+xml</dc:format>
        <dc:type
           rdf:resource="http://purl.org/dc/dcmitype/StillImage" />
      </cc:Work>
    </rdf:RDF>
  </metadata>
  <g
     id="g66"
     transform="matrix(74.037 0 0 75.244 1154.7 -958.63)"
     fill="#E3E3E3"
     color="#000000">
    <rect
       id="rect68"
       transform="matrix(.7058 -.70841 .70841 .7058 0 0)"
       rx="0.015"
       ry="0.016"
       height="1.705"
       width="1.157"
       y="1.48"
       x="-19.86" />
    <rect
       id="rect70"
       transform="matrix(.70808 -.70614 .71069 .70351 0 0)"
       rx="0.013"
       ry="0.014"
       height="1.424"
       width="0.966"
       y="2.686"
       x="-21.38" />
    <rect
       id="rect72"
       transform="matrix(.71 .7042 -.69961 .71453 0 0)"
       rx="0.01"
       ry="0.011"
       height="1.109"
       width="0.752"
       y="20.21"
       x="1.293" />
    <rect
       id="rect74"
       transform="matrix(.71344 .70072 -.70043 .71373 0 0)"
       rx="0.012"
       ry="0.01"
       height="1.478"
       width="0.653"
       y="18.73"
       x="3.326" />
  </g>
</svg>
