<?xml version="1.0" encoding="UTF-8" standalone="no"?>
<svg
   xmlns:dc="http://purl.org/dc/elements/1.1/"
   xmlns:cc="http://creativecommons.org/ns#"
   xmlns:rdf="http://www.w3.org/1999/02/22-rdf-syntax-ns#"
   xmlns:svg="http://www.w3.org/2000/svg"
   xmlns="http://www.w3.org/2000/svg"
   xmlns:sodipodi="http://sodipodi.sourceforge.net/DTD/sodipodi-0.dtd"
   xmlns:inkscape="http://www.inkscape.org/namespaces/inkscape"
   sodipodi:docname="mate-tweak-tool.svg"
   inkscape:version="0.91 r13725"
   id="svg2"
   version="1.1"
   width="512"
   viewBox="0 0 512 512"
   height="512">
  <defs
     id="defs16" />
  <sodipodi:namedview
     inkscape:current-layer="svg2"
     inkscape:window-maximized="1"
     inkscape:window-y="0"
     inkscape:window-x="1920"
     inkscape:cy="256"
     inkscape:cx="256"
     inkscape:zoom="1.5268555"
     showgrid="false"
     id="namedview14"
     inkscape:window-height="1021"
     inkscape:window-width="1680"
     inkscape:pageshadow="2"
     inkscape:pageopacity="0"
     guidetolerance="10"
     gridtolerance="10"
     objecttolerance="10"
     borderopacity="1"
     bordercolor="#666666"
     pagecolor="#ffffff" />
  <metadata
     id="metadata72">
    <rdf:RDF>
      <cc:Work
         rdf:about="">
        <dc:format>image/svg+xml</dc:format>
        <dc:type
           rdf:resource="http://purl.org/dc/dcmitype/StillImage" />
        <dc:title></dc:title>
      </cc:Work>
    </rdf:RDF>
  </metadata>
  <path
     d="m 133.5703,141.0319 c -59.53262,0 -107.453636,47.96937 -107.453636,107.502 l 0,14.9283 c 0,59.53263 47.923929,107.502 107.453636,107.502 l 244.86915,0 c 59.53263,0 107.45365,-47.96937 107.45365,-107.502 l 0,-14.9283 c 0,-59.53263 -47.92394,-107.502 -107.45365,-107.502 l -244.85492,0 -0.0142,0 z m 30.35726,16.08888 0.15077,0.0654 c 53.1787,0 96.3655,43.37375 96.3655,96.80358 0,53.46205 -43.15451,96.83771 -96.3655,96.83771 -30.74268,0 -57.90192,-14.46915 -75.5717,-36.91116 l 12.06382,-7.6917 c 15.073,18.40705 37.99303,30.13253 63.54202,30.13253 45.33169,0 82.13126,-36.91053 82.13126,-82.36738 0,-45.48918 -36.79957,-82.39867 -82.13126,-82.39867 -25.63774,0 -48.63878,11.78796 -63.69563,30.29183 L 88.353021,194.19407 C 105.95824,171.68753 133.20908,157.12078 163.92756,157.12078 Z M 370.981,171.5712 c 46.63456,0 84.42968,37.79811 84.42968,84.42685 0,46.63457 -37.80094,84.42685 -84.42968,84.42685 -46.63457,0 -84.42685,-37.79811 -84.42685,-84.42685 0,-46.63457 37.7981,-84.42685 84.42685,-84.42685 z m -207.02214,23.34824 c 32.57334,0 59.00208,26.51061 59.00208,59.20118 0,32.65824 -26.4207,59.19836 -59.00208,59.19836 -17.35526,0 -32.88878,-7.53636 -43.69546,-19.47961 l 12.06668,-7.69172 c 8.06473,8.22308 19.24945,13.29837 31.62878,13.29837 24.6296,0 44.57442,-20.17283 44.57442,-45.04378 0,-24.83871 -19.96904,-45.01248 -44.57442,-45.01248 -12.16161,0 -23.1867,4.89023 -31.21917,12.86314 l -12.50757,-7.81972 c 10.80666,-11.94319 26.37243,-19.48246 43.69544,-19.48246 l 0.0313,-0.0313 z m -97.218893,2.55157 97.912963,55.9214 -97.912963,57.05355 0,-112.97495 z"
     id="path66"
     style="fill:#E3E3E3;fill-opacity:1"
     inkscape:connector-curvature="0" />
</svg>
