<?xml version="1.0" encoding="UTF-8" standalone="no"?>
<svg
   xmlns:dc="http://purl.org/dc/elements/1.1/"
   xmlns:cc="http://creativecommons.org/ns#"
   xmlns:rdf="http://www.w3.org/1999/02/22-rdf-syntax-ns#"
   xmlns:svg="http://www.w3.org/2000/svg"
   xmlns="http://www.w3.org/2000/svg"
   xmlns:xlink="http://www.w3.org/1999/xlink"
   xmlns:sodipodi="http://sodipodi.sourceforge.net/DTD/sodipodi-0.dtd"
   xmlns:inkscape="http://www.inkscape.org/namespaces/inkscape"
   viewBox="0 0 512 512"
   id="svg2"
   version="1.1"
   inkscape:version="0.91 r"
   sodipodi:docname="mscore.svg">
  <metadata
     id="metadata33">
    <rdf:RDF>
      <cc:Work
         rdf:about="">
        <dc:format>image/svg+xml</dc:format>
        <dc:type
           rdf:resource="http://purl.org/dc/dcmitype/StillImage" />
      </cc:Work>
    </rdf:RDF>
  </metadata>
  <defs
     id="defs31" />
  <sodipodi:namedview
     pagecolor="#ffffff"
     bordercolor="#666666"
     borderopacity="1"
     objecttolerance="10"
     gridtolerance="10"
     guidetolerance="10"
     inkscape:pageopacity="0"
     inkscape:pageshadow="2"
     inkscape:window-width="640"
     inkscape:window-height="480"
     id="namedview29"
     showgrid="false"
     inkscape:zoom="0.4609375"
     inkscape:cx="256"
     inkscape:cy="256"
     inkscape:window-x="0"
     inkscape:window-y="0"
     inkscape:window-maximized="0"
     inkscape:current-layer="svg2" />
  <g
     transform="matrix(9.401 0 0 9.401 -566.59 14.828)"
     id="g18">
    <g
       clip-path="url(#1)"
       id="g20">
      <g
         opacity="0.1"
         transform="translate(1 1)"
         id="g22">
        <use
           width="1"
           xlink:href="#0"
           transform="translate(-6.972-7.906)"
           height="1"
           id="use24" />
      </g>
    </g>
  </g>
  <path
     id="0"
     d="m335.73 139.4c-25.614 0.429-53.16 16.203-58.18 42.805-0.989 4.479-1.093 9.08-1.176 13.652 9.111 1.95 11.803-1.634 11.216-10.334 4.567-27.22 35.802-39.509 60.66-35.33 19.338 2.16 37.895 17.3 38.856 37.89-2.318 8.06 6.269 10.127 10.712 6.427 1.346-22.538-13.403-43.898-34.655-50.912-8.721-3.209-18.12-4.54-27.43-4.201m2.31 42.763c-9.295 0.037-10.815 14.631-1.596 16.383 8.094 2.83 15.257-8.524 8.443-14.156-1.865-1.64-4.374-2.454-6.847-2.226m-171.51 39.19c-16.844-0.121-33.31 9.641-41.38 24.448-1.96-6.553 4.356-21.383-4.03-21.507-11.501-3-5 11.995-6.679 18.819v113.67c12.04 3.541 11.574-5.425 10.712-14.786 0.723-24.05-1.456-48.42 1.092-72.29 3.02-21.698 22.66-41.27 45.619-37.806 14.11-0.123 26.495 11.532 27.436 25.641 3.02 25.896 0.525 52.16 1.338 78.2 1.933 6.44-4.314 21.06 4.03 21.09 11.501 3 5-11.995 6.679-18.819 0.618-24.575-1.204-49.33 0.84-73.806 3.01-19.551 22.15-34.46 41.923-32.513 13.814-0.763 28.742 7.995 30.875 22.263 4.761 24.45-0.865 50.08 3.445 74.6 5.849 20.909 28.25 32.08 48.896 31 18.551 0.7 37.765-7.784 47.01-24.364 1.576 6.531-3.296 19.51 2.688 21.633 11.549 3.497 7.364-8.739 8.02-16.13v-116.4c-12.04-3.541-11.574 5.425-10.712 14.786-0.755 24.05 1.552 48.34-1.218 72.25-3.194 21.389-22.516 38.963-44.485 38.14-17.26 1.222-37.39-8.2-40.37-26.842-2.769-24.49 2.44-49.818-3.613-73.89-4.677-18.06-23.816-28.22-41.671-27.388-18.2-0.897-37.07 8.351-45.03 25.12-6.343-16.519-24.07-26.344-41.42-25.12"
     fill="#E3E3E3" />
</svg>
