<svg xmlns="http://www.w3.org/2000/svg" width="48" height="48">
<defs>
<defs
     id="defs2162" />
  <g
     id="layer1">
    <path
       d="M 18.03125,4.4375 L 8.46875,23.5625 L 14.9375,23.5625 L 9.03125,44.84375 L 40.03125,16.4375 L 29.3125,16.4375 L 39.34375,4.4375 L 18.03125,4.4375 z"
       id="path-main"
        />
  </g>
</defs>

<use id="1" style="fill:#E3E3E3" xlink:href="#path-main" />



</svg>
