<svg xmlns="http://www.w3.org/2000/svg" width="48" height="48">
<defs>
<defs
     id="defs2385">
  </defs>
  <path
     id="path-main"
     d="m 3.4351402,3.014877 c -0.7688237,0 -1.37306,0.6550691 -1.37306,1.4645973 l 0,31.2447427 c 0,0.809528 0.6042364,1.464597 1.37306,1.464597 l 4.4853292,0 0,3.142782 c -0.5545571,0.2456 -1.0054099,0.696453 -1.2510102,1.25101 l -3.6309808,0 c -0.030496,-0.0015 -0.061041,-0.0015 -0.091537,0 -0.5392497,0.02528 -0.971163,0.498173 -0.9458857,1.037423 0.025277,0.53925 0.4981733,0.940651 1.0374231,0.915374 l 3.6309808,0 C 7.0487095,44.391737 7.9005473,45 8.8968676,45 9.8931882,45 10.745027,44.391737 11.124276,43.535403 l 25.935578,0 c 0.422219,0.729598 1.202322,1.220497 2.105358,1.220497 0.903037,0 1.683141,-0.490899 2.105359,-1.220497 l 3.722518,0 c 0.352125,0.005 0.676833,-0.184053 0.854349,-0.488199 0.177515,-0.304147 0.177515,-0.672254 0,-0.976399 -0.177516,-0.304145 -0.502224,-0.493178 -0.854349,-0.488199 l -3.508931,0 c -0.212547,-0.668325 -0.707864,-1.214023 -1.342547,-1.495109 l 0,-2.898683 4.485329,0 C 45.395764,37.188814 46,36.533745 46,35.724217 L 46,4.4794743 C 46,3.6699461 45.395764,3.014877 44.62694,3.014877 l -10.923455,0 c -0.768824,0 -1.37306,0.6550691 -1.37306,1.4645973 l 0,31.2447427 c 0,0.809528 0.604236,1.464597 1.37306,1.464597 l 4.485329,0 0,2.898683 c -0.634683,0.281086 -1.13,0.826784 -1.342547,1.495109 l -25.721991,0 c -0.2456,-0.554557 -0.696453,-1.00541 -1.2510102,-1.25101 l 0,-3.142782 4.4853292,0 c 0.768824,0 1.37306,-0.655069 1.37306,-1.464597 l 0,-31.2447427 c 0,-0.8095282 -0.604236,-1.4645973 -1.37306,-1.4645973 l -10.9234548,0 z M 24.214115,8.4766045 23.939503,8.8732662 c -1.730489,2.4575518 -1.750299,4.8146578 -1.312035,6.5296628 0.438263,1.715006 1.312035,2.837658 1.312035,2.837658 l 0.305124,0.366149 0.762811,-0.610249 -0.305124,-0.366149 c 0,0 -0.743388,-0.962691 -1.128961,-2.471508 -0.385572,-1.508818 -0.405382,-3.514014 1.159473,-5.7363398 l 0.274612,-0.3966617 -0.793323,-0.549224 z m 4.698916,0.030512 -0.305124,0.4271742 c -1.730489,2.4575513 -1.750299,4.8146583 -1.312035,6.5296633 0.438263,1.715006 1.342547,2.837657 1.342547,2.837657 l 0.305125,0.36615 0.762811,-0.610249 -0.305125,-0.366149 c 0,0 -0.7739,-0.962691 -1.159473,-2.471508 -0.385572,-1.508818 -0.374869,-3.514014 1.189986,-5.7363403 L 29.706355,9.0868533 28.913031,8.5071169 z m -9.580907,0.091537 -0.274612,0.3966618 c -1.730489,2.4575507 -1.750299,4.8146577 -1.312035,6.5296627 0.438263,1.715005 1.342547,2.837657 1.342547,2.837657 l 0.305125,0.36615 0.762811,-0.610249 -0.305125,-0.36615 c 0,0 -0.7739,-0.96269 -1.159473,-2.471508 C 18.30579,13.772061 18.28598,11.766865 19.850835,9.5445393 L 20.15596,9.1478775 19.332124,8.5986535 z m 4.088667,13.1813755 -0.793323,0.549224 0.274612,0.396662 c 1.564855,2.222326 1.545045,4.258034 1.159473,5.766852 -0.385573,1.508817 -1.128961,2.440995 -1.128961,2.440995 l -0.305124,0.396662 0.732298,0.610249 0.305125,-0.396662 c 0,0 0.904284,-1.092139 1.342547,-2.807145 0.438263,-1.715005 0.418454,-4.102624 -1.312035,-6.560175 L 23.420791,21.78003 z m -4.698916,0.06103 -0.793324,0.549224 0.274612,0.396662 c 1.564855,2.222326 1.545046,4.258034 1.159473,5.766852 -0.385573,1.508817 -1.12896,2.440995 -1.12896,2.440995 l -0.305125,0.396662 0.762811,0.610249 0.305125,-0.396662 c 0,0 0.873772,-1.092139 1.312035,-2.807145 0.438263,-1.715005 0.418454,-4.102624 -1.312035,-6.560175 l -0.274612,-0.396662 z m 9.550395,0.06103 -0.793324,0.549224 0.305125,0.396662 c 1.564855,2.222326 1.545045,4.258034 1.159473,5.766852 -0.385573,1.508817 -1.159473,2.440995 -1.159473,2.440995 l -0.305125,0.396662 0.762811,0.610249 0.305125,-0.396662 c 0,0 0.904284,-1.09214 1.342547,-2.807145 0.438264,-1.715005 0.418454,-4.102624 -1.312035,-6.560175 L 28.27227,21.90208 z" />
</defs>

<use id="1" style="fill:#E3E3E3" xlink:href="#path-main" />



</svg>
