<svg xmlns="http://www.w3.org/2000/svg" width="48" height="48">
<defs>
<defs
     id="defs4291">
  </defs>
  <path
     id="path-main"
       d="M 27.9375 6.15625 C 27.225474 6.2365743 26.700926 6.8817238 26.78125 7.59375 C 26.861574 8.3057762 27.506724 8.7990743 28.21875 8.71875 C 28.930776 8.6384257 29.455324 7.9932762 29.375 7.28125 C 29.294676 6.5692238 28.649526 6.0759257 27.9375 6.15625 z M 16.25 8.875 C 11.681578 8.875 8.40625 11.624501 8.40625 16.09375 L 8.40625 20 L 7.125 20 C 5.8197372 20 5.15625 20.659291 5.15625 21.96875 L 5.15625 33.09375 C 5.15625 33.735598 5.8197372 35.0625 7.125 35.0625 L 26.28125 35.0625 C 27.335891 35.0563 28 33.735597 28 33.09375 L 28 21.96875 C 28 20.659291 27.336513 20 26.03125 20 L 24.71875 20 L 24.71875 16.09375 C 24.71875 11.510631 21.474674 8.875 16.90625 8.875 L 16.25 8.875 z M 35.15625 8.875 C 34.053903 8.9993566 33.281893 9.9914034 33.40625 11.09375 C 33.530607 12.196097 34.522653 12.999357 35.625 12.875 C 36.727347 12.750643 37.499357 11.758597 37.375 10.65625 C 37.250643 9.5539034 36.258597 8.7506434 35.15625 8.875 z M 16.25 12.15625 L 16.90625 12.15625 C 21.474674 12.15625 21.46875 16.06554 21.46875 17.375 L 21.46875 20 L 11.6875 20 L 11.6875 17.375 C 11.6875 16.06554 11.681578 12.15625 16.25 12.15625 z M 40.09375 15.96875 C 38.632867 16.133553 37.585197 17.445367 37.75 18.90625 C 37.914803 20.367133 39.226617 21.414803 40.6875 21.25 C 42.148383 21.085197 43.196053 19.773383 43.03125 18.3125 C 42.866447 16.851617 41.554633 15.803947 40.09375 15.96875 z M 40.21875 25.65625 C 39.977273 25.634578 39.750307 25.659263 39.5 25.6875 C 37.497544 25.913399 36.055351 27.716294 36.28125 29.71875 C 36.507149 31.721206 38.310044 33.163399 40.3125 32.9375 C 42.314956 32.711601 43.757149 30.908706 43.53125 28.90625 C 43.333589 27.154101 41.909091 25.807953 40.21875 25.65625 z M 33.84375 35.34375 C 31.486656 35.34375 29.59375 37.267906 29.59375 39.625 C 29.59375 41.982094 31.486656 43.875 33.84375 43.875 C 36.200844 43.875 38.125 41.982094 38.125 39.625 C 38.125 37.267906 36.200844 35.34375 33.84375 35.34375 z "
/>
</defs>

<use id="1" style="fill:#E3E3E3" xlink:href="#path-main" />



</svg>
