<svg xmlns="http://www.w3.org/2000/svg" width="48" height="48">
<defs>
<defs
     id="defs1902">
  </defs>
  <path
     id="path-main"
     d="M 8.2734375,1.9999998 C 4.863044,1.9999998 2,4.861101 2,8.2691803 L 2,32.429857 c 0,3.40808 2.8630431,6.269183 6.2734375,6.269181 l 12.9192705,0 c -0.243602,0.150972 -0.484551,0.29781 -0.773437,0.458022 -1.456257,0.835134 -2.171964,2.563865 -1.71875,4.179454 0.453213,1.615591 1.959562,2.705294 3.638021,2.662255 4.51256,-0.160734 8.0838,-1.261482 10.684895,-3.349288 1.35081,-1.084246 2.361068,-2.455882 3.007813,-3.950443 l 3.695312,0 c 3.410394,0 6.273433,-2.861103 6.273438,-6.269181 L 46,8.2691803 C 46,4.861101 43.136956,1.9999998 39.726562,1.9999998 l -31.4531245,0 z m 0,3.6928049 31.4531245,0 c 1.439791,0 2.606771,1.1661878 2.606771,2.6050016 l 0,24.1034247 c 0,1.438813 -1.16698,2.605002 -2.606771,2.605002 l -31.4531245,0 c -1.4397914,0 -2.6067708,-1.166188 -2.6067708,-2.605002 l 0,-24.1034247 c 0,-1.438814 1.1669796,-2.6050016 2.6067708,-2.6050016 z m 7.3046875,2.9771456 c -3.928408,0 -7.1614574,3.2308567 -7.1614583,7.1565977 10e-8,3.925743 3.2330503,7.127973 7.1614583,7.127973 0.726948,0 1.427901,-0.111289 2.091146,-0.314891 -0.132736,0.616685 -0.03962,1.303982 0.315104,1.917969 l 2.291667,4.007695 c 0.719895,1.246048 2.226644,1.696108 3.380208,1.03055 1.153564,-0.665558 1.521978,-2.189119 0.802083,-3.435167 l -2.320312,-4.007695 c -0.359948,-0.623024 -0.906988,-1.07017 -1.518229,-1.259562 1.307188,-1.292328 2.11979,-3.097233 2.119791,-5.066872 0,-3.925742 -3.23305,-7.1565977 -7.161458,-7.1565977 z m 14.007812,1.6030777 c -1.464081,0 -2.635415,1.223261 -2.635416,2.719507 0,1.496246 1.171334,2.690881 2.635416,2.690881 1.464082,0 2.664063,-1.194635 2.664063,-2.690881 0,-1.496246 -1.199982,-2.719507 -2.664063,-2.719507 z m -14.007812,2.0611 c 1.94451,0 3.494792,1.549229 3.494792,3.49242 -1e-6,1.943192 -1.550282,3.463794 -3.494792,3.463794 -1.94451,0 -3.494792,-1.520603 -3.494792,-3.463794 1e-6,-1.943191 1.550282,-3.49242 3.494792,-3.49242 z m 21.341146,5.267257 c -1.464082,0 -2.635418,1.223261 -2.635417,2.719507 0,1.496247 1.171336,2.690882 2.635417,2.690882 1.464081,0 2.664062,-1.194635 2.664062,-2.690882 0,-1.496246 -1.19998,-2.719507 -2.664062,-2.719507 z m -7.333334,7.328357 c -1.464081,0 -2.635415,1.223261 -2.635416,2.719508 0,1.496246 1.171334,2.690881 2.635416,2.690881 1.464082,0 2.664063,-1.194635 2.664063,-2.690881 0,-1.496247 -1.199982,-2.719508 -2.664063,-2.719508 z" />
</defs>

<use id="1" style="fill:#E3E3E3" xlink:href="#path-main" />



</svg>
