<svg xmlns="http://www.w3.org/2000/svg" width="48" height="48">
<defs>
  <path
     d="M 24,2 C 11.851157,2 2,11.851157 2,24 2,36.148843 11.851157,46 24,46 36.148843,46 46,36.148843 46,24 46,11.851157 36.148843,2 24,2 z M 13.26244,9.363327 24,20.100886 34.73756,9.363327 38.636673,13.26244 27.899114,24 38.636673,34.73756 34.73756,38.63667 24,27.899114 13.26244,38.63667 9.363327,34.73756 20.100886,24 9.363327,13.26244 13.26244,9.363327 z"
     id="path-main"
      />
</defs>

<use id="1" style="fill:#E3E3E3" xlink:href="#path-main" />



</svg>
