<?xml version="1.0" encoding="UTF-8" standalone="no"?>
<svg
   xmlns:dc="http://purl.org/dc/elements/1.1/"
   xmlns:cc="http://creativecommons.org/ns#"
   xmlns:rdf="http://www.w3.org/1999/02/22-rdf-syntax-ns#"
   xmlns:svg="http://www.w3.org/2000/svg"
   xmlns="http://www.w3.org/2000/svg"
   xmlns:sodipodi="http://sodipodi.sourceforge.net/DTD/sodipodi-0.dtd"
   xmlns:inkscape="http://www.inkscape.org/namespaces/inkscape"
   height="512"
   viewBox="0 0 512 512"
   width="512"
   version="1.1"
   id="svg2"
   inkscape:version="0.91 r13725"
   sodipodi:docname="preferences-desktop-accessibility.svg">
  <defs
     id="defs16" />
  <sodipodi:namedview
     pagecolor="#bdbbb2"
     bordercolor="#666666"
     borderopacity="1"
     objecttolerance="10"
     gridtolerance="10"
     guidetolerance="10"
     inkscape:pageopacity="0"
     inkscape:pageshadow="2"
     inkscape:window-width="753"
     inkscape:window-height="480"
     id="namedview14"
     showgrid="false"
     inkscape:zoom="0.4609375"
     inkscape:cx="256"
     inkscape:cy="256"
     inkscape:window-x="0"
     inkscape:window-y="0"
     inkscape:window-maximized="0"
     inkscape:current-layer="svg2" />
  <metadata
     id="metadata26">
    <rdf:RDF>
      <cc:Work
         rdf:about="">
        <dc:format>image/svg+xml</dc:format>
        <dc:type
           rdf:resource="http://purl.org/dc/dcmitype/StillImage" />
        <dc:title></dc:title>
      </cc:Work>
    </rdf:RDF>
  </metadata>
  <path
     id="path20"
     d="m 300.98895,108.08777 c 0,24.25323 -19.24387,43.93663 -42.95137,43.93663 -23.71115,0 -42.95136,-19.68096 -42.95136,-43.93663 0,-24.253238 19.24387,-43.936634 42.95136,-43.936634 23.71116,0 42.95137,19.680954 42.95137,43.936634 m 107.20748,46.72395 c -1.98641,0.32842 -3.67492,0.87539 -5.66133,1.20747 L 256.00234,180.54713 110.06782,154.95579 c -4.62722,-0.8119 -9.07619,-1.77153 -13.291972,0.30644 -4.215777,2.07798 -6.978681,7.0031 -7.037284,11.68893 -0.05494,4.68704 2.874005,8.72823 7.037284,10.90999 l 114.349762,37.10568 -0.7826,85.18239 -40.35084,127.57214 c -3.88613,5.80906 -2.70186,13.26999 3.12796,17.14148 5.82981,3.87392 14.09654,2.69331 17.98267,-3.11697 l 65.12296,-137.70563 63.88985,137.47366 c 3.45516,6.02516 11.15539,8.119 17.20252,4.67606 6.04591,-3.44295 8.14587,-11.11754 4.69071,-17.14148 l -39.60243,-128.12155 -0.0549,-83.96149 114.44744,-39.55481 c 4.68582,-3.27446 6.72107,-9.4742 4.69193,-14.80955 -2.02914,-5.33168 -7.60623,-8.43888 -13.29197,-7.79302 z"
     inkscape:connector-curvature="0"
     style="fill:#E3E3E3" />
</svg>
