<svg xmlns="http://www.w3.org/2000/svg" width="48" height="48">
<defs>
  <path
     d="m 23.984506,2.0001651 c -2.92304,-0.0139 -5.82509,0.62247 -8.52571,1.7253701 2.91678,2.88422 5.87667,5.7244003 8.83915,8.5640798 l 6.80176,-8.0935298 0.0627,-0.0941 0.18807,-0.25096 0.18806,-0.18823 0.21942,-0.21959 c -2.47747,-0.9439701 -5.1212,-1.4456201 -7.77344,-1.4430301 z m -9.99891,2.4155101 C 6.4021659,8.2241352 1.4831659,16.692975 2.0433359,25.182805 c 0.19766,1.43737 0.24313,4.40977 1.09706,5.01925 6.3427801,-5.97805 12.6630901,-11.95653 19.0261301,-17.91244 -2.72414,-2.6268395 -5.43078,-5.2762998 -8.18093,-7.8739398 z m 19.68436,1.34892 -0.0627,0.0941 -22.63074,27.0098198 c -1.64305,1.95762 -2.92226,3.22733 -3.76135,3.82717 -0.6305,0.43572 -1.3189801,0.74285 -2.1314201,0.87837 l -0.15673,0.0314 -0.0626,0.15685 -0.25076,0.87837 -0.094,0.3137 0.34479,0 9.5287301,0 0.25076,0 0,-0.25096 0,-0.87837 0,-0.25096 -0.25076,0 c -0.90141,-0.0459 -1.47511,-0.20659 -1.81798,-0.47055 -0.3565,-0.2997 -0.50151,-0.59134 -0.50151,-0.87837 0,-0.33253 0.0467,-0.67833 0.18807,-1.00385 0.19168,-0.44273 0.50752,-0.93337 0.94033,-1.50577 l 2.25681,-2.69785 1.91202,-2.38414 9.52873,0 -0.21941,3.82718 c -0.0778,1.71293 -0.30093,2.90652 -0.6269,3.54484 -0.34835,0.66695 -0.73177,1.10338 -1.09706,1.28618 -0.0396,0.0135 -0.28997,0.0776 -0.65823,0.12548 -0.38521,0.0501 -0.91686,0.0941 -1.59857,0.15685 l -0.15672,0.0314 -0.0626,0.15685 -0.2821,0.87837 -0.094,0.3137 0.34478,0 13.82294,0 0.18807,0 0.0626,-0.18822 0.25075,-0.87836 0.0626,-0.28234 -0.2821,-0.0314 c -0.96787,-0.0757 -1.62529,-0.33097 -2.00605,-0.75288 -0.36454,-0.41887 -0.56423,-1.12775 -0.5642,-2.16455 -3e-5,-0.27359 0.0157,-1.11265 0.0627,-2.47826 l 1.06572,-26.1628098 0,-0.25097 -0.25077,0 -1.06571,0 -0.12538,0 z m 4.41958,1.3803 -1.00303,24.0296298 c 2.58073,-0.0162 5.16137,-0.0489 7.7421,-0.0627 2.88515,-8.16176 0.30395,-17.86774 -6.23755,-23.5277098 -0.16589,-0.14814 -0.331,-0.29655 -0.50152,-0.43918 z m -10.62579,9.6306698 -0.5642,9.44246 -7.49135,0 8.05555,-9.44246 z m -13.82294,5.61528 c -3.21487,3.01415 -6.41579,6.04346 -9.6227701,9.06602 -1.26976,0.52005 -0.3507,1.67776 0.6269,3.13703 0.29688,-0.0608 0.54026,-0.1626 0.81496,-0.34508 0.38182,-0.27295 1.6680201,-1.43465 3.2284801,-3.29388 l 4.98378,-5.96035 c -0.0103,-0.86793 -0.0277,-1.73583 -0.0314,-2.60374 z m 30.18478,10.22672 c -2.25677,0.0152 -4.51365,0.0161 -6.77042,0.0314 -0.0314,0.97825 -0.062,1.78326 -0.0627,1.94496 l 0.18808,0.0314 3.32251,0.37644 -0.72092,3.26251 -0.0626,0.28233 -0.0314,0.0941 -0.0314,0.0941 -0.25075,0.87837 0,0.0627 c 2.03728,-2.0112 3.6626,-4.42872 4.7957,-7.05831 -0.12521,-2e-5 -0.25155,1e-4 -0.37613,0 z m -20.18588,0.12548 c -1.90338,0.0115 -3.80131,0.02 -5.7047,0.0314 l -0.12537,0.15685 -0.0314,0 0,0.0314 -1.34781,1.59989 1.22243,0 0,3.01154 0,0.25096 0,0.87837 0,0.25096 0,3.01155 -2.31949,0 c -0.005,0.74219 -0.005,1.47733 0,2.22729 6.87051,3.09274 15.24981,2.12777 21.34562,-2.22729 l -0.21941,0 -0.18807,0 -13.82294,0 -0.34478,0 -4.04345,0 1.15975,-3.85854 0.094,-0.31371 0,-0.0314 0.0314,-0.0314 0.28211,-0.87836 0.0314,-0.0941 0.0314,-0.0941 0.0626,-0.15685 0.59554,-1.53714 1.59858,-0.3137 0.15672,-0.0314 0.15672,-0.0314 0.15672,0 c 0.46365,-0.0427 0.71734,-0.0656 1.00302,-0.0941 -0.0447,0.0459 0.13366,-0.61786 0.21941,-1.75673 z m -12.31839,9.22286 c 0.80268,0.57702 1.63631,1.09885 2.50756,1.56852 -4.1e-4,-0.52283 0.006,-1.04572 0,-1.56852 l -2.50756,0 z"
     id="path-main" />
</defs>

<use id="1" style="fill:#E3E3E3" xlink:href="#path-main" />



</svg>
