<?xml version="1.0" encoding="UTF-8" standalone="no"?>
<svg
   xmlns:dc="http://purl.org/dc/elements/1.1/"
   xmlns:cc="http://creativecommons.org/ns#"
   xmlns:rdf="http://www.w3.org/1999/02/22-rdf-syntax-ns#"
   xmlns:svg="http://www.w3.org/2000/svg"
   xmlns="http://www.w3.org/2000/svg"
   xmlns:sodipodi="http://sodipodi.sourceforge.net/DTD/sodipodi-0.dtd"
   xmlns:inkscape="http://www.inkscape.org/namespaces/inkscape"
   height="512"
   viewBox="0 0 512 512"
   width="512"
   version="1.1"
   id="svg2"
   inkscape:version="0.91 r"
   sodipodi:docname="system-config-services.svg">
  <defs
     id="defs20" />
  <sodipodi:namedview
     pagecolor="#ffffff"
     bordercolor="#666666"
     borderopacity="1"
     objecttolerance="10"
     gridtolerance="10"
     guidetolerance="10"
     inkscape:pageopacity="0"
     inkscape:pageshadow="2"
     inkscape:window-width="640"
     inkscape:window-height="480"
     id="namedview18"
     showgrid="false"
     inkscape:zoom="0.4609375"
     inkscape:cx="256"
     inkscape:cy="256"
     inkscape:window-x="0"
     inkscape:window-y="0"
     inkscape:window-maximized="0"
     inkscape:current-layer="svg2" />
  <metadata
     id="metadata80">
    <rdf:RDF>
      <cc:Work
         rdf:about="">
        <dc:format>image/svg+xml</dc:format>
        <dc:type
           rdf:resource="http://purl.org/dc/dcmitype/StillImage" />
      </cc:Work>
    </rdf:RDF>
  </metadata>
  <g
     style="fill:#E3E3E3"
     id="g10"
     transform="translate(0,-540.36)">
    <path
       style="fill-opacity:0.56099997"
       inkscape:connector-curvature="0"
       d="m 199.99,683.31 c 48.906,57.674 141.12,54.49 217.14,75.952 -79.61,42.692 -158.81,57.5 -244.87,50.46 z"
       id="path12" />
    <path
       inkscape:connector-curvature="0"
       d="m 190.84,668.63 c 61.37,44.18 145.88,33.767 224.83,36.26 -66.959,60.63 -144.14,94.4 -229.36,108.33 z"
       id="path14" />
    <rect
       style="fill-rule:evenodd"
       x="169.62"
       y="629.08002"
       width="24.358999"
       height="386.07999"
       ry="10.466"
       rx="12.18"
       id="rect16" />
  </g>
</svg>
