<svg xmlns="http://www.w3.org/2000/svg" width="48" height="48">
<defs>
  <path
     d="M 24,2 C 11.849498,2 2,11.848754 2,24.000003 2,36.151688 11.849497,46 24,46 36.149374,46 46,36.151801 46,24.000003 46,11.848754 36.149373,2 24,2 z m -0.26506,3.2775985 c 10.114102,0 18.335254,8.4105995 18.335254,18.7577715 0,10.347168 -8.221153,18.757766 -18.335254,18.757766 -10.114102,0 -18.3352543,-8.410598 -18.3352543,-18.757766 C 5.399685,13.688199 13.620837,5.2775985 23.73494,5.2775985 z m 0,1.1318334 c -9.515503,0 -17.2289166,7.8911591 -17.2289159,17.6259381 0,9.734774 7.7134119,17.625942 17.2289159,17.625942 9.515503,0 17.228915,-7.891168 17.228915,-17.625942 0,-9.734778 -7.713413,-17.6259392 -17.228915,-17.6259381 z m 0.472498,3.3719179 c 1.832097,0 3.319016,1.5211832 3.319016,3.3954982 0,1.874316 -1.486919,3.395499 -3.319016,3.395499 -1.832096,0 -3.319015,-1.521183 -3.319015,-3.395499 0,-1.874315 1.486919,-3.3954982 3.319015,-3.3954982 z m -12.918805,7.6516612 24.892614,0 c -0.169334,1.077838 -0.689026,1.653535 -1.452069,1.945338 l -7.133578,1.957126 0,6.602357 1.601886,9.903536 c 0.252406,0.786035 -1.801878,1.143333 -2.178104,0 l -3.077004,-9.396566 -2.96176,9.396566 c -0.298117,1.052139 -2.359528,0.956485 -2.178104,0 l 1.244631,-10.210071 0,-6.56699 -7.248821,-1.957126 C 11.94538,18.762146 11.47802,18.063878 11.288633,17.433011 z"
     id="path-main" />
</defs>

<use id="1" style="fill:#E3E3E3" xlink:href="#path-main" />



</svg>
