<?xml version="1.0" encoding="UTF-8" standalone="no"?>
<svg
   xmlns:dc="http://purl.org/dc/elements/1.1/"
   xmlns:cc="http://creativecommons.org/ns#"
   xmlns:rdf="http://www.w3.org/1999/02/22-rdf-syntax-ns#"
   xmlns:svg="http://www.w3.org/2000/svg"
   xmlns="http://www.w3.org/2000/svg"
   xmlns:sodipodi="http://sodipodi.sourceforge.net/DTD/sodipodi-0.dtd"
   xmlns:inkscape="http://www.inkscape.org/namespaces/inkscape"
   height="512"
   viewBox="0 0 512 512"
   width="512"
   version="1.1"
   id="svg2"
   inkscape:version="0.91 r13725"
   sodipodi:docname="ptbatcher.svg">
  <defs
     id="defs17" />
  <sodipodi:namedview
     pagecolor="#ffffff"
     bordercolor="#666666"
     borderopacity="1"
     objecttolerance="10"
     gridtolerance="10"
     guidetolerance="10"
     inkscape:pageopacity="0"
     inkscape:pageshadow="2"
     inkscape:window-width="1920"
     inkscape:window-height="1022"
     id="namedview15"
     showgrid="false"
     inkscape:zoom="0.6433966"
     inkscape:cx="-503.03382"
     inkscape:cy="445.20528"
     inkscape:window-x="0"
     inkscape:window-y="0"
     inkscape:window-maximized="1"
     inkscape:current-layer="svg2" />
  <metadata
     id="metadata28">
    <rdf:RDF>
      <cc:Work
         rdf:about="">
        <dc:format>image/svg+xml</dc:format>
        <dc:type
           rdf:resource="http://purl.org/dc/dcmitype/StillImage" />
        <dc:title></dc:title>
      </cc:Work>
    </rdf:RDF>
  </metadata>
  <g
     id="g33"
     transform="matrix(16.037717,0,0,16.037717,-139.54947,-135.13965)"
     inkscape:transform-center-x="90.957586"
     inkscape:transform-center-y="24.806628"
     style="fill:#E3E3E3;fill-opacity:1">
    <path
       d="m 12,16 26,2 -10,0 -4,0 z"
       style="fill:#E3E3E3;fill-opacity:1;stroke:none"
       id="path35"
       inkscape:connector-curvature="0" />
    <path
       d="m 24,21 -2,5 -3,6 3,2 -1,-2 3,-6 -1,7 3,2 -1,-2 0,-4 2,-8 1,-2 -4,0 z"
       style="fill:#E3E3E3;fill-opacity:1;stroke:none"
       id="path37"
       inkscape:connector-curvature="0" />
    <path
       transform="matrix(1.3333333,0,0,1.3333333,-6.6666659,-1.6666662)"
       d="m 26,12.5 a 1.5,1.5 0 1 1 -3,0 1.5,1.5 0 1 1 3,0 z"
       style="fill:#E3E3E3;fill-opacity:1;stroke:none"
       id="path39"
       inkscape:connector-curvature="0" />
  </g>
  <g
     id="g33-3"
     transform="matrix(9.2340404,0,0,9.2340404,120.36927,50.191606)"
     inkscape:transform-center-x="52.370677"
     inkscape:transform-center-y="14.282912"
     style="fill:#E3E3E3;fill-opacity:1">
    <path
       d="m 12,16 26,2 -10,0 -4,0 z"
       style="fill:#E3E3E3;fill-opacity:1;stroke:none"
       id="path35-6"
       inkscape:connector-curvature="0" />
    <path
       d="m 24,21 -2,5 -3,6 3,2 -1,-2 3,-6 -1,7 3,2 -1,-2 0,-4 2,-8 1,-2 -4,0 z"
       style="fill:#E3E3E3;fill-opacity:1;stroke:none"
       id="path37-7"
       inkscape:connector-curvature="0" />
    <path
       transform="matrix(1.3333333,0,0,1.3333333,-6.6666659,-1.6666662)"
       d="m 26,12.5 a 1.5,1.5 0 1 1 -3,0 1.5,1.5 0 1 1 3,0 z"
       style="fill:#E3E3E3;fill-opacity:1;stroke:none"
       id="path39-5"
       inkscape:connector-curvature="0" />
  </g>
</svg>
