<?xml version="1.0" encoding="UTF-8" standalone="no"?>
<svg
   xmlns:dc="http://purl.org/dc/elements/1.1/"
   xmlns:cc="http://creativecommons.org/ns#"
   xmlns:rdf="http://www.w3.org/1999/02/22-rdf-syntax-ns#"
   xmlns:svg="http://www.w3.org/2000/svg"
   xmlns="http://www.w3.org/2000/svg"
   xmlns:sodipodi="http://sodipodi.sourceforge.net/DTD/sodipodi-0.dtd"
   xmlns:inkscape="http://www.inkscape.org/namespaces/inkscape"
   viewBox="0 0 512 512"
   id="svg2"
   version="1.1"
   inkscape:version="0.91 r"
   sodipodi:docname="qupzilla.svg">
  <metadata
     id="metadata31">
    <rdf:RDF>
      <cc:Work
         rdf:about="">
        <dc:format>image/svg+xml</dc:format>
        <dc:type
           rdf:resource="http://purl.org/dc/dcmitype/StillImage" />
      </cc:Work>
    </rdf:RDF>
  </metadata>
  <sodipodi:namedview
     pagecolor="#ffffff"
     bordercolor="#666666"
     borderopacity="1"
     objecttolerance="10"
     gridtolerance="10"
     guidetolerance="10"
     inkscape:pageopacity="0"
     inkscape:pageshadow="2"
     inkscape:window-width="640"
     inkscape:window-height="480"
     id="namedview29"
     showgrid="false"
     inkscape:zoom="0.4609375"
     inkscape:cx="256"
     inkscape:cy="256"
     inkscape:window-x="0"
     inkscape:window-y="0"
     inkscape:window-maximized="0"
     inkscape:current-layer="svg2" />
  <defs
     id="defs4">
    <radialGradient
       id="0"
       gradientUnits="userSpaceOnUse"
       cy="253.05"
       cx="253.04"
       r="321.28">
      <stop
         stop-color="#5cb9fe"
         id="stop7" />
      <stop
         stop-color="#09758f"
         offset="1"
         id="stop9" />
    </radialGradient>
  </defs>
  <path
     d="m256 86.22c-93.76 0-169.78 76.02-169.78 169.78s76.02 169.78 169.78 169.78 169.78-76.02 169.78-169.78-76.02-169.78-169.78-169.78m0 24.408c25.753 0 49.943 6.709 70.922 18.456-0.682 0.45-4.047 1.389-7.687 2.154-7.906 1.661-29.46 8.472-36.702 11.576-4.827 2.069-4.973 2.056-7.777-0.15-7.391-5.814-20.915-7.602-29.703-3.919l-4.427 1.855-12.743-7.927c-7.02-4.358-14.967-9.13-17.648-10.589-1.859-1.011-3.283-2.062-3.829-2.782 15.476-5.616 32.18-8.675 49.594-8.675zm-75.56 21.18l12.683 6.252c7.688 3.777 18.419 9.734 23.87 13.251l9.931 6.401-1.137 4.068c-0.619 2.243-0.79 6-0.389 8.375 0.719 4.253 0.594 4.42-8.226 11.815-4.918 4.124-13.05 11.656-18.07 16.721l-9.123 9.213-6.311-0.628c-3.937-0.381-8.308 0.001-11.576 1.017l-5.235 1.645-5.414-6.401c-2.982-3.526-9.513-12.492-14.507-19.922-5.533-8.231-7.656-11.639-8.08-13.7 11.227-15.253 25.353-28.22 41.578-38.11m172.35 15.764c29.803 26.622 48.577 65.33 48.577 108.43 0 7.03-0.501 13.937-1.466 20.699l-11.247 2.632c-6.713 1.569-15.05 3.183-18.516 3.589-3.461 0.406-7.129 0.995-8.166 1.286-1.239 0.348-2.727-0.834-4.337-3.44-4.797-7.762-12.675-13.11-21.896-14.836-3.938-0.737-4.252-1.168-7.867-10.768-8.128-21.586-24.524-50.36-38.35-67.33-3.457-4.243-5.05-7.155-4.577-8.346 0.4-1.01 1.281-4.805 1.974-8.465 1.152-6.081 1.63-6.829 5.354-8.405 12.871-5.449 34.23-11.16 50.97-13.64l9.542-1.406m-227.15 44.03l5.953 8.525c3.678 5.264 9.708 13.188 13.401 17.588 5.734 6.834 6.58 8.407 5.803 10.858-1.923 6.07-1.044 17.506 1.795 23.272l2.722 5.504-5.803 12.234c-6.515 13.752-15.191 39.19-17.349 50.851-0.701 3.786-1.611 7.17-2.184 8.106-12.315-21.348-19.353-46.12-19.353-72.54 0-23.12 5.409-44.99 15.02-64.4m112.5 1.585l5.085 2.513c5.252 2.598 16.813 3.484 22.793 1.735 2.589-0.757 3.521 0.061 9.811 8.585 13.02 17.649 23.415 36.414 30.989 56.03l3.859 9.991-4.128 5.743c-2.267 3.156-4.209 5.698-4.307 5.653-0.098-0.044-4.551-1.02-9.901-2.154-28.42-6.02-58.758-18.17-77.14-30.899l-4.487-3.111 0.269-7.987c0.175-5.399-0.361-9.607-1.675-12.892l-1.974-4.876 7.897-7.987c4.337-4.393 11.271-10.748 15.405-14.15l7.508-6.192m-41.19 71.849l9.662 5.893c13.947 8.528 32.87 17.468 47.979 22.644 11.196 3.835 18.341 5.738 37.659 10.05 2.427 0.542 1.724 1.218-5.743 5.474-30.544 17.409-57.847 41.05-76.61 66.35-3.806 5.132-8.06 10.764-9.452 12.503l-1.436 1.825c-18.65-7.954-35.28-19.689-48.966-34.25-1.372-3.447-0.697-7.813 1.017-17.798 3.747-21.832 8.874-38.447 18.04-58.42l4.816-10.499h6.581c3.622 0.002 8.799-0.847 11.516-1.884l4.936-1.884m197.42 35.625c-9.254 28.695-27.18 53.47-50.701 71.28-0.363-2.657-0.449-11.819-0.179-22.913 0.495-20.414 0.864-23.903 2.483-24.887 3.872-2.353 12.717-12.05 13.371-14.657 0.627-2.497 1.822-2.899 15.764-5.205 8.298-1.372 16.237-2.813 17.678-3.201l1.585-0.419m-83.51 20.4l5.085 2.662c3.203 1.687 5.362 3.71 5.803 5.444 1.813 7.133-1.78 51.55-4.517 58.718-18.611 8.656-39.35 13.49-61.23 13.49-11.815 0-23.311-1.408-34.31-4.068 1.154-3.555 10.982-16.09 21.836-27.579 15.326-16.222 38.27-33.557 58-43.821l9.333-4.846"
     fill="#E3E3E3"
     id="path27" />
</svg>
