<svg xmlns="http://www.w3.org/2000/svg" width="48" height="48">
<defs>
<defs
     id="defs3" />
  <path
     d="M 8,4 L 8,4.625 L 8,43.375 L 8,44 L 8.625,44 L 19.375,44 L 20,44 L 20,43.375 L 20,4.625 L 20,4 L 19.375,4 L 8.625,4 L 8,4 z M 28,4 L 28,4.625 L 28,43.375 L 28,44 L 28.625,44 L 39.375,44 L 40,44 L 40,43.375 L 40,4.625 L 40,4 L 39.375,4 L 28.625,4 L 28,4 z"
     id="path-main"
      />
</defs>

<use id="1" style="fill:#E3E3E3" xlink:href="#path-main" />



</svg>
