<?xml version="1.0" encoding="UTF-8" standalone="no"?>
<svg
   xmlns:dc="http://purl.org/dc/elements/1.1/"
   xmlns:cc="http://creativecommons.org/ns#"
   xmlns:rdf="http://www.w3.org/1999/02/22-rdf-syntax-ns#"
   xmlns:svg="http://www.w3.org/2000/svg"
   xmlns="http://www.w3.org/2000/svg"
   xmlns:sodipodi="http://sodipodi.sourceforge.net/DTD/sodipodi-0.dtd"
   xmlns:inkscape="http://www.inkscape.org/namespaces/inkscape"
   height="512"
   viewBox="0 0 512 512"
   width="512"
   version="1.1"
   id="svg2"
   inkscape:version="0.91 r13725"
   sodipodi:docname="skypeforlinux.svg">
  <defs
     id="defs17" />
  <sodipodi:namedview
     pagecolor="#ffffff"
     bordercolor="#666666"
     borderopacity="1"
     objecttolerance="10"
     gridtolerance="10"
     guidetolerance="10"
     inkscape:pageopacity="0"
     inkscape:pageshadow="2"
     inkscape:window-width="1920"
     inkscape:window-height="1024"
     id="namedview15"
     showgrid="false"
     inkscape:zoom="0.65186406"
     inkscape:cx="-352.76455"
     inkscape:cy="449.44125"
     inkscape:window-x="0"
     inkscape:window-y="0"
     inkscape:window-maximized="1"
     inkscape:current-layer="svg2" />
  <metadata
     id="metadata74">
    <rdf:RDF>
      <cc:Work
         rdf:about="">
        <dc:format>image/svg+xml</dc:format>
        <dc:type
           rdf:resource="http://purl.org/dc/dcmitype/StillImage" />
      </cc:Work>
    </rdf:RDF>
  </metadata>
  <path
     style="fill:#E3E3E3"
     d="m 169.75423,74.025015 -0.008,0.0053 c -53.10631,0 -96.12906,43.034927 -96.12906,96.129067 0,17.75624 4.8191,34.35362 13.205946,48.62358 -2.199229,10.77013 -3.341137,21.92683 -3.341137,33.34794 0,91.56914 74.221621,165.78806 165.788061,165.78806 10.37089,0 20.51799,-0.94855 30.35836,-2.77019 13.53372,7.27573 28.99757,11.39265 45.44106,11.39265 53.10631,0 96.1687,-43.02952 96.1687,-96.12907 0,-15.34182 -3.59971,-29.84277 -9.99169,-42.70522 2.50645,-11.46306 3.81957,-23.36205 3.81957,-35.57623 0,-91.56915 -74.22163,-165.788069 -165.78807,-165.788069 -9.66713,0 -19.13562,0.829766 -28.35208,2.418624 -14.81943,-9.338266 -32.37339,-14.73642 -51.17173,-14.73642 z m 78.40834,61.440965 c 14.80589,0 27.82783,1.71163 38.6927,5.091 10.93525,3.40238 20.15866,7.99816 27.39785,13.65796 7.29062,5.69499 12.69528,11.80464 16.10036,18.13571 3.44028,6.39469 5.18882,12.74843 5.18882,18.90492 0,5.92371 -2.26524,11.31307 -6.78008,16.00521 -4.54057,4.72191 -10.29851,7.09463 -17.05724,7.09463 -6.14025,0 -10.92064,-1.49956 -14.25535,-4.45398 -3.10193,-2.74328 -6.32499,-6.99007 -9.89653,-13.1425 -4.13456,-7.85498 -9.15286,-14.06321 -14.8871,-18.42648 -5.57047,-4.23876 -14.88848,-6.39415 -27.68597,-6.39415 -11.88531,0 -21.5267,2.38895 -28.70364,7.09463 -6.91573,4.53379 -10.27982,9.71913 -10.27982,15.87833 0,3.77726 1.08449,6.95828 3.30943,9.67449 2.35622,2.87863 5.66394,5.40785 9.86481,7.50964 4.35786,2.18975 8.83557,3.91468 13.33283,5.15707 4.60823,1.27894 12.34292,3.17929 22.94389,5.63025 13.41597,2.87997 25.75445,6.09439 36.66263,9.57933 11.03945,3.53365 20.57419,7.89059 28.35472,12.9522 7.94159,5.17259 14.24725,11.83065 18.70931,19.7587 4.47425,7.95783 6.74571,17.77181 6.74571,29.18209 0,13.65552 -3.91805,26.11026 -11.61468,37.00626 -7.66956,10.85404 -18.98645,19.44777 -33.66513,25.55283 -14.54062,6.0428 -31.99882,9.10353 -51.8352,9.10353 -23.81122,0 -43.76617,-4.17564 -59.34483,-12.44203 -11.1396,-6.01709 -20.32754,-14.15706 -27.2974,-24.21532 -7.04295,-10.15841 -10.59701,-20.25509 -10.59701,-29.97771 0,-6.07529 2.31639,-11.34581 6.90432,-15.6563 4.54191,-4.27259 10.36955,-6.42852 17.31099,-6.42852 5.6977,0 10.61046,1.71435 14.60426,5.09101 3.81651,3.23456 7.07661,8.01106 9.70621,14.19191 2.93817,6.72896 6.12983,12.42304 9.51326,16.89864 3.2508,4.30508 7.92993,7.93112 13.90642,10.7556 6.00898,2.84615 14.12086,4.26365 24.08844,4.26365 13.70695,0 24.95956,-2.91776 33.41137,-8.68854 8.25692,-5.63679 12.24907,-12.39986 12.24907,-20.68385 0,-6.54491 -2.08765,-11.68133 -6.39679,-15.71709 -4.51079,-4.21846 -10.46606,-7.51629 -17.689,-9.76965 -7.53693,-2.3481 -17.76783,-4.89281 -30.41915,-7.54136 -17.20542,-3.68523 -31.80944,-8.0374 -43.42949,-12.98127 -11.88937,-5.0589 -21.47127,-12.06983 -28.47633,-20.84509 -7.11873,-8.9079 -10.72389,-20.08118 -10.72389,-33.22106 0,-12.52411 3.76345,-23.83375 11.23405,-33.57261 7.41378,-9.66985 18.2623,-17.18358 32.20339,-22.33857 13.75838,-5.08868 30.1014,-7.66822 48.62094,-7.66822 l -0.0212,-0.005 z M 349.37471,337.4541 c 14.13204,0 19.25855,13.37673 20.41423,16.48893 l 7.85062,-13.34868 15.70124,0 -18.84149,29.83497 c 0,0 4.71197,28.39081 20.41425,23.55449 0,0 -7.18716,6.2805 -12.56363,6.2805 -12.56183,0 -15.70109,-15.70366 -17.27134,-18.84412 -3.734,6.28092 -16.31553,18.84412 -26.69474,18.84412 l -4.71037,0 c -14.13204,0 -20.41425,-9.41826 -20.41425,-22.60818 0,-10.31013 12.56205,-40.20203 36.11548,-40.20203 z m -1.16834,7.86912 c -14.3281,-0.0404 -32.3328,46.98215 -16.10302,47.09047 10.86598,0.0628 24.25765,-17.27346 28.26487,-25.12461 -2.35535,-15.30972 -6.67447,-21.39861 -11.48253,-21.92621 -0.22541,-0.0247 -0.45189,-0.039 -0.67932,-0.0396 z"
     id="path68"
     inkscape:connector-curvature="0" />
</svg>
