<?xml version="1.0" encoding="UTF-8" standalone="no"?>
<svg
   xmlns:dc="http://purl.org/dc/elements/1.1/"
   xmlns:cc="http://creativecommons.org/ns#"
   xmlns:rdf="http://www.w3.org/1999/02/22-rdf-syntax-ns#"
   xmlns:svg="http://www.w3.org/2000/svg"
   xmlns="http://www.w3.org/2000/svg"
   xmlns:sodipodi="http://sodipodi.sourceforge.net/DTD/sodipodi-0.dtd"
   xmlns:inkscape="http://www.inkscape.org/namespaces/inkscape"
   viewBox="0 0 512 512"
   version="1.1"
   id="svg2"
   inkscape:version="0.91 r13725"
   sodipodi:docname="telephony-service-message.svg">
  <sodipodi:namedview
     pagecolor="#ffffff"
     bordercolor="#666666"
     borderopacity="1"
     objecttolerance="10"
     gridtolerance="10"
     guidetolerance="10"
     inkscape:pageopacity="0"
     inkscape:pageshadow="2"
     inkscape:window-width="1920"
     inkscape:window-height="1052"
     id="namedview16"
     showgrid="false"
     inkscape:zoom="0.921875"
     inkscape:cx="648.77245"
     inkscape:cy="117.83966"
     inkscape:window-x="1920"
     inkscape:window-y="0"
     inkscape:window-maximized="1"
     inkscape:current-layer="svg2" />
  <metadata
     id="metadata6004">
    <rdf:RDF>
      <cc:Work
         rdf:about="">
        <dc:format>image/svg+xml</dc:format>
        <dc:type
           rdf:resource="http://purl.org/dc/dcmitype/StillImage" />
        <dc:title></dc:title>
      </cc:Work>
    </rdf:RDF>
  </metadata>
  <defs
     id="defs4">
    <path
       id="0"
       d="m-53.03 6.634h57.629v49.32h-57.629z" />
  </defs>
  <path
     inkscape:connector-curvature="0"
     id="path6000"
     d="m 151.93511,90.441289 c -31.97518,0 -57.750202,25.709041 -57.750202,57.690031 l 0,142.44403 c 0,30.55228 23.507732,55.34897 53.504832,57.50755 l 0,62.90598 c 0.0194,4.30167 2.88266,8.45581 6.91643,9.94857 4.03379,1.49277 8.95856,0.22325 11.76357,-3.03407 l 59.87386,-69.63994 133.82129,0 c 31.97518,0 57.7502,-25.76921 57.7502,-57.7502 l 0,-142.30815 c 0,-31.97517 -25.7692,-57.750204 -57.7502,-57.750204 l -208.13367,0 m 5.26236,74.570554 219.93043,0 c 5.99438,0 10.7988,4.8646 10.7988,10.85898 0,5.99437 -4.80442,10.79881 -10.7988,10.79881 l -219.93043,0 c -5.99438,0 -10.7988,-4.80444 -10.7988,-10.79881 0,-5.99438 4.80442,-10.85898 10.7988,-10.85898 m 0.0175,47.26587 219.93042,0 c 5.99438,0 10.7988,4.8646 10.7988,10.85898 0,5.99437 -4.80442,10.79881 -10.7988,10.79881 l -219.93042,0 c -5.99439,0 -10.7988,-4.80444 -10.7988,-10.79881 0,-5.99438 4.80441,-10.85898 10.7988,-10.85898 m 0,47.25422 219.93042,0 c 5.99438,0 10.7988,4.8646 10.7988,10.85899 0,5.99437 -4.80442,10.7988 -10.7988,10.7988 l -219.93042,0 c -5.99439,0 -10.7988,-4.80443 -10.7988,-10.7988 0,-5.99439 4.80441,-10.85899 10.7988,-10.85899"
     style="fill:#E3E3E3"
     sodipodi:nodetypes="cssccsccssssccsssssccsssssccsssssc" />
</svg>
