<?xml version="1.0" encoding="UTF-8" standalone="no"?>
<svg
   xmlns:dc="http://purl.org/dc/elements/1.1/"
   xmlns:cc="http://creativecommons.org/ns#"
   xmlns:rdf="http://www.w3.org/1999/02/22-rdf-syntax-ns#"
   xmlns:svg="http://www.w3.org/2000/svg"
   xmlns="http://www.w3.org/2000/svg"
   xmlns:xlink="http://www.w3.org/1999/xlink"
   xmlns:sodipodi="http://sodipodi.sourceforge.net/DTD/sodipodi-0.dtd"
   xmlns:inkscape="http://www.inkscape.org/namespaces/inkscape"
   width="48"
   height="48"
   version="1.1"
   id="svg8"
   sodipodi:docname="transmission.svg"
   inkscape:version="0.92.2 5c3e80d, 2017-08-06">
  <metadata
     id="metadata12">
    <rdf:RDF>
      <cc:Work
         rdf:about="">
        <dc:format>image/svg+xml</dc:format>
        <dc:type
           rdf:resource="http://purl.org/dc/dcmitype/StillImage" />
        <dc:title></dc:title>
      </cc:Work>
    </rdf:RDF>
  </metadata>
  <sodipodi:namedview
     pagecolor="#ffffff"
     bordercolor="#666666"
     borderopacity="1"
     objecttolerance="10"
     gridtolerance="10"
     guidetolerance="10"
     inkscape:pageopacity="0"
     inkscape:pageshadow="2"
     inkscape:window-width="640"
     inkscape:window-height="480"
     id="namedview10"
     showgrid="false"
     inkscape:zoom="4.9166667"
     inkscape:cx="24"
     inkscape:cy="24"
     inkscape:window-x="0"
     inkscape:window-y="27"
     inkscape:window-maximized="0"
     inkscape:current-layer="svg8" />
  <defs
     id="defs5">
    <defs
       id="defs4" />
    <path
       id="path-main"
       d="m 2,9.2867537 0,6.1588153 10.51144,0 0,25.434724 8.142665,0 -0.02961,-6.129206 -3.020188,0 0,-3.049798 3.020188,0 0.02961,-2.339165 -2.931359,0 0,-3.049798 2.931359,0 0,-6.514132 -1.95424,0 0,-3.049798 1.95424,0 0,-1.302827 10.48183,0 0,-1.983849 -2.783311,0 0,-3.049798 2.783311,0 0,-1.1251683 -29.135935,0 z m 35.679677,0.8882903 0,3.020189 3.049798,0 0,-3.020189 -3.049798,0 z m -22.592194,1.776582 3.049798,0 0,3.049798 -3.049798,0 0,-3.049798 z m 10.393002,5.152086 0,3.049798 3.049798,0 0,-3.049798 -3.049798,0 z m 5.981157,0.236878 0,3.049798 3.049798,0 0,-3.049798 -3.049798,0 z m 8.379542,2.161507 0,3.049798 3.049799,0 0,-3.049798 -3.049799,0 z m -18.535666,0.355316 0,3.049798 3.049798,0 0,-3.049798 -3.049798,0 z m 4.885599,0.829072 0,3.049798 3.049798,0 0,-3.049798 -3.049798,0 z m -12.080754,0.473755 3.049799,0 0,3.049798 -3.049799,0 0,-3.049798 z m 16.522208,0.858681 0,3.020188 3.049798,0 0,-3.020188 -3.049798,0 z m -4.79677,4.056527 0,3.049798 3.049798,0 0,-3.049798 -3.049798,0 z m -4.76716,0.355316 0,3.049799 3.049798,0 0,-3.049799 -3.049798,0 z m 14.242261,0.473756 0,3.049798 3.020188,0 0,-3.049798 -3.020188,0 z m -3.790041,4.174966 0,3.020188 3.049798,0 0,-3.020188 -3.049798,0 z m -8.794078,0.97712 0,3.049798 3.049798,0 0,-3.049798 -3.049798,0 z m 20.223419,5.152086 0,3.049798 3.049798,0 0,-3.049798 -3.049798,0 z m -16.492598,0.118439 0,3.049798 3.020189,0 0,-3.049798 -3.020189,0 z m -4.79677,0.829071 0,3.049798 3.049799,0 0,-3.049798 -3.049799,0 z" />
  </defs>
  <use
     id="1"
     style="fill:#E3E3E3"
     xlink:href="#path-main" />
</svg>
