<svg xmlns="http://www.w3.org/2000/svg" width="48" height="48">
<defs>
<defs
     id="defs4291">
  </defs>
  <path
     id="path-main"
   d="m 31.503023,2.0248634 c -7.065472,0 -7.9375,4.75 -7.9375,4.75 l 0.09375,7.0625006 c 0,0 -1.329149,0.316871 -1.21875,1.53125 0.110398,1.214378 1,1.78125 1,1.78125 l -1.21875,3.96875 c -0.07613,0.06022 -0.146111,0.124391 -0.21875,0.1875 -0.954817,-0.592785 -2.217851,-0.809506 -3.46875,-0.6875 -1.510988,0.147374 -2.9569,0.969401 -3.71875,2.4375 -0.241652,-0.0075 -0.350678,0.006 -0.5625,0 l 0,-6.8125 c -0.0087,-0.27948 -0.05719,-0.565998 -0.15625,-0.8125 L 9.5967725,3.6811134 c -0.1820678,-0.4773266 -0.4903602,-0.8148972 -0.875,-0.9375 -0.09616,-0.030651 -0.2156549,-0.028533 -0.3125,-0.03125 -0.2905352,-0.00815 -0.576962,0.1043596 -0.8125,0.34375 -0.1769442,0.1917179 -0.2898249,0.4334746 -0.375,0.71875 l -3.5625,10.9062506 c -0.065269,0.222122 -0.096707,0.447498 -0.09375,0.6875 l -0.0625,27.96875 c -9.379e-4,1.00389 0.6044428,1.832868 1.34375,1.84375 l 8.1250005,0.125 c 0.369653,0.0058 0.726299,-0.205999 0.96875,-0.53125 0.24245,-0.32525 0.374782,-0.779302 0.375,-1.28125 l -0.03125,-12.25 c 1.029282,0.376343 2.448289,0.70948 4,0.53125 -0.01856,0.568513 -0.02297,1.12667 0,1.65625 0.497324,3.914468 0.781476,4.192416 2.875,7.5 -1.413848,0.470237 -2.678293,1.180044 -3.90625,2 -0.275192,0.242017 -0.536043,0.516014 -0.59375,0.90625 -0.05771,0.390236 0.218003,0.789474 0.5625,1 0.611736,0.373839 1.289075,0.424614 1.875,0.28125 0.27631,-0.0676 0.475108,-0.247611 0.71875,-0.375 0.0083,0.05903 -0.05209,0.09375 -0.03125,0.15625 0.152077,0.45623 0.501165,0.630607 0.90625,0.75 0.405084,0.119392 0.893259,0.155957 1.4375,0.09375 0.670637,-0.07664 1.421641,-0.418161 2.125,-0.90625 0.02481,0.194926 0.04391,0.425112 0.25,0.5625 0.506074,0.337384 1.174958,0.4215 1.9375,0.40625 0.762541,-0.01525 1.598123,-0.171795 2.1875,-0.6875 0.867771,-0.7593 1.066727,-1.807007 1.125,-2.1875 0.697928,0.08093 1.458955,0.131456 2.25,0.125 l -0.0625,0.03125 c 0,0 0.491467,0.89569 1.25,1.6875 0.379268,0.395904 0.816781,0.787555 1.34375,1.03125 0.52697,0.243695 1.168783,0.314691 1.78125,0.0625 0.555267,-0.228639 0.938555,-0.589821 1.125,-1 0.04426,-0.09739 0.0075,-0.183455 0.03125,-0.28125 0.708914,0.576954 1.678904,1.091375 3.03125,0.875 0.382111,-0.06114 0.689752,-0.135782 0.9375,-0.28125 0.189495,-0.111262 0.283601,-0.331595 0.375,-0.53125 0.44978,0.214659 0.906214,0.375 1.375,0.375 0.386393,0 0.719059,-0.05105 1.03125,-0.25 0.156094,-0.09947 0.329953,-0.237603 0.40625,-0.4375 0.0763,-0.199898 0.05905,-0.430113 0,-0.625 -0.118114,-0.389775 -0.372106,-0.746712 -0.8125,-1.125 -0.440395,-0.378287 -1.059605,-0.770233 -1.90625,-1.25 -0.609279,-0.345259 -1.224814,-0.700066 -1.65625,-0.96875 1.725005,-1.565123 2.151393,-3.423589 2.6875,-6 0.544476,-2.616632 0.286487,-6.952296 -1.34375,-9.6875 -0.883332,-1.707666 -1.822867,-3.343204 -2.625,-4.84375 l 0.25,-3 c 0,0 0.457964,-0.655908 0.625,-0.96875 0.167034,-0.312842 0.188479,-0.294051 0.25,-0.8125 0.162119,-1.366201 -1.40625,-1.53125 -1.40625,-1.53125 l 0,-6.0937506 c 0,-0.110398 -0.122029,-5.40625 -7.1875,-5.40625 z m 2.71875,4.5625 c 2.461315,-0.1528214 3.206996,3.039273 3,4.2812506 -0.220796,1.324775 -1.75,2.71875 -1.75,2.71875 -0.980572,-0.899959 -1.595005,-1.998444 -3.96875,-2.0625 0,0 -0.651598,-4.2126127 2.21875,-4.8750006 0.179397,-0.0414 0.335912,-0.052312 0.5,-0.0625 z m -6.21875,0.1875 c 0.136704,-0.021563 0.268253,-0.0138 0.40625,0 1.10398,0.1103979 2.293806,0.5420404 2.625,2.75 0.331194,2.2079606 -0.3125,2.2187506 -0.3125,2.2187506 -1.963602,-0.02114 -2.45291,1.036882 -3.3125,1.84375 0,0 -2.097843,-0.867096 -1.65625,-3.40625 0.386392,-2.2217608 1.293073,-3.2553159 2.25,-3.4062506 z m -20.9375005,2.03125 3.0937495,0.15625 2.687501,6.9687506 -2.250001,2.40625 -3.6249995,-0.03125 -2,-2.1875 2.09375,-7.3125006 z m 27.0937505,0.03125 c -0.993582,0.110398 -1.114765,0.973756 -1.09375,1.8750006 1.008699,0.533143 1.40625,1.03125 1.40625,1.03125 0.772786,-0.441592 1,-0.852214 1,-1.625 0,-0.7727866 -0.318918,-1.3916486 -1.3125,-1.2812506 z m -5.53125,0.03125 c 0,0 -1.34375,0.42727 -1.34375,1.5312506 0,1.10398 0.9375,1.46875 0.9375,1.46875 1.157488,-0.929234 1.608351,-0.441871 1.71875,-1.65625 0.110399,-1.2143786 -1.3125,-1.3437506 -1.3125,-1.3437506 z m 2.59375,4.4375006 c 1.922042,0.0961 2.8125,1.625 2.8125,1.625 l 3.09375,-0.15625 c 0,0 1.862568,-0.436829 1.09375,0.8125 -1.324146,1.515505 -3.112068,2.484992 -4.21875,3.90625 -0.3628,0.465926 -0.37966,0.670228 -0.71875,1.25 -0.339091,0.579771 -3.941164,0.979047 -4.53125,-0.3125 -0.224647,-0.173099 -0.17193,-0.636005 -0.3125,-0.8125 -0.784714,-0.98527 -3.04732,-2.591511 -4.0625,-3.15625 -0.759732,-1.166904 0.15668,-1.44938 0.65625,-1.34375 l 3.21875,-0.09375 c 0,0 1.046708,-1.814852 2.96875,-1.71875 z m -12.0625,8.65625 c 1.157463,0.01634 2.246101,0.471282 2.625,0.96875 0.18493,0.242801 0.351871,0.782833 0.34375,1.5 -0.0081,0.717167 -0.155406,1.58093 -0.4375,2.40625 -0.564188,1.650641 -1.66062,3.082728 -2.75,3.375 -1.948127,0.522668 -3.733327,-0.08565 -4.65625,-0.5 l 0,-5.28125 c 0.255828,0.0047 0.412831,0.01628 0.8125,0.03125 l 0.5,0 0.1875,-0.5 c 0.403926,-1.23525 1.545299,-1.839058 2.875,-1.96875 0.166213,-0.01621 0.334648,-0.03358 0.5,-0.03125 z m 11.59375,0.78125 c 8.891625,0.02538 8.807295,16.868079 -0.3125,17.0625 -9.119794,0.194421 -8.579125,-17.087879 0.3125,-17.0625 z m 8.6875,18.28125 c 0.461249,0.313082 1.237469,0.741856 1.96875,1.15625 0.809326,0.458618 1.383109,0.87235 1.75,1.1875 0.336539,0.289078 0.461743,0.475464 0.5,0.5625 -0.06669,0.02909 -0.224245,0.09375 -0.46875,0.09375 -1.296257,-0.29494 -2.307609,-1.237733 -3.40625,-1.9375 l -0.53125,0.8125 c 0.566391,0.446997 1.119909,0.896949 1.6875,1.34375 0.06997,0.192101 -0.427176,0.157381 -0.59375,0.21875 -1.216714,0.194675 -1.986786,-0.248885 -2.53125,-0.78125 -0.40839,-0.327281 -0.587792,-0.820098 -0.84375,-1.25 l -0.875,0.5 c 0.487245,0.440666 0.750622,1.066245 0.4375,1.53125 -0.07231,0.15906 -0.210634,0.342246 -0.59375,0.5 -0.325918,0.134202 -0.64598,0.101217 -1,-0.0625 -0.354021,-0.163716 -0.705055,-0.503246 -1.03125,-0.84375 -0.366341,-0.382414 -0.621969,-0.773764 -0.8125,-1.0625 0.206877,-0.01252 0.412523,-0.01228 0.625,-0.03125 2.446323,-0.218421 4.270677,-0.897695 5.71875,-1.9375 z m -16.09375,0.28125 c 1.456861,-0.02149 2.592443,0.829926 5.4375,1.46875 -0.02916,0.18333 -0.185132,1.044803 -0.8125,1.59375 -0.293807,0.257082 -0.913817,0.425152 -1.53125,0.4375 -0.561868,0.01124 -1.065849,-0.115003 -1.28125,-0.21875 0.01446,-0.06327 0.02496,-0.122088 0.0625,-0.21875 0.320166,-0.606175 0.640953,-1.216837 0.96875,-1.8125 0,-5.4e-5 -0.812423,-0.406308 -0.8125,-0.40625 -0.240624,0.295403 -0.454534,0.642597 -0.6875,0.96875 -0.799473,1.099275 -1.812768,1.528601 -2.65625,1.625 -0.421742,0.0482 -0.812096,0.0113 -1.0625,-0.0625 -0.125203,-0.0369 -0.20623,-0.09531 -0.25,-0.125 0.0084,-0.04705 0.01383,-0.125467 0.0625,-0.21875 0.357216,-0.557849 0.84045,-1.039587 1.28125,-1.53125 l -0.75,-0.65625 c -0.408131,0.480637 -0.874216,0.926487 -1.3125,1.375 -0.365037,0.283219 -0.769291,0.530318 -1.15625,0.625 -0.530207,0.24489 -1.211663,0.06652 -0.9375,-0.46875 0.383611,-0.337366 1.179175,-0.769072 2.03125,-1.15625 1.552217,-0.88592 2.532134,-1.205857 3.40625,-1.21875 z"
/>
</defs>

<use id="1" style="fill:#E3E3E3" xlink:href="#path-main" />



</svg>
