<?xml version="1.0" encoding="UTF-8" standalone="no"?>
<svg
   xmlns:dc="http://purl.org/dc/elements/1.1/"
   xmlns:cc="http://creativecommons.org/ns#"
   xmlns:rdf="http://www.w3.org/1999/02/22-rdf-syntax-ns#"
   xmlns:svg="http://www.w3.org/2000/svg"
   xmlns="http://www.w3.org/2000/svg"
   xmlns:sodipodi="http://sodipodi.sourceforge.net/DTD/sodipodi-0.dtd"
   xmlns:inkscape="http://www.inkscape.org/namespaces/inkscape"
   viewBox="0 0 512 512"
   id="svg2"
   version="1.1"
   inkscape:version="0.91 r"
   sodipodi:docname="umplayer.svg">
  <metadata
     id="metadata49">
    <rdf:RDF>
      <cc:Work
         rdf:about="">
        <dc:format>image/svg+xml</dc:format>
        <dc:type
           rdf:resource="http://purl.org/dc/dcmitype/StillImage" />
      </cc:Work>
    </rdf:RDF>
  </metadata>
  <sodipodi:namedview
     pagecolor="#ffffff"
     bordercolor="#666666"
     borderopacity="1"
     objecttolerance="10"
     gridtolerance="10"
     guidetolerance="10"
     inkscape:pageopacity="0"
     inkscape:pageshadow="2"
     inkscape:window-width="643"
     inkscape:window-height="480"
     id="namedview47"
     showgrid="false"
     inkscape:zoom="0.4609375"
     inkscape:cx="256"
     inkscape:cy="256"
     inkscape:window-x="0"
     inkscape:window-y="0"
     inkscape:window-maximized="0"
     inkscape:current-layer="svg2" />
  <defs
     id="defs4">
    <filter
       id="U">
      <feGaussianBlur
         stdDeviation="4.79818"
         id="feGaussianBlur7" />
    </filter>
    <linearGradient
       id="T"
       x2="402.68"
       gradientUnits="userSpaceOnUse"
       x1="109.47">
      <stop
         stop-color="#de6f42"
         id="stop10" />
      <stop
         stop-color="#a7d138"
         offset="0.5"
         id="stop12" />
      <stop
         stop-color="#69cdbf"
         offset="1"
         id="stop14" />
    </linearGradient>
    <radialGradient
       id="V"
       gradientUnits="userSpaceOnUse"
       cy="183"
       cx="184.91"
       gradientTransform="matrix(.92072.86717-.68562.72796 140.13-110.56)"
       r="218.91">
      <stop
         stop-color="#535353"
         id="stop17" />
      <stop
         stop-color="#282629"
         offset="1"
         id="stop19" />
    </radialGradient>
  </defs>
  <g
     fill-rule="evenodd"
     id="g41"
     style="stroke:none;fill:#E3E3E3;fill-opacity:1">
    <path
       filter="url(#U)"
       d="m253.94 196.22c-31.02-0.289-61.21 26.04-60.31 57.969-0.397 23.09-0.026 46.24-1.531 69.28-0.607 10.491-9.69 20.276-20.688 18.875-9.109-0.342-17.256-8.092-16.938-17.5-1.875-42.704-0.891-85.51-1.781-128.25h-45.25c0.993 44.21-0.036 88.55 0.625 132.69 3.663 30.2 30.404 56 61.13 56.781 28.667 1.776 59.37-16.738 65.5-45.813 3.434-19.445 1.481-39.33 2.226-58.968 0.011-13.205-1.835-29.724 9.649-38.875 9.818-7.867 25.465-1.474 28.344 10.313 2.349 10.122 0.694 20.778 1.56 31.12 0.639 34.32 0.475 68.65 1 102.97h43.16c0.831-44.47-1.728-89.12 2.094-133.47 5.179-14.15 28.518-17.292 35.03-2.781 4.902 11.559 1.579 24.529 3.01 36.718 0.576 33.17 0.14 66.36 0.338 99.53h43.47c-0.988-48.669 2.091-97.53-2.188-146.06-6.309-26.26-33.617-43.47-59.844-43.781-15.576-0.413-31.05 5.059-43.531 13.719-12.244-10.361-29.05-14.807-45.06-14.469"
       fill="url(#T)"
       id="path43"
       style="stroke:none;fill:#E3E3E3;fill-opacity:1" />
    <path
       d="m254.01 202.21c-2.207 0.062-4.4 0.254-6.552 0.546-18.299 2.483-33.494 12.631-42.04 28.06-7.837 16.818-5.312 15.687-6.06 53.891-0.833 42.478-1.082 44.868-4.859 50.943-5.468 8.793-11.938 12.581-21.677 12.722-8.865 0.129-14.953-3.268-21.404-11.903-3.463-4.637-3.616-7.31-4.095-69.34l-0.546-64.54h-33.252l0.546 66.886c0 57.41-3.483 57.57 6.279 78.57 13.168 26.736 44.52 38.698 74.04 28.28 9.422-3.324 21.409-12.198 26.645-19.766 8.825-12.754 9.774-18.553 9.774-61.21 0-37.618 0.196-39.975 3.931-47.28 5.437-10.641 11.791-14.906 22.277-14.906 9.781 0 16.378 4.05 21.84 13.323 3.295 5.595 3.498 9.554 3.986 70.11l0.546 64.21h31.286v-60.716c0.006-34.455 0.771-63.37 1.747-66.886 4.207-12.465 15.931-18.266 24.461-18.291 12.11 0.428 20.857 6.275 24.461 18.291 0.976 3.514 1.687 32.431 1.693 66.886l0.055 60.716h31.45v-66.941c0-74.72-0.312-76.85-11.739-90.2-17.409-20.339-46.527-26.49-71.47-15.07-5.606 2.567-11.605 5.926-13.323 7.48-2.89 2.616-3.422 2.553-7.04-0.764-9.265-8.488-25.501-13.537-40.951-13.1"
       fill="#E3E3E3"
       id="path45"
       style="stroke:none;fill:#E3E3E3;fill-opacity:1" />
  </g>
</svg>
