<?xml version="1.0" encoding="UTF-8" standalone="no"?>
<svg
   xmlns:dc="http://purl.org/dc/elements/1.1/"
   xmlns:cc="http://creativecommons.org/ns#"
   xmlns:rdf="http://www.w3.org/1999/02/22-rdf-syntax-ns#"
   xmlns:svg="http://www.w3.org/2000/svg"
   xmlns="http://www.w3.org/2000/svg"
   xmlns:sodipodi="http://sodipodi.sourceforge.net/DTD/sodipodi-0.dtd"
   xmlns:inkscape="http://www.inkscape.org/namespaces/inkscape"
   height="512"
   viewBox="0 0 512 512"
   width="512"
   version="1.1"
   id="svg2"
   inkscape:version="0.91 r"
   sodipodi:docname="phpstorm.svg">
  <defs
     id="defs17" />
  <sodipodi:namedview
     pagecolor="#ffffff"
     bordercolor="#666666"
     borderopacity="1"
     objecttolerance="10"
     gridtolerance="10"
     guidetolerance="10"
     inkscape:pageopacity="0"
     inkscape:pageshadow="2"
     inkscape:window-width="640"
     inkscape:window-height="480"
     id="namedview15"
     showgrid="false"
     inkscape:zoom="0.4609375"
     inkscape:cx="256"
     inkscape:cy="256"
     inkscape:window-x="0"
     inkscape:window-y="0"
     inkscape:window-maximized="0"
     inkscape:current-layer="svg2" />
  <metadata
     id="metadata74">
    <rdf:RDF>
      <cc:Work
         rdf:about="">
        <dc:format>image/svg+xml</dc:format>
        <dc:type
           rdf:resource="http://purl.org/dc/dcmitype/StillImage" />
      </cc:Work>
    </rdf:RDF>
  </metadata>
  <g
     id="g64"
     fill="#E3E3E3">
    <path
       id="path66"
       d="m388.35 137.85h-72.03c-9.397 13.938-15.869 22.521-20.964 33.389-12.854 21.21-10.02 51.04 0.306 73.04 5.813 14.898 18.824 23.381 28.37 33.97 4.714 4.905 7.564 10.65 8.962 16.704 2.218 9.605 0.782 19.987-2.663 29.03-9.12 20.412-24.534 33.81-40.3 50.786h76.47c11.146-13.945 19.15-31.877 23.63-46.888 3.45-11.77 5.198-23.582 4.089-34.03-1.443-10.992-5.303-21.441-10.972-29.519-11.248-15.451-28.323-29.07-34.975-41.584-3.777-7.643-3.999-15.663-1.665-26.692 5.415-24.551 26.818-36.16 41.741-58.2" />
    <path
       id="path68"
       d="m142.03 179.16c-15.12 0-27.28 12.16-27.28 27.28v99.13c0 15.12 12.16 27.28 27.28 27.28h165.69c1.663-2.825 3.202-5.761 4.594-8.875 3.445-9.04 4.906-19.427 2.688-29.03-1.398-6.05-4.255-11.782-8.969-16.688-9.546-10.589-22.562-19.07-28.375-33.969-9.1-19.379-12.381-44.841-4.25-65.12h-131.37m36.813 28.844h11.438v14.875c0 1.156-0.075 3.876-0.25 8.156l-0.281 4.219h0.625c2.55-5.124 6.575-7.687 12.13-7.688 4.925 0 8.669 1.657 11.219 4.969s3.844 8.06 3.844 14.25v34.16h-11.438v-30.594c0-7.561-2.25-11.344-6.75-11.344-3.2 0-5.513 1.344-6.938 4.063-1.425 2.718-2.156 7.126-2.156 13.219v24.656h-11.438v-72.938m-25.25 19.563c4.95 0 8.794 2.376 11.594 7.156 2.8 4.781 4.219 11.439 4.219 19.938 0 5.593-0.675 10.438-2 14.563-1.3 4.124-3.169 7.25-5.594 9.406s-5.256 3.25-8.531 3.25c-4.925 0-8.794-2.251-11.594-6.719h-0.594c0.4 4.374 0.594 6.906 0.594 7.594v21.25h-11.438v-75.47h9.313l1.594 6.813h0.531c2.675-5.187 6.657-7.781 11.906-7.781m99.13 0c4.95 0 8.825 2.376 11.625 7.156 2.8 4.781 4.187 11.439 4.188 19.938 0 5.593-0.644 10.438-1.969 14.563-1.3 4.124-3.169 7.25-5.594 9.406s-5.256 3.25-8.531 3.25c-4.925 0-8.794-2.251-11.594-6.719h-0.594c0.4 4.374 0.594 6.906 0.594 7.594v21.25h-11.438v-75.47h9.281l1.625 6.813h0.531c2.675-5.187 6.625-7.781 11.875-7.781m-102.81 11.438c-2.825 0-4.888 1.094-6.188 3.281-1.3 2.156-1.981 5.72-2.031 10.719v1.563c0 5.624 0.675 9.625 2 12.06 1.35 2.437 3.475 3.656 6.375 3.656 5.125 0 7.687-5.252 7.688-15.813 0-5.155-0.631-9.03-1.906-11.594-1.25-2.593-3.238-3.875-5.938-3.875m99.16 0c-2.825 0-4.888 1.094-6.188 3.281-1.3 2.156-1.981 5.72-2.031 10.719v1.563c0 5.624 0.644 9.625 1.969 12.06 1.35 2.437 3.475 3.656 6.375 3.656 5.125 0 7.687-5.252 7.688-15.813 0-5.155-0.631-9.03-1.906-11.594-1.25-2.593-3.206-3.875-5.906-3.875" />
  </g>
</svg>
