<?xml version="1.0" encoding="UTF-8" standalone="no"?>
<svg
   xmlns:dc="http://purl.org/dc/elements/1.1/"
   xmlns:cc="http://creativecommons.org/ns#"
   xmlns:rdf="http://www.w3.org/1999/02/22-rdf-syntax-ns#"
   xmlns:svg="http://www.w3.org/2000/svg"
   xmlns="http://www.w3.org/2000/svg"
   xmlns:sodipodi="http://sodipodi.sourceforge.net/DTD/sodipodi-0.dtd"
   xmlns:inkscape="http://www.inkscape.org/namespaces/inkscape"
   height="512"
   viewBox="0 0 512 512"
   width="512"
   version="1.1"
   id="svg2"
   inkscape:version="0.91 r"
   sodipodi:docname="wicd.svg">
  <defs
     id="defs16" />
  <sodipodi:namedview
     pagecolor="#ffffff"
     bordercolor="#666666"
     borderopacity="1"
     objecttolerance="10"
     gridtolerance="10"
     guidetolerance="10"
     inkscape:pageopacity="0"
     inkscape:pageshadow="2"
     inkscape:window-width="647"
     inkscape:window-height="480"
     id="namedview14"
     showgrid="false"
     inkscape:zoom="0.4609375"
     inkscape:cx="263.59322"
     inkscape:cy="256"
     inkscape:window-x="0"
     inkscape:window-y="0"
     inkscape:window-maximized="0"
     inkscape:current-layer="svg2" />
  <metadata
     id="metadata72">
    <rdf:RDF>
      <cc:Work
         rdf:about="">
        <dc:format>image/svg+xml</dc:format>
        <dc:type
           rdf:resource="http://purl.org/dc/dcmitype/StillImage" />
      </cc:Work>
    </rdf:RDF>
  </metadata>
  <path
     id="path66"
     fill="#E3E3E3"
     d="m337.22 136.68-21.285 20.838c33.24 32.476 33.483 84.92 0.198 117.44l21.285 20.838c44.812-43.783 44.553-115.39-0.198-159.11m-162.44 0.198c-44.812 43.784-44.95 114.99-0.198 158.72l21.285-20.838c-33.24-32.476-33.09-84.57 0.198-117.09l-21.28-20.79m125.77 35.971-11.709 11.461c18.225 17.916 18.349 46.856 0.099 64.797l11.709 11.511c24.57-24.15 24.438-63.65-0.099-87.77m-89.11 0.099c-24.57 24.15-24.636 63.45-0.099 87.57l11.709-11.511c-18.225-17.916-18.15-46.658 0.099-64.6l-11.71-11.47m44.554 25.601c-9.764 0-17.663 7.899-17.663 17.663 0 6.544 3.547 12.274 8.831 15.331l0.149 126.12h-62.02v17.663h141.4v-17.663h-61.87l-0.149-126.02c5.371-3.034 8.98-8.822 8.98-15.43 0-9.764-7.899-17.663-17.663-17.663"
     color="#000000" />
</svg>
