<svg xmlns="http://www.w3.org/2000/svg" width="48" height="48">
<defs>
<defs
     id="defs2385">
  </defs>
  <path
     d="M 11.1875 4.0625 C 10.593033 4.0702467 10.027178 4.0866493 9.53125 4.15625 C 8.5227496 4.2599012 7.53407 4.5160497 6.75 4.75 C 5.96593 4.9839505 5.7129822 5.5472342 5.71875 6.03125 C 5.8365577 12.692233 5.7729521 23.825442 5.875 25 C 5.9794428 26.202121 6.3437509 26.678161 6.6875 26.8125 C 7.1339387 27.012497 7.422759 26.768042 7.8125 26.625 C 8.4237894 26.35942 12.100972 24.969783 17.4375 27.21875 C 18.63794 27.72465 19.721526 28.166879 20.75 28.53125 C 21.684445 28.413597 22.729693 28.671281 23.6875 29.21875 L 24.4375 28.4375 L 22.875 26.875 C 21.947367 26.584816 20.95445 26.218759 19.84375 25.78125 C 18.388975 26.04071 16.878743 25.532913 15.71875 24.40625 C 12.375109 23.555601 9.6849239 23.907866 8.125 24.3125 L 8.0625 16.96875 C 8.4780242 16.794448 9.1355138 16.522426 10.25 16.375 C 10.918253 16.286602 11.716152 16.274936 12.59375 16.34375 C 12.796786 15.974309 13.040295 15.629207 13.34375 15.3125 L 13.71875 14.9375 L 14.09375 15.34375 C 14.590009 15.874617 15.109153 16.390148 15.625 16.90625 C 16.129729 17.058657 16.64976 17.245529 17.1875 17.46875 L 17.21875 18.5 C 17.606249 18.88355 17.990521 19.264821 18.375 19.65625 L 19.4375 19.65625 L 19.40625 18.3125 C 19.829946 18.47854 20.224506 18.632352 20.625 18.78125 L 20.625 17.40625 L 17.125 13.9375 L 17.15625 15.09375 C 13.051438 13.646434 9.7961459 14.19784 8.03125 14.71875 L 7.9375 6.8125 C 8.3425774 6.6563982 8.9261801 6.4725257 9.84375 6.34375 C 10.664335 6.2285856 11.682116 6.2058583 12.84375 6.34375 C 14.005385 6.4816417 15.323284 6.7918209 16.78125 7.40625 C 16.87411 7.445386 16.939333 7.461597 17.03125 7.5 L 17.09375 11.71875 C 17.762081 11.306085 18.524553 11.084457 19.28125 11.03125 L 19.25 8.34375 C 21.281351 9.1088654 23.159438 9.7306015 24.78125 9.96875 C 26.352533 10.199478 27.770503 10.119431 29.0625 9.6875 L 29.1875 17.4375 C 28.484857 17.809666 27.71742 18.001107 26.78125 18 C 26.799401 18.741658 26.602098 19.463455 26.25 20.15625 C 27.295146 20.221394 28.274469 20.164261 29.1875 19.875 L 29.25 23.4375 L 29.34375 23.53125 L 31.4375 21.40625 L 31.375 18.34375 C 31.375234 18.33066 31.375234 18.32559 31.375 18.3125 C 31.39857 18.182633 31.39857 18.036116 31.375 17.90625 L 31.25 7.9375 C 31.245359 7.5344498 31.012584 7.1571566 30.65625 6.96875 C 30.299916 6.7803435 29.866957 6.8081541 29.53125 7.03125 C 28.162204 7.9584895 26.675869 7.9677366 25.09375 7.8125 C 23.159177 7.5284257 20.693072 6.6679742 17.625 5.375 C 15.97884 4.6812606 14.455495 4.318147 13.09375 4.15625 C 12.412878 4.0753015 11.781967 4.0547533 11.1875 4.0625 z M 40.46875 11.5625 L 37.625 14.8125 L 37.125 16.6875 L 37.0625 16.84375 L 36.96875 16.9375 L 29.5625 24.4375 L 29.1875 24.8125 L 28.84375 24.4375 L 25.03125 20.65625 L 24.71875 20.3125 L 25 19.96875 C 26.062131 18.482872 25.776399 16.564711 24.40625 15.1875 L 22.1875 12.96875 C 20.842969 11.617289 18.831998 11.555238 17.34375 12.625 L 21.375 16.625 L 21.53125 16.78125 L 21.53125 17 L 21.53125 18.78125 L 21.53125 19 L 21.375 19.15625 L 20.1875 20.34375 L 20.03125 20.5 L 19.8125 20.5 L 18 20.5 L 17.78125 20.5 L 17.625 20.34375 C 16.309547 18.997568 14.944216 17.692067 13.625 16.3125 C 12.566485 17.809435 12.629867 19.841713 13.96875 21.1875 L 16.21875 23.40625 C 17.590654 24.785224 19.489186 25.068549 20.96875 24 L 21.3125 23.75 L 21.625 24.0625 L 25.40625 27.875 L 25.78125 28.21875 L 25.40625 28.59375 L 24.0625 29.96875 L 23.75 30.28125 L 23.40625 30.03125 C 22.026175 29.068947 20.505292 29.026537 19.71875 29.8125 L 13.4375 36.125 C 12.97504 36.587123 12.782503 37.265784 12.90625 38.0625 C 13.029997 38.859216 13.472631 39.754431 14.21875 40.5 L 14.84375 41.09375 C 15.589036 41.838486 16.477298 42.282198 17.28125 42.40625 C 18.085202 42.530302 18.757488 42.33592 19.21875 41.875 L 25.5 35.625 C 26.252428 34.873128 26.259066 33.428465 25.40625 32.09375 L 25.15625 31.75 L 25.46875 31.4375 L 26.84375 30.0625 L 27.21875 29.6875 L 27.59375 30.0625 L 37.65625 40.15625 C 38.207456 40.710296 39.011297 40.710296 39.5625 40.15625 L 41.0625 38.6875 C 41.611625 38.135546 41.611625 37.270704 41.0625 36.71875 L 31 26.625 L 30.625 26.25 L 31 25.875 L 38.4375 18.375 L 38.5625 18.25 L 38.75 18.21875 L 40.21875 18.0625 L 43.78125 14.90625 L 40.46875 11.5625 z "
     id="path-main" />
  <g
     style="fill:#E3E3E3;fill-opacity:1;stroke:#E3E3E3;stroke-width:1;stroke-opacity:1"
     transform="matrix(0.97379526,0,0,0.97379526,2.9465413,2.6837674)"
     id="g4362" />
  <g
     style="fill:#E3E3E3;fill-opacity:1;stroke:#E3E3E3;stroke-width:1;stroke-opacity:1"
     transform="matrix(0.84256924,0,0,0.84194787,6.7889302,6.3593295)"
     id="g4364" />
</defs>

<use id="1" style="fill:#E3E3E3" xlink:href="#path-main" />



</svg>
