<?xml version='1.0' encoding='UTF-8' standalone='no'?>
<!-- Created with Inkscape (http://www.inkscape.org/) -->

<svg xmlns:cc='http://creativecommons.org/ns#' xmlns:dc='http://purl.org/dc/elements/1.1/' sodipodi:docname='display-brightness-symbolic.svg' height='16' id='svg7384' xmlns:inkscape='http://www.inkscape.org/namespaces/inkscape' xmlns:rdf='http://www.w3.org/1999/02/22-rdf-syntax-ns#' xmlns:sodipodi='http://sodipodi.sourceforge.net/DTD/sodipodi-0.dtd' xmlns:svg='http://www.w3.org/2000/svg' inkscape:version='0.48.4 r9939' version='1.1' width='16' xmlns='http://www.w3.org/2000/svg'>
  <metadata id='metadata90'>
    <rdf:RDF>
      <cc:Work rdf:about=''>
        <dc:format>image/svg+xml</dc:format>
        <dc:type rdf:resource='http://purl.org/dc/dcmitype/StillImage'/>
        <dc:title>Gnome Symbolic Icon Theme</dc:title>
      </cc:Work>
    </rdf:RDF>
  </metadata>
  <sodipodi:namedview inkscape:bbox-nodes='false' inkscape:bbox-paths='true' bordercolor='#666666' borderopacity='1' inkscape:current-layer='layer9' inkscape:cx='524.57352' inkscape:cy='-152.42645' gridtolerance='10' inkscape:guide-bbox='true' guidetolerance='10' id='namedview88' inkscape:object-nodes='false' inkscape:object-paths='false' objecttolerance='10' pagecolor='#3a3b39' inkscape:pageopacity='1' inkscape:pageshadow='2' showborder='false' showgrid='false' showguides='true' inkscape:snap-bbox='true' inkscape:snap-bbox-midpoints='false' inkscape:snap-global='true' inkscape:snap-grids='true' inkscape:snap-nodes='true' inkscape:snap-others='false' inkscape:snap-to-guides='true' inkscape:window-height='702' inkscape:window-maximized='1' inkscape:window-width='1366' inkscape:window-x='0' inkscape:window-y='27' inkscape:zoom='1'>
    <inkscape:grid empspacing='2' enabled='true' id='grid4866' originx='160.0002px' originy='100px' snapvisiblegridlinesonly='true' spacingx='1px' spacingy='1px' type='xygrid' visible='true'/>
    <inkscape:grid color='#000000' empcolor='#000000' empopacity='0' empspacing='4' enabled='true' id='grid5968' opacity='0.1254902' originx='160.0002px' originy='100px' snapvisiblegridlinesonly='true' spacingx='0.5px' spacingy='0.5px' type='xygrid' visible='true'/>
  </sodipodi:namedview>
  <title id='title9167'>Gnome Symbolic Icon Theme</title>
  <defs id='defs7386'/>
  <g inkscape:groupmode='layer' id='layer9' inkscape:label='status' style='display:inline' transform='translate(-81,-317)'>

    <rect height='2' id='rect4906-43-6' rx='0.49999836' ry='0.5' style='color:#90A4AE;fill:#E3E3E3;fill-opacity:1;fill-rule:nonzero;stroke:none;stroke-width:2;marker:none;visibility:visible;display:inline;overflow:visible;enable-background:new' width='3.0002' x='81' y='324'/>
    <rect height='2' id='rect4906-4-6-6' rx='0.4998' ry='0.5' style='color:#90A4AE;fill:#E3E3E3;fill-opacity:1;fill-rule:nonzero;stroke:none;stroke-width:2;marker:none;visibility:visible;display:inline;overflow:visible;enable-background:new' width='2.9998' x='94.000198' y='324'/>
    <rect height='2' id='rect8386' rx='0.49999836' ry='0.5' style='color:#90A4AE;fill:#E3E3E3;fill-opacity:1;fill-rule:nonzero;stroke:none;stroke-width:2;marker:none;visibility:visible;display:inline;overflow:visible;enable-background:new' transform='matrix(0.70710678,-0.70710678,0.70710678,0.70710678,0,0)' width='3.0002' x='-174.8772' y='291.74222'/>
    <rect height='2' id='rect8388' rx='0.4998' ry='0.5' style='color:#90A4AE;fill:#E3E3E3;fill-opacity:1;fill-rule:nonzero;stroke:none;stroke-width:2;marker:none;visibility:visible;display:inline;overflow:visible;enable-background:new' transform='matrix(0.70710678,-0.70710678,0.70710678,0.70710678,0,0)' width='2.9998' x='-161.877' y='291.74222'/>
    <rect height='2' id='rect8390' rx='0.49999836' ry='0.5' style='color:#90A4AE;fill:#E3E3E3;fill-opacity:1;fill-rule:nonzero;stroke:none;stroke-width:2;marker:none;visibility:visible;display:inline;overflow:visible;enable-background:new' transform='matrix(0,-1,1,0,0,0)' width='3.0002' x='-333' y='88.000031'/>
    <rect height='2' id='rect8392' rx='0.4998' ry='0.5' style='color:#90A4AE;fill:#E3E3E3;fill-opacity:1;fill-rule:nonzero;stroke:none;stroke-width:2;marker:none;visibility:visible;display:inline;overflow:visible;enable-background:new' transform='matrix(0,-1,1,0,0,0)' width='2.9998' x='-319.99982' y='88.000031'/>
    <rect height='2' id='rect8394' rx='0.49999836' ry='0.5' style='color:#90A4AE;fill:#E3E3E3;fill-opacity:1;fill-rule:nonzero;stroke:none;stroke-width:2;marker:none;visibility:visible;display:inline;overflow:visible;enable-background:new' transform='matrix(-0.70710678,-0.70710678,0.70710678,-0.70710678,0,0)' width='3.0002' x='-300.74222' y='-167.87718'/>
    <rect height='2' id='rect8396' rx='0.4998' ry='0.5' style='color:#90A4AE;fill:#E3E3E3;fill-opacity:1;fill-rule:nonzero;stroke:none;stroke-width:2;marker:none;visibility:visible;display:inline;overflow:visible;enable-background:new' transform='matrix(-0.70710678,-0.70710678,0.70710678,-0.70710678,0,0)' width='2.9998' x='-287.74203' y='-167.87718'/>
    <path inkscape:connector-curvature='0' d='m 88.988538,321.00774 c -2.197297,0 -3.979304,1.78201 -3.979304,3.9793 0,2.1973 1.782007,4.00857 3.979304,4.00857 2.197297,0 4.008564,-1.81127 4.008564,-4.00857 0,-2.19729 -1.811267,-3.9793 -4.008564,-3.9793 z m 0,1.98965 c 1.116415,0 2.018912,0.87324 2.018912,1.98965 0,1.11642 -0.902497,2.01891 -2.018912,2.01891 -1.116415,0 -1.989652,-0.90249 -1.989652,-2.01891 0,-1.11641 0.873237,-1.98965 1.989652,-1.98965 z' id='path32729' style='font-size:medium;font-style:normal;font-variant:normal;font-weight:normal;font-stretch:normal;text-indent:0;text-align:start;text-decoration:none;line-height:normal;letter-spacing:normal;word-spacing:normal;text-transform:none;direction:ltr;block-progression:tb;writing-mode:lr-tb;text-anchor:start;baseline-shift:baseline;color:#000000;fill:#E3E3E3;fill-opacity:1;stroke:none;stroke-width:2.13605189;marker:none;visibility:visible;display:inline;overflow:visible;enable-background:accumulate;font-family:Sans;-inkscape-font-specification:Sans'/>
  </g>
  <g inkscape:groupmode='layer' id='layer10' inkscape:label='devices' style='display:inline' transform='translate(-81,-317)'/>
  <g inkscape:groupmode='layer' id='layer11' inkscape:label='apps' transform='translate(-81,-317)'/>
  <g inkscape:groupmode='layer' id='layer13' inkscape:label='places' style='display:inline' transform='translate(-81,-317)'/>
  <g inkscape:groupmode='layer' id='layer14' inkscape:label='mimetypes' transform='translate(-81,-317)'/>
  <g inkscape:groupmode='layer' id='layer15' inkscape:label='emblems' style='display:inline' transform='translate(-81,-317)'/>
  <g inkscape:groupmode='layer' id='g71291' inkscape:label='emotes' style='display:inline' transform='translate(-81,-317)'/>
  <g inkscape:groupmode='layer' id='g4953' inkscape:label='categories' style='display:inline' transform='translate(-81,-317)'/>
  <g inkscape:groupmode='layer' id='layer12' inkscape:label='actions' style='display:inline' transform='translate(-81,-317)'/>
</svg>
