<svg xmlns="http://www.w3.org/2000/svg" width="48" height="48">
<defs>
  <path
     d="m 21.374672,6.8438004 -0.91179,1.3437 c -1.311934,0.1148 -2.714631,0.3081 -4.150218,0.5625 l -0.220088,-0.2187 -3.584279,0.5625 0.31441,0.4375 C 10.101825,10.2982 7.6041927,11.403 6,13 6.053465,12.947 8.644164,11.4328 13.388646,10.2813 l 0.06288,0.062 -1.634934,0.9062 -0.503057,1.3125 -1.5091702,0 -0.6288209,1.5313 2.3580781,0.031 c 0,0 2.038678,0.8867 5.062009,1.625 l 0.723144,-0.7812 0.974673,1.2187 c 0.658837,0.1668 1.167038,0.2737 2.043668,0.375 l 0.31441,-0.5625 0.848909,-0.375 -0.03144,1.0938 c 0,0 0.633558,0.031 3.112663,0.031 1.480991,0 2.902429,-0.1172 4.18166,-0.3125 l -0.220088,-0.9375 2.735372,0.4063 c 0.703381,-0.1726 1.359777,-0.322 1.949345,-0.5 l -0.125765,-1.625 1.509171,1.1875 c 1.349536,-0.4655 2.137991,-0.8438 2.137991,-0.8438 l 0.754585,-0.875 0.943232,1.375 1.320524,-2.0625 -3.489957,-1.9687 C 40.060739,11.7067 42,12.9991 42,12.9991 39.321341,10.3323 34.491294,9.0291004 30.178166,8.4366004 l -0.314411,-1 -1.037554,0.8125 c -1.673116,-0.178 -3.222833,-0.25 -4.464629,-0.25 -0.701287,0 -1.529166,0.042 -2.420961,0.094 l -0.565939,-1.25 z m 3.018341,2.1562 c 0.216878,0 0.415882,0 0.628821,0 l 0.220087,0.5625 -0.31441,0.7812996 -1.006114,-0.25 -1.037554,0.031 -0.503057,-1.0936996 c 0.65866,-0.026 1.318055,-0.031 2.012227,-0.031 z m -4.621834,0.2188 -0.188646,0.2812 L 17.69607,10.1563 17.09869,9.5625004 c 0.845922,-0.1287 1.738534,-0.2564 2.672489,-0.3437 z m 9.055022,0 c 0.234549,0.022 0.463336,0.037 0.691703,0.062 l -0.09432,0.7187 c 0,0 -0.865119,-0.289 -0.911791,-0.2812 l 0.314411,-0.5 z m 1.697816,0.1875 c 1.757932,0.2338 3.327418,0.5227 4.684717,0.8749996 L 33.165066,11.3125 31.750218,10.625 30.5869,9.6250004 l -0.06288,-0.2187 z m -9.715283,0.125 0.408733,1.1249996 -1.477729,0.1562 1.068996,-1.2811996 z m -4.747599,0.1875 0.28297,0.3436996 -1.006114,0.3438 -0.471615,-0.3438 0.220087,-0.1874996 c 0.313164,-0.062 0.646523,-0.098 0.974672,-0.1562 z M 36.089083,11.125 l 1.19476,0.9375 -1.257642,0.5938 0.06288,-1.5313 z m -23.39214,0.5 0.723144,0.4688 L 13.891703,13 12.634061,12.5625 12.256769,11.9063 12.696943,11.625 z M 6,14 10.464629,43.6563 c 0,0 2.988833,2.3437 13.928384,2.3437 10.939552,0 14.148472,-2.3437 14.148472,-2.3437 L 42,14 c 0,0 -6.150605,4 -17.606987,4 C 12.936633,18 6.0861384,14.0857 6,14 z m 16.978166,7.3125 c 0,0 0.873351,-0.013 1.855022,0 0.98167,0.013 2.071947,0.045 2.483843,0.1563 0.823813,0.2212 1.980799,2.9687 1.980786,2.9687 l 2.70393,-1.9375 -2.295197,5.6563 -5.848035,-0.4375 2.452402,-1.5625 c 0,0 -1.003195,-1.9773 -1.351965,-2.5625 -0.01335,-0.023 -0.862841,-1.9971 -1.980786,-2.2813 z M 21.940611,21.5 c 1.432765,0 2.059423,1.2676 2.672489,2.2813 L 22.632314,27.5938 18.670742,25 c 0,0 1.849123,-3.5 3.269869,-3.5 z m -2.955458,6 1.886463,5.0313 -2.326638,-1.3438 c 0,0 -1.370788,2.2766 -1.697816,2.875 -0.01251,0.024 -1.277944,1.7639 -0.974673,2.9063 0,0 -1.201121,-3.4962 -1.414847,-4.3438 -0.213725,-0.8475 1.383406,-3.0625 1.383406,-3.0625 L 13.577293,27.875 18.985153,27.5 z m 13.991266,1.8438 c 0,0 2.01915,3.4027 1.289083,4.6562 -0.736215,1.2635 -2.140651,1.1678 -3.30131,1.1875 l -2.200873,-3.6562 4.2131,-2.1875 z m -5.533624,3.4687 0.03144,2.8438 c 0,0 2.665329,0.045 3.332751,0.031 0.02555,-2e-4 2.11237,0.2777 2.924017,-0.5625 0,0 -2.536414,3.1057 -3.144104,3.7188 -0.607681,0.6133 -3.269869,0.3437 -3.269869,0.3437 l -0.06288,3 -3.584279,-4.7812 3.772926,-4.5938 z m -6.131005,1.625 -0.251528,4.8125 c 0,0 -3.866704,0.088 -4.558952,-1.1875 -0.698105,-1.2866 0.0353,-2.4555 0.59738,-3.5 l 4.2131,-0.125 z"
     id="path-main" />
</defs>

<use id="1" style="fill:#E3E3E3" xlink:href="#path-main" />



</svg>
