<?xml version='1.0' encoding='UTF-8' standalone='no'?>
<!-- Created with Inkscape (http://www.inkscape.org/) -->

<svg xmlns:cc='http://creativecommons.org/ns#' xmlns:dc='http://purl.org/dc/elements/1.1/' sodipodi:docname='folder-drag-accept-symbolic.svg' inkscape:export-filename='/home/sam/dev/RESOURCES/gnome-icon-theme-symbolic/src/gnome-stencils.png' inkscape:export-xdpi='90' inkscape:export-ydpi='90' height='16' id='svg7384' xmlns:inkscape='http://www.inkscape.org/namespaces/inkscape' xmlns:osb='http://www.openswatchbook.org/uri/2009/osb' xmlns:rdf='http://www.w3.org/1999/02/22-rdf-syntax-ns#' xmlns:sodipodi='http://sodipodi.sourceforge.net/DTD/sodipodi-0.dtd' xmlns:svg='http://www.w3.org/2000/svg' version='1.1' inkscape:version='0.92pre3 r' viewBox='0 0 16.000286 16' width='16.000286' xmlns='http://www.w3.org/2000/svg'>
  <metadata id='metadata90'>
    <rdf:RDF>
      <cc:Work rdf:about=''>
        <dc:format>image/svg+xml</dc:format>
        <dc:type rdf:resource='http://purl.org/dc/dcmitype/StillImage'/>
        <dc:title>Gnome Symbolic Icon Theme</dc:title>
      </cc:Work>
    </rdf:RDF>
  </metadata>
  <sodipodi:namedview inkscape:bbox-nodes='true' inkscape:bbox-paths='true' bordercolor='#666666' borderopacity='1' inkscape:current-layer='layer9' inkscape:cx='394.36077' inkscape:cy='212.81118' inkscape:document-units='px' gridtolerance='10' inkscape:guide-bbox='true' guidetolerance='10' id='namedview88' inkscape:object-nodes='true' inkscape:object-paths='false' objecttolerance='10' pagecolor='#3a3b39' inkscape:pageopacity='1' inkscape:pageshadow='2' showborder='false' showgrid='false' showguides='true' inkscape:snap-bbox='true' inkscape:snap-bbox-midpoints='false' inkscape:snap-global='true' inkscape:snap-grids='true' inkscape:snap-nodes='true' inkscape:snap-others='false' inkscape:snap-to-guides='true' inkscape:window-height='1016' inkscape:window-maximized='1' inkscape:window-width='1920' inkscape:window-x='0' inkscape:window-y='27' inkscape:zoom='1'>
    <inkscape:grid dotted='false' empspacing='2' enabled='true' id='grid4866' originx='160' originy='179.98993' snapvisiblegridlinesonly='true' spacingx='1px' spacingy='1px' type='xygrid' visible='true'/>
  </sodipodi:namedview>
  <title id='title9167'>Gnome Symbolic Icon Theme</title>
  <defs id='defs7386'>
    <linearGradient gradientTransform='matrix(-2.7365795,0.28202934,-0.18908311,-0.99988321,239.54008,-879.45557)' id='linearGradient19282' osb:paint='solid'>
      <stop id='stop19284' offset='0' style='stop-color:#666666;stop-opacity:1;'/>
    </linearGradient>
  </defs>
  <g inkscape:groupmode='layer' id='layer9' inkscape:label='status' style='display:inline' transform='translate(-81.0002,-396.98993)'>

    <path inkscape:connector-curvature='0' d='M 81.0002,398.98993 V 410 c 2e-5,0.83333 0.57399,1.50574 1.0625,1.75 0.48851,0.24436 0.9375,0.25 0.9375,0.25 h 12 c 0,0 0.44899,-0.006 0.9375,-0.25 0.48851,-0.24426 1.07765,-0.91681 1.0625,-1.75 v -3 H 83.96895 l -0.46875,3.03125 c -0.0164,0.2618 -0.26945,0.48511 -0.53125,0.46875 -0.2618,-0.0164 -0.48511,-0.26945 -0.46875,-0.53125 l 0.5,-3.5 c 0.01,-0.22281 0.18713,-0.42714 0.40625,-0.46875 0.0312,-0.003 0.0626,-0.003 0.0937,0 h 11.5 l 5e-5,-5.01007 c 0,-1 -1,-1 -1,-1 l -5,7e-5 -2,-2 c -1.43156,0.002 -5,0 -5,0 0,0 -1,0 -1,1 z' id='path7987' sodipodi:nodetypes='ccccccscccscccccccccccc' style='color:#000000;font-style:normal;font-variant:normal;font-weight:normal;font-stretch:normal;font-size:medium;line-height:normal;font-family:Sans;-inkscape-font-specification:Sans;text-indent:0;text-align:start;text-decoration:none;text-decoration-line:none;letter-spacing:normal;word-spacing:normal;text-transform:none;writing-mode:lr-tb;direction:ltr;baseline-shift:baseline;text-anchor:start;display:inline;overflow:visible;visibility:visible;fill:#E3E3E3;fill-opacity:1;stroke:none;stroke-width:2;marker:none;enable-background:accumulate'/>
  </g>
  <g inkscape:groupmode='layer' id='layer10' inkscape:label='devices' style='display:inline' transform='translate(-81.0002,-396.98993)'/>
  <g inkscape:groupmode='layer' id='layer11' inkscape:label='apps' transform='translate(-81.0002,-396.98993)'/>
  <g inkscape:groupmode='layer' id='layer13' inkscape:label='places' style='display:inline' transform='translate(-81.0002,-396.98993)'/>
  <g inkscape:groupmode='layer' id='layer14' inkscape:label='mimetypes' transform='translate(-81.0002,-396.98993)'/>
  <g inkscape:groupmode='layer' id='layer15' inkscape:label='emblems' style='display:inline' transform='translate(-81.0002,-396.98993)'/>
  <g inkscape:groupmode='layer' id='g71291' inkscape:label='emotes' style='display:inline' transform='translate(-81.0002,-396.98993)'/>
  <g inkscape:groupmode='layer' id='g4953' inkscape:label='categories' style='display:inline' transform='translate(-81.0002,-396.98993)'/>
  <g inkscape:groupmode='layer' id='layer12' inkscape:label='actions' style='display:inline' transform='translate(-81.0002,-396.98993)'/>
</svg>
