<svg xmlns="http://www.w3.org/2000/svg" width="48" height="48">
<defs>
<defs
     id="defs5">
  </defs>
  <path
     d="M 6.2682292,2 C 3.9068041,2 2,3.9068041 2,6.2682292 L 2,26.348958 c 0,2.361425 1.9068041,4.239584 4.2682292,4.239584 l 2.8645833,0 c 1.2617295,2.985512 3.3881035,5.490751 6.0729165,7.247395 l 0,3.895834 C 15.205729,44.093196 17.112533,46 19.473958,46 l 22.257813,0 C 44.093196,46 45.999998,44.093197 46,41.731771 l 0,-20.080729 c 0,-2.361425 -1.906804,-4.239584 -4.268229,-4.239584 l -3.036459,0 c -1.306735,-2.754974 -3.354229,-5.093176 -5.901041,-6.73177 l 0,-4.4114588 C 32.794271,3.9068041 30.887467,2 28.526042,2 L 6.2682292,2 z m 1.5182291,3.2942708 19.2499997,0 c 1.37115,0 2.463542,1.1210375 2.463542,2.4921875 l 0,1.2890627 C 27.795077,8.464295 25.969227,8.101563 24.057292,8.101563 c -1.313889,-1e-6 -2.585648,0.190193 -3.809896,0.486979 l -11.6588543,0 0,10.828125 C 8.0965624,20.96346 7.84375,22.608325 7.84375,24.315104 c 0,1.016423 0.106296,2.014513 0.2864583,2.979167 l -0.34375,0 c -1.3711502,0 -2.4921875,-1.092392 -2.4921875,-2.463542 l 0,-17.0442707 c 0,-1.3711502 1.1210375,-2.4921875 2.4921875,-2.4921875 z M 24.057292,10.794271 c 7.463287,0 13.520833,6.060754 13.520833,13.520833 0,7.460079 -6.054382,13.492189 -13.520833,13.492188 -7.466455,0 -13.520834,-6.032109 -13.520834,-13.492188 0,-7.460079 6.057545,-13.520834 13.520834,-13.520833 z M 14.375,20.21875 l 0,1.346354 0,5.184896 0,1.346354 1.346354,0 16.729167,0 1.346354,0 0,-1.346354 0,-5.184896 0,-1.346354 -1.346354,0 -16.729167,0 -1.346354,0 z m 25.466146,0.486979 0.372396,0 c 1.371149,0 2.492187,1.092392 2.492187,2.463542 l 0,17.044271 c -2e-6,1.371149 -1.121037,2.492187 -2.492187,2.492187 l -19.25,0 C 19.592391,42.705727 18.5,41.584692 18.5,40.213542 l 0,-0.6875 C 20.235809,40.160623 22.104678,40.5 24.057292,40.5 c 2.061192,0 4.027782,-0.385026 5.84375,-1.088542 l 9.510416,0 0,-9.96875 c 0.541035,-1.612542 0.859375,-3.334434 0.859375,-5.127604 0,-1.24109 -0.163903,-2.447218 -0.429687,-3.609375 z"
     id="path-main" />
</defs>

<use id="1" style="fill:#E3E3E3" xlink:href="#path-main" />



</svg>
