<svg xmlns="http://www.w3.org/2000/svg" width="48" height="48">
<defs>
  <path
     d="m 3.09375,22.21875 c -0.1449376,0 -0.2809667,0.0097 -0.40625,0.0625 C 2.5679605,22.33613 2.4656103,22.472105 2.375,22.5625 L 2.3125,22.625 c -0.0674,0.07982 -0.1462791,0.152217 -0.1875,0.25 -0.2010803,0.382754 -0.1422719,0.858543 0.1875,1.1875 l 6,6 0,7.84375 c 0,0.57975 0.48275,1.0625 1.0625,1.0625 0.5797501,0 1.03125,-0.48275 1.03125,-1.0625 l 0,-7.84375 6.03125,-6 c 0.329772,-0.328957 0.388581,-0.804746 0.1875,-1.1875 -0.04122,-0.09778 -0.1201,-0.170185 -0.1875,-0.25 L 16.375,22.5625 c -0.190513,-0.190042 -0.464569,-0.330447 -0.71875,-0.34375 l -0.0625,0 -6.21875,0 -6.21875,0 -0.0625,0 z m 2.5625,2.09375 2.65625,0 0,2.625 -2.65625,-2.625 z m 4.75,0 2.6875,0 -2.6875,2.6875 0,-2.6875 z"
     id="path-main"
     sodipodi:nodetypes="csccscccscccsccccccccccccccc" />
</defs>

<use id="1" style="fill:#E3E3E3" xlink:href="#path-main" />



</svg>
