<svg xmlns="http://www.w3.org/2000/svg" viewBox="0 0 24 24">
 <g transform="translate(0,-1028.8622)">
  <path d="m 10 1045.86 -2 2 c -1 1 -1 1 0 1 l 8 0 c 1 0 1 0 0 -1 l -2 -2 0 -1 -4 0 z" style="fill:#E3E3E3;fill-opacity:1;stroke:none"/>
  <path d="m 6 1032.86 c -1.108 0 -2 0.892 -2 2 l 0 9 c 0 1.108 0.892 2 2 2 l 12 0 c 1.108 0 2 -0.892 2 -2 l 0 -9 c 0 -1.108 -0.892 -2 -2 -2 l -12 0 z m 0 2 12 0 0 9 -12 0 0 -9 z" style="fill:#E3E3E3;fill-opacity:1;stroke:none"/>
  <g transform="translate(0.0534055,0)" style="fill:#E3E3E3;fill-opacity:1;stroke:none">
   <path d="m 9.543 1036.17 4.807 0 0 0.927 -2.487 5.452 -1.602 0 2.354 -5.17 -3.072 0 0 -1.209 z"/>
  </g>
 </g>
</svg>
