<?xml version="1.0" encoding="UTF-8" standalone="no"?>
<svg
   xmlns:dc="http://purl.org/dc/elements/1.1/"
   xmlns:cc="http://creativecommons.org/ns#"
   xmlns:rdf="http://www.w3.org/1999/02/22-rdf-syntax-ns#"
   xmlns:svg="http://www.w3.org/2000/svg"
   xmlns="http://www.w3.org/2000/svg"
   xmlns:xlink="http://www.w3.org/1999/xlink"
   xmlns:sodipodi="http://sodipodi.sourceforge.net/DTD/sodipodi-0.dtd"
   xmlns:inkscape="http://www.inkscape.org/namespaces/inkscape"
   width="48"
   height="48"
   id="svg2"
   version="1.1"
   inkscape:version="0.91 r13725"
   sodipodi:docname="notification-network-ethernet-disconnected.svg">
  <metadata
     id="metadata10">
    <rdf:RDF>
      <cc:Work
         rdf:about="">
        <dc:format>image/svg+xml</dc:format>
        <dc:type
           rdf:resource="http://purl.org/dc/dcmitype/StillImage" />
      </cc:Work>
    </rdf:RDF>
  </metadata>
  <sodipodi:namedview
     pagecolor="#ffffff"
     bordercolor="#666666"
     borderopacity="1"
     objecttolerance="10"
     gridtolerance="10"
     guidetolerance="10"
     inkscape:pageopacity="0"
     inkscape:pageshadow="2"
     inkscape:window-width="1920"
     inkscape:window-height="1019"
     id="namedview8"
     showgrid="false"
     inkscape:zoom="4.8712406"
     inkscape:cx="-39.057066"
     inkscape:cy="-5.9754387"
     inkscape:window-x="0"
     inkscape:window-y="13"
     inkscape:window-maximized="1"
     inkscape:current-layer="svg2" />
  <defs
     id="defs4">
    <defs
       id="defs9589" />
    <path
       id="path-main"
       d="M 5.6953125,2 C 3.663208,1.9999999 2,3.6632243 2,5.6953125 L 2,42.304687 C 2,44.336775 3.6632079,46 5.6953125,46 L 42.304687,46 C 44.335249,45.999999 46,44.336775 46,42.304687 L 46,5.6953125 C 45.999999,3.6637395 44.335689,2 42.304687,2 L 5.6953125,2 z m 0,2.1770833 36.6093745,0 c 0.847912,0 1.518229,0.6675843 1.51823,1.5182292 l 0,36.6093745 c 0,0.851873 -0.669878,1.518229 -1.51823,1.51823 l -36.6093745,0 c -0.852036,0 -1.5182292,-0.666357 -1.5182292,-1.51823 l 0,-36.6093745 c 0,-0.8518722 0.6661934,-1.5182292 1.5182292,-1.5182292 z M 20.333333,13 l 0,1.833333 -5.5,0 0,3.666667 -3.666666,0 0,16.5 25.666666,0 0,-16.5 -3.666666,0 0,-3.666667 -5.5,0 0,-1.833333 -7.333334,0 z m 4.325521,17.101562 1.518229,0 0,2.778646 -1.518229,0 0,-2.778646 z m 2.921875,0 1.518229,0 0,2.778646 -1.518229,0 0,-2.778646 z m 2.921875,0 1.518229,0 0,2.778646 -1.518229,0 0,-2.778646 z m -14.523437,0.114584 1.432291,0 0,2.549479 -1.432291,0 0,-2.549479 z m 2.921875,0 1.403645,0 0,2.549479 -1.403645,0 0,-2.549479 z m 2.921875,0 1.403645,0 0,2.549479 -1.403645,0 0,-2.549479 z" />
  </defs>

    <use
       id="1"
       style="fill:#E3E3E3"
       xlink:href="#path-main" />

</svg>
