<svg xmlns="http://www.w3.org/2000/svg" width="48" height="48">
<defs>
<defs
     id="defs6602">
  </defs>
  <path
     id="path-main"
     d="m 8.1672828,29.214791 c -0.1060077,2.1e-5 -0.2185804,0.06629 -0.2905789,0.145287 l -5.7824207,6.421683 c -0.061999,0.06898 -0.087172,0.167518 -0.087172,0.261516 0,0.04503 -0.016,0.103289 0,0.145287 l 0.8426643,2.266477 C 2.9037843,38.603017 3.0404671,38.6875 3.198464,38.6875 l 41.581126,0 c 0.157988,2e-6 0.29569,-0.08447 0.348689,-0.232459 l 0.842664,-2.266477 c 0.01501,-0.042 0.02906,-0.100288 0.02906,-0.145287 0,-0.09397 -0.02517,-0.191518 -0.08717,-0.261516 l -5.811478,-6.421683 c -0.07101,-0.07898 -0.184576,-0.145287 -0.290574,-0.145287 l -31.6434982,0 z m 0.8426593,1.452866 20.3692309,3e-6 1.365697,3.196313 -24.4082078,-0.02906 2.6732799,-3.167256 z m 21.2990679,0 8.630045,3e-6 2.789509,3.196313 -9.90857,-0.02906 -1.510984,-3.167256 z"/>
</defs>

<use id="1" style="fill:#E3E3E3" xlink:href="#path-main" />



</svg>
