<?xml version='1.0' encoding='UTF-8'?>
<!-- Created with Inkscape (http://www.inkscape.org/) -->

<svg sodipodi:docname='security-low-symbolic.svg' xmlns:dc='http://purl.org/dc/elements/1.1/' version='1.1' inkscape:version='0.48.1 r9760' xmlns:rdf='http://www.w3.org/1999/02/22-rdf-syntax-ns#' xmlns='http://www.w3.org/2000/svg' height='16' id='svg7384' xmlns:cc='http://creativecommons.org/ns#' width='16' xmlns:sodipodi='http://sodipodi.sourceforge.net/DTD/sodipodi-0.dtd' xmlns:inkscape='http://www.inkscape.org/namespaces/inkscape' xmlns:svg='http://www.w3.org/2000/svg'>
  <metadata id='metadata90'>
    <rdf:RDF>
      <cc:Work rdf:about=''>
        <dc:format>image/svg+xml</dc:format>
        <dc:type rdf:resource='http://purl.org/dc/dcmitype/StillImage'/>
        <dc:title>Gnome Symbolic Icon Theme</dc:title>
      </cc:Work>
    </rdf:RDF>
  </metadata>
  <sodipodi:namedview inkscape:object-paths='false' inkscape:snap-bbox-midpoints='false' inkscape:zoom='1' bordercolor='#666666' gridtolerance='10' guidetolerance='10' inkscape:guide-bbox='true' inkscape:window-maximized='0' inkscape:snap-nodes='true' pagecolor='#555753' objecttolerance='10' inkscape:snap-to-guides='true' inkscape:snap-grids='true' inkscape:current-layer='layer9' inkscape:pageshadow='2' id='namedview88' showgrid='false' inkscape:window-width='1226' inkscape:bbox-paths='false' inkscape:cx='37.801651' inkscape:cy='4.934493' inkscape:pageopacity='1' inkscape:window-height='967' inkscape:snap-others='false' inkscape:snap-bbox='true' inkscape:object-nodes='false' showguides='true' showborder='false' inkscape:window-x='2259' inkscape:window-y='356' borderopacity='1' inkscape:snap-global='true'>
    <inkscape:grid snapvisiblegridlinesonly='true' type='xygrid' visible='true' id='grid4866' enabled='true' empspacing='2' spacingx='1px' spacingy='1px'/>
  </sodipodi:namedview>
  <title id='title9167'>Gnome Symbolic Icon Theme</title>
  <defs id='defs7386'/>
  <g id='layer9' transform='translate(-280.99995,-217)' inkscape:groupmode='layer' inkscape:label='status' style='display:inline'>

    <path d='m 283,218 0,1 0,6 c 0,2.07167 1.5096,3.68102 2.84375,4.875 1.33415,1.19398 2.65625,2 2.65625,2 l 0.5,0.28125 0.53125,-0.3125 c 0,0 1.29429,-0.79757 2.625,-2 C 293.48696,228.64132 295,227.0443 295,225 l 0,-6 0,-1 -1,0 -10,0 -1,0 z m 2,2 8,0 0,5 c 0,0.91968 -0.98696,2.31843 -2.15625,3.375 -0.90589,0.81857 -1.47889,1.139 -1.84375,1.375 -0.35377,-0.22243 -0.92859,-0.52475 -1.84375,-1.34375 C 285.9904,227.3629 285,225.97901 285,225 l 0,-5 z' id='path339' inkscape:connector-curvature='0' style='font-size:medium;font-style:normal;font-variant:normal;font-weight:normal;font-stretch:normal;text-indent:0;text-align:start;text-decoration:none;line-height:normal;letter-spacing:normal;word-spacing:normal;text-transform:none;direction:ltr;block-progression:tb;writing-mode:lr-tb;text-anchor:start;baseline-shift:baseline;color:#90A4AE;fill:#E3E3E3;fill-opacity:1;stroke:none;stroke-width:2;marker:none;visibility:visible;display:inline;overflow:visible;enable-background:accumulate;font-family:Sans;-inkscape-font-specification:Sans'/>
  </g>
  <g id='layer10' transform='translate(-280.99995,-217)' inkscape:groupmode='layer' inkscape:label='devices'/>
  <g id='layer11' transform='translate(-280.99995,-217)' inkscape:groupmode='layer' inkscape:label='apps'/>
  <g id='layer13' transform='translate(-280.99995,-217)' inkscape:groupmode='layer' inkscape:label='places'/>
  <g id='layer14' transform='translate(-280.99995,-217)' inkscape:groupmode='layer' inkscape:label='mimetypes'/>
  <g id='layer15' transform='translate(-280.99995,-217)' inkscape:groupmode='layer' inkscape:label='emblems' style='display:inline'/>
  <g transform='translate(-280.99995,-217)' id='g71291' inkscape:groupmode='layer' inkscape:label='emotes' style='display:inline'/>
  <g id='g4953' transform='translate(-280.99995,-217)' inkscape:groupmode='layer' inkscape:label='categories' style='display:inline'/>
  <g id='layer12' transform='translate(-280.99995,-217)' inkscape:groupmode='layer' inkscape:label='actions' style='display:inline'/>
</svg>
