<svg xmlns="http://www.w3.org/2000/svg" width="48" height="48">
<defs>
  <path
     d="m 23.999997,5.6216323 c -7.111158,0 -12.48171,1.8047209 -16.0107456,3.6388058 -3.5290359,1.8340849 -5.4177776,3.8005309 -5.4177776,3.8005309 -0.7834199,0.846762 -0.7659823,2.370299 0.080862,3.153632 0.8468449,0.783332 2.3703887,0.685203 3.1536318,-0.161725 0,0 1.2276114,-1.363741 4.2048424,-2.911045 2.977231,-1.547304 7.613273,-3.1536317 13.989187,-3.1536317 1.790701,0 3.42091,0.1052637 4.932604,0.3234497 0.402497,-2.903647 0.494259,-2.5067332 2.587595,-2.5067332 l 5.175191,0 C 33.406118,6.5642803 29.191583,5.6216323 23.999997,5.6216323 z m 16.81937,4.12398 0,0.6468987 0,4.528292 c 0.895,0.655906 1.37466,1.132073 1.37466,1.132073 0.783241,0.846928 2.306786,0.945057 3.153631,0.161725 0.846845,-0.783333 0.864296,-2.30687 0.08086,-3.153632 0,0 -1.661591,-1.646464 -4.609154,-3.3153567 z m -9.299171,0.6468987 0,16.81937 1.698109,6.711575 3.315357,0 1.698109,-6.711575 0,-16.81937 -6.711575,0 z m -7.520199,5.336915 c -5.110709,-0.09169 -8.971294,1.192455 -11.563316,2.506733 -2.5920227,1.314279 -4.0431178,2.74932 -4.0431178,2.74932 -0.8045144,0.846775 -0.7659525,2.349157 0.080862,3.153632 0.8468147,0.804473 2.3491988,0.76599 3.1536318,-0.08086 0,0 0.797315,-0.909936 2.830182,-1.940697 2.032868,-1.030761 5.182585,-2.099761 9.541758,-2.021559 1.880085,0.03372 3.501376,0.252446 4.932604,0.566037 l 0,-4.447429 c -1.500813,-0.281352 -3.11819,-0.452625 -4.932604,-0.485175 z m -0.161725,10.350382 c -3.444467,0.03545 -5.945919,0.756077 -7.601061,1.536384 -1.655141,0.780308 -2.587595,1.778972 -2.587595,1.778972 -0.78342,0.846762 -0.765983,2.370299 0.08086,3.153632 0.846845,0.783332 2.370389,0.685203 3.153632,-0.161725 0,0 0.215565,-0.300298 1.293798,-0.808623 1.078232,-0.508326 2.883186,-1.10266 5.741227,-1.132073 2.79386,-0.02877 4.663695,0.60004 5.822089,1.132073 0.129199,0.05933 0.134038,0.106971 0.242587,0.161724 l -0.970348,-3.962255 -0.08086,-0.323449 0,-0.242587 0,-0.566037 c -1.424756,-0.348471 -3.105544,-0.586507 -5.094329,-0.566036 z m -2.587595,10.188656 c -1.49977,0 -2.668458,1.159243 -2.668458,2.587595 0,0.530812 0.116088,1.044726 0.404312,1.455523 l 3.234494,3.072769 c 0.476273,0.392029 1.100543,0.646899 1.778972,0.646899 0.805035,0 1.523902,-0.359135 2.021559,-0.889486 l 2.830182,-2.74932 c 0.03708,-0.04694 0.04668,-0.112741 0.08086,-0.161725 l 0,-2.74932 C 28.462882,36.768395 27.70652,36.268464 26.749314,36.268464 l -5.49864,0 z m 10.269519,0.970348 0,6.711576 6.711575,0 0,-6.711576 -6.711575,0 z"
     id="path-main" />
</defs>

<use id="1" style="fill:#E3E3E3" xlink:href="#path-main" />



</svg>
