<svg xmlns="http://www.w3.org/2000/svg" width="48" height="48">
<defs>
<defs
     id="defs4">
  </defs>
  <path
     id="path-main"
     d="m 22.814059,2 c -2.671908,0 -4.160841,0.2282815 -5.1483,0.5986395 -0.987459,0.3703579 -1.437211,0.8977384 -1.885714,1.3170068 l -0.29932,0.2693877 c -0.03991,0.035185 -0.06424,0.075296 -0.0898,0.1197279 l -5.7170074,0 c -0.8632335,1e-7 -1.616326,0.6626247 -1.616326,1.5265306 l 0,5.2979595 -2.8136055,2.634013 c -0.098465,0.09316 -0.1528464,0.223673 -0.1496598,0.359184 l 0,2.304762 c -3.801e-4,0.0093 -1.665e-4,0.02049 0,0.02993 l 0,21.072109 c 0,1.004219 0.8216316,1.825854 1.8258503,1.82585 l 10.3863954,0 7.004085,6.6449 0,-5.268027 7.183674,0 c 2.885383,0 5.682077,-0.08972 7.931972,-1.526531 0.04365,-0.01854 0.07787,-0.03809 0.119728,-0.05986 0.167431,-0.08709 0.316606,-0.196877 0.44898,-0.329251 0.0097,-0.0097 0.02045,-0.02002 0.02993,-0.02993 2.652515,-2.083327 4.4,-6.390477 4.4,-15.295239 l -2.873469,0 c 0,3.260432 -0.372659,5.436154 -1.017688,6.884354 l 0,-13.918367 c -10e-7,-0.01072 6.95e-4,-0.01939 0,-0.02993 l 0,-2.304762 c 0.0032,-0.135511 -0.05119,-0.266027 -0.149659,-0.359184 l -2.813606,-2.634013 0,-5.2979595 c 0,-0.8639054 -0.753092,-1.5265306 -1.616326,-1.5265306 l -5.717007,0 c -0.02556,-0.044431 -0.04988,-0.084543 -0.0898,-0.1197279 L 29.848072,3.9156463 C 29.398249,3.4951444 28.951883,2.968649 27.962358,2.5986395 26.972833,2.2286299 25.475205,1.999999 22.814059,2 z m 0,0.9578231 c 2.60688,-8e-7 3.982722,0.2372435 4.789115,0.5387755 0.398172,0.1488872 0.550276,0.3855019 0.778231,0.5687075 l -11.164625,0 C 17.444995,3.8793187 17.5935,3.64719 17.995011,3.4965986 18.798034,3.1954158 20.196194,2.9578231 22.814059,2.9578231 z m -13.1401374,2.0952381 26.2802734,0 c 0.480436,0 0.838095,0.3552448 0.838095,0.7782313 l 0,5.3278915 c -0.05074,0.07692 -0.09055,0.171209 -0.0898,0.269387 l 0,4.99864 c 9e-6,0.09515 0.04194,0.16492 0.0898,0.239456 l 0,4.789115 -6.614966,6.076191 -0.329252,-0.389116 c -0.45085,-0.466554 -0.892886,-1.085634 -1.885714,-1.496598 -0.992828,-0.410964 -2.485424,-0.658505 -5.148299,-0.658504 -2.67363,0 -4.157527,0.247146 -5.1483,0.658504 -0.990771,0.411358 -1.436138,1.03136 -1.885714,1.496598 l -0.329252,0.389116 -6.6149661,-6.285714 0,-4.579592 c 0.04785,-0.07454 0.089786,-0.144306 0.089796,-0.239456 l 0,-4.99864 c 7.681e-4,-0.09936 -0.034393,-0.189107 -0.089796,-0.269387 l 0,-5.3278915 c 0,-0.422986 0.3576607,-0.7782313 0.8380947,-0.7782313 z m 2.6040824,2.3047619 c -0.265317,0 -0.478911,0.2135944 -0.478911,0.4789116 0,0.265317 0.213594,0.4789114 0.478911,0.4789116 l 9.578231,0 c 0.265317,0 0.478912,-0.2135948 0.478912,-0.4789116 0,-0.265317 -0.213595,-0.4789118 -0.478912,-0.4789116 l -9.578231,0 z m 17.240816,0 c -0.265317,0 -0.478911,0.2135944 -0.478911,0.4789116 0,0.265317 0.213594,0.4789114 0.478911,0.4789116 l 3.831293,0 c 0.265317,0 0.478912,-0.2135948 0.478912,-0.4789116 0,-0.265317 -0.213595,-0.4789118 -0.478912,-0.4789116 l -3.831293,0 z M 12.278004,10.231293 c -0.265317,0 -0.478911,0.213594 -0.478911,0.478911 0,0.265317 0.213594,0.478912 0.478911,0.478912 l 5.746939,0 c 0.265317,0 0.478911,-0.213595 0.478911,-0.478912 0,-0.265317 -0.213594,-0.478912 -0.478911,-0.478911 l -5.746939,0 z m -4.3102044,2.304761 0,3.412245 -1.9156462,0 0,-1.616326 1.9156462,-1.795919 z m 29.6925174,0 1.915646,1.795919 0,1.616326 -1.915646,0 0,-3.412245 z m -25.382313,1.526531 c -0.265317,0 -0.478911,0.213595 -0.478911,0.478912 0,0.265317 0.213594,0.478911 0.478911,0.478911 l 21.072109,0 c 0.265317,0 0.478912,-0.213594 0.478912,-0.478911 0,-0.265317 -0.213595,-0.478912 -0.478912,-0.478912 l -21.072109,0 z m 0,1.915646 c -0.265317,0 -0.478911,0.213596 -0.478911,0.478912 0,0.265317 0.213594,0.478912 0.478911,0.478911 l 21.072109,0 c 0.265317,0 0.478912,-0.213593 0.478912,-0.478911 0,-0.265317 -0.213595,-0.478912 -0.478912,-0.478912 l -21.072109,0 z m -6.2258506,0.957823 2.0054422,0 0,3.531973 -2.0054422,-1.885714 0,-1.646259 z m 31.5183676,0 2.005442,0 0,1.915647 -2.005442,1.855782 0,-3.771429 z m -25.292517,0.957824 c -0.265317,0 -0.478911,0.213595 -0.478911,0.478911 0,0.265317 0.213594,0.478913 0.478911,0.478912 l 21.072109,0 c 0.265317,0 0.478912,-0.213594 0.478912,-0.478912 0,-0.265317 -0.213595,-0.47891 -0.478912,-0.478911 l -21.072109,0 z m -6.2258506,1.346938 8.8598646,8.919728 -8.6503408,9.967347 9.5183678,-9.997279 c 1.800177,-2.137571 4.475813,-2.105999 7.034014,-2.155102 2.706332,-0.114886 5.076216,0.202868 7.034013,2.155102 l 4.69932,4.938776 -10.236735,0 0,-5.268027 -9.578231,9.099319 1.586394,1.496599 -9.3986394,0 C 6.6559425,38.39728 6.4179315,38.301084 6.2616772,38.127891 6.1242487,37.975566 6.0521534,37.761656 6.0521534,37.529252 l 0,-18.288436 z m 33.5238096,0.29932 0,12.331973 c -0.904448,0.940759 -2.061943,1.197278 -3.292517,1.197279 l -1.287075,0 -4.25034,-4.878912 8.829932,-8.65034 z m -27.297959,0.269388 c -0.265317,0 -0.478911,0.213595 -0.478911,0.478911 0,0.265317 0.213594,0.478913 0.478911,0.478912 l 21.072109,0 c 0.265317,0 0.478912,-0.213594 0.478912,-0.478912 0,-0.265317 -0.213595,-0.47891 -0.478912,-0.478911 l -21.072109,0 z m 0,1.915646 c -0.265317,0 -0.478911,0.213596 -0.478911,0.478912 0,0.265317 0.213594,0.478912 0.478911,0.478911 l 21.072109,0 c 0.265317,0 0.478912,-0.213593 0.478912,-0.478911 0,-0.265317 -0.213595,-0.478911 -0.478912,-0.478912 l -21.072109,0 z" />
</defs>

<use id="1" style="fill:#E3E3E3" xlink:href="#path-main" />



</svg>
