<?xml version="1.0" encoding="UTF-8" standalone="no"?>
<svg
   xmlns:dc="http://purl.org/dc/elements/1.1/"
   xmlns:cc="http://creativecommons.org/ns#"
   xmlns:rdf="http://www.w3.org/1999/02/22-rdf-syntax-ns#"
   xmlns:svg="http://www.w3.org/2000/svg"
   xmlns="http://www.w3.org/2000/svg"
   xmlns:sodipodi="http://sodipodi.sourceforge.net/DTD/sodipodi-0.dtd"
   xmlns:inkscape="http://www.inkscape.org/namespaces/inkscape"
   height="512"
   width="512"
   version="1.1"
   viewBox="0 0 512 512"
   id="svg2"
   inkscape:version="0.91 r"
   sodipodi:docname="task-ongoing.svg">
  <defs
     id="defs50" />
  <sodipodi:namedview
     pagecolor="#ffffff"
     bordercolor="#666666"
     borderopacity="1"
     objecttolerance="10"
     gridtolerance="10"
     guidetolerance="10"
     inkscape:pageopacity="0"
     inkscape:pageshadow="2"
     inkscape:window-width="640"
     inkscape:window-height="480"
     id="namedview48"
     showgrid="false"
     inkscape:zoom="0.4609375"
     inkscape:cx="256"
     inkscape:cy="256"
     inkscape:window-x="0"
     inkscape:window-y="0"
     inkscape:window-maximized="0"
     inkscape:current-layer="svg2" />
  <metadata
     id="metadata94">
    <rdf:RDF>
      <cc:Work
         rdf:about="">
        <dc:format>image/svg+xml</dc:format>
        <dc:type
           rdf:resource="http://purl.org/dc/dcmitype/StillImage" />
      </cc:Work>
    </rdf:RDF>
  </metadata>
  <text
     id="text20"
     font-size="129.23"
     line-height="125%"
     y="231.36"
     x="729.64"
     font-family="Gentium Book Basic"
     word-spacing="0"
     letter-spacing="0">
    <tspan
       id="tspan22"
       y="231.36"
       x="729.64" />
  </text>
  <text
     id="text24"
     transform="scale(4.0128 .2492)"
     font-size="46.954"
     y="579.26"
     x="378.91"
     font-family="Arial"
     text-anchor="middle" />
  <text
     id="text26"
     font-size="129.23"
     line-height="125%"
     y="151.36"
     x="1310.91"
     font-family="Gentium Book Basic"
     word-spacing="0"
     letter-spacing="0">
    <tspan
       id="tspan28"
       y="151.36"
       x="1310.91" />
  </text>
  <text
     id="text30"
     transform="scale(4.0128 .2492)"
     font-size="46.954"
     y="258.22"
     x="523.76"
     font-family="Arial"
     text-anchor="middle" />
  <text
     id="text32"
     font-size="129.23"
     line-height="125%"
     y="-29.9"
     x="239.33"
     font-family="Gentium Book Basic"
     word-spacing="0"
     letter-spacing="0">
    <tspan
       id="tspan34"
       y="-29.9"
       x="239.33" />
  </text>
  <text
     id="text36"
     transform="scale(4.0128 .2492)"
     font-size="46.954"
     y="-469.13"
     x="256.72"
     font-family="Arial"
     text-anchor="middle" />
  <text
     id="text38"
     font-size="129.23"
     line-height="125%"
     y="-246.37"
     x="1337.38"
     font-family="Gentium Book Basic"
     word-spacing="0"
     letter-spacing="0">
    <tspan
       id="tspan40"
       y="-246.37"
       x="1337.38" />
  </text>
  <text
     id="text42"
     transform="scale(4.0128 .2492)"
     font-size="46.954"
     y="-1337.8"
     x="530.36"
     font-family="Arial"
     text-anchor="middle" />
  <text
     id="text44"
     font-size="129.23"
     line-height="125%"
     y="-326.37"
     x="1918.65"
     font-family="Gentium Book Basic"
     word-spacing="0"
     letter-spacing="0">
    <tspan
       id="tspan46"
       y="-326.37"
       x="1918.65" />
  </text>
  <text
     id="text48"
     transform="scale(4.0128 .2492)"
     font-size="46.954"
     y="-1658.83"
     x="675.21"
     font-family="Arial"
     text-anchor="middle" />
  <text
     id="text50"
     font-size="129.23"
     line-height="125%"
     y="-798.77"
     x="1529.53"
     font-family="Gentium Book Basic"
     word-spacing="0"
     letter-spacing="0">
    <tspan
       id="tspan52"
       y="-798.77"
       x="1529.53" />
  </text>
  <text
     id="text54"
     transform="scale(4.0128 .2492)"
     font-size="46.954"
     y="-3554.48"
     x="578.24"
     font-family="Arial"
     text-anchor="middle" />
  <text
     id="text56"
     font-size="129.23"
     line-height="125%"
     y="-878.78"
     x="2110.79"
     font-family="Gentium Book Basic"
     word-spacing="0"
     letter-spacing="0">
    <tspan
       id="tspan58"
       y="-878.78"
       x="2110.79" />
  </text>
  <text
     id="text60"
     transform="scale(4.0128 .2492)"
     font-size="46.954"
     y="-3875.52"
     x="723.09"
     font-family="Arial"
     text-anchor="middle" />
  <text
     id="text62"
     font-size="208.33"
     line-height="125%"
     y="535.94"
     x="277.99"
     font-family="Gentium Book Basic"
     word-spacing="0"
     letter-spacing="0">
    <tspan
       id="tspan64"
       y="535.94"
       x="277.99" />
  </text>
  <g
     id="g66"
     transform="matrix(1.3144605,0,0,1.3144605,-80.501886,-80.501886)"
     style="fill:#E3E3E3">
    <g
       id="g68"
       transform="matrix(10.82,0,0,10.82,85.81,85.1)">
      <circle
         id="circle70"
         cy="7.152"
         cx="15.729"
         r="0.86199999" />
      <circle
         id="circle72"
         cy="24.330999"
         cx="15.729"
         r="0.86199999" />
      <circle
         id="circle74"
         cy="15.741"
         cx="24.318001"
         r="0.86199999" />
      <circle
         id="circle76"
         cy="15.741"
         cx="7.138"
         r="0.86199999" />
      <circle
         id="circle78"
         cy="9.6669998"
         cx="21.802999"
         r="0.86000001" />
      <circle
         id="circle80"
         cy="21.815001"
         cx="9.6549997"
         r="0.86000001" />
      <circle
         id="circle82"
         cy="21.816"
         cx="21.802"
         r="0.861" />
    </g>
    <path
       id="path84"
       d="m 196.86,196.3 c 3.657,-3.646 3.646,-9.554 0,-13.179 -3.646,-3.646 -9.532,-3.646 -13.2,0 -3.614,3.625 -3.614,9.532 0.032,13.168 3.635,3.646 9.521,3.657 13.168,0.012 z"
       inkscape:connector-curvature="0" />
    <path
       id="path86"
       d="m 256,104.22 c -83.71,0 -151.81,68.08 -151.81,151.78 0,83.7 68.1,151.78 151.81,151.78 83.69,0 151.81,-68.08 151.81,-151.78 0,-83.7 -68.12,-151.78 -151.81,-151.78 m 0,29.16 c 67.62,0 122.63,55.01 122.63,122.63 0,67.6 -55.01,122.63 -122.62,122.63 -67.63,0 -122.66,-55.02 -122.66,-122.62 0,-67.62 55.03,-122.62 122.66,-122.62"
       inkscape:connector-curvature="0" />
    <path
       id="path88"
       d="m 319.66,245.3 -40.531,0 c -2.153,-4.339 -5.03,-8.645 -9.359,-11.253 l 0,-35.02 c 0,-7.26 -6.459,-13.157 -13.73,-13.157 -7.271,0 -13.73,5.886 -13.73,13.157 l 0,35.02 c -7.238,4.479 -12.216,12.627 -12.216,21.954 0,14.14 11.621,25.578 25.762,25.578 8.353,0 15.905,-4.49 20.579,-10.268 l 43.23,0 c 7.282,0 13.168,-5.735 13.168,-13.01 0.012,-7.271 -5.875,-13.01 -13.168,-13.01"
       inkscape:connector-curvature="0" />
  </g>
</svg>
