<svg xmlns="http://www.w3.org/2000/svg" width="16" height="16">
    <path d="M13 5v9H4V5H2v9c0 2 2 2 2 2h9c2 0 2-2 2-2V5zM9 6H8v6h1zM7 6H6v6h1zm4 0h-1v6h1zm1-6c2 0 2 2 2 2h2v2H1V2h2c0-2 2-2 2-2zm0 1H5v1h7z" fill="#E3E3E3"/>
</svg>
