<svg xmlns="http://www.w3.org/2000/svg" width="48" height="48">
<defs>
<defs
     id="defs2385">
  </defs>
  <path
     id="path-main"
     d="M 3 7 L 3 42 L 45 42 L 45 10.5 L 25.75 10.5 L 25.75 7 L 3 7 z M 4.75 8.75 L 24 8.75 L 24 12.25 L 43.25 12.25 L 43.25 15.75 L 20.5 15.75 L 20.5 12.25 L 4.75 12.25 L 4.75 8.75 z M 18.53125 19.25 L 26.0625 19.25 L 30.375 23.65625 L 30.34375 35.03125 C 30.34375 35.536054 29.959441 35.96875 29.46875 35.96875 L 18.53125 35.96875 C 18.040556 35.96875 17.625 35.536055 17.625 35.03125 L 17.625 20.15625 C 17.625 19.651446 18.040557 19.25 18.53125 19.25 z "
 />
</defs>

<use id="1" style="fill:#E3E3E3" xlink:href="#path-main" />



</svg>
