<?xml version="1.0" encoding="UTF-8" standalone="no"?>
<svg xmlns:dc="http://purl.org/dc/elements/1.1/" xmlns:cc="http://creativecommons.org/ns#" xmlns:rdf="http://www.w3.org/1999/02/22-rdf-syntax-ns#" xmlns:svg="http://www.w3.org/2000/svg" xmlns="http://www.w3.org/2000/svg" xmlns:xlink="http://www.w3.org/1999/xlink" xmlns:sodipodi="http://sodipodi.sourceforge.net/DTD/sodipodi-0.dtd" xmlns:inkscape="http://www.inkscape.org/namespaces/inkscape" viewBox="0 0 512 512" height="512" width="512" version="1.1" id="svg2" inkscape:version="0.91 r" sodipodi:docname="gnome-fs-bookmark.svg">
<sodipodi:namedview pagecolor="#ffffff" bordercolor="#666666" borderopacity="1" objecttolerance="10" gridtolerance="10" guidetolerance="10" inkscape:pageopacity="0" inkscape:pageshadow="2" inkscape:window-width="640" inkscape:window-height="480" id="namedview22" showgrid="false" inkscape:zoom="0.4609375" inkscape:cx="218.0339" inkscape:cy="256" inkscape:window-x="0" inkscape:window-y="0" inkscape:window-maximized="0" inkscape:current-layer="svg2" />
<metadata id="metadata889">
<rdf:RDF>
<cc:Work rdf:about="">
<dc:format>image/svg+xml</dc:format>
<dc:type rdf:resource="http://purl.org/dc/dcmitype/StillImage" />
</cc:Work>
</rdf:RDF>
</metadata>
<defs id="defs4">
<linearGradient gradientTransform="translate(2.96002,2.94999)" gradientUnits="userSpaceOnUse" xlink:href="#0-0-9" id="linearGradient6070-9" y2="471.66" x2="0" y1="33.753" />
<linearGradient gradientUnits="userSpaceOnUse" id="0-0-9" y2="471.66" x2="0" y1="33.753">
<stop id="stop7-4-3" stop-color="#6a6a6a" />
<stop offset="0.47" id="stop9-4-4" />
<stop offset="0.494" id="stop11-2-5" stop-color="#ffffff" />
<stop offset="0.901" id="stop13-9-7" stop-color="#ffffff" />
<stop offset="0.955" id="stop15-8-4" />
<stop offset="1" id="stop17-4-7" />
</linearGradient>
</defs>
<path id="path1021" d="m 192.97998,138.32 c -44.691,0 -81.02996,36.37 -81.02996,81.06 0,19.677 3.181,49.02 30.78896,76.63 24.698,24.743 104.35,78.69 107.75,80.969 2.563,1.734 5.534,2.593 8.474,2.593 2.94,0 5.88,-0.859 8.444,-2.593 3.362,-2.277 83,-56.23 107.75,-80.969 27.608,-27.608 30.819,-56.949 30.819,-76.63 0,-44.691 -36.37,-81.06 -81.06,-81.06 -27.17,0 -51.22,13.434 -65.951,34.02 -14.731,-20.581 -38.811,-34.02 -65.981,-34.02" fill="#E3E3E3" />
</svg>
