<?xml version="1.0" encoding="UTF-8" standalone="no"?>
<svg
   xmlns:dc="http://purl.org/dc/elements/1.1/"
   xmlns:cc="http://creativecommons.org/ns#"
   xmlns:rdf="http://www.w3.org/1999/02/22-rdf-syntax-ns#"
   xmlns:svg="http://www.w3.org/2000/svg"
   xmlns="http://www.w3.org/2000/svg"
   xmlns:sodipodi="http://sodipodi.sourceforge.net/DTD/sodipodi-0.dtd"
   xmlns:inkscape="http://www.inkscape.org/namespaces/inkscape"
   height="512"
   viewBox="0 0 512 512"
   width="512"
   version="1.1"
   id="svg2"
   inkscape:version="0.91 r13725"
   sodipodi:docname="applications-astronomy.svg">
  <defs
     id="defs17" />
  <sodipodi:namedview
     pagecolor="#ffffff"
     bordercolor="#666666"
     borderopacity="1"
     objecttolerance="10"
     gridtolerance="10"
     guidetolerance="10"
     inkscape:pageopacity="0"
     inkscape:pageshadow="2"
     inkscape:window-width="1920"
     inkscape:window-height="1020"
     id="namedview15"
     showgrid="false"
     inkscape:zoom="1.2614468"
     inkscape:cx="152.31299"
     inkscape:cy="123.98094"
     inkscape:window-x="0"
     inkscape:window-y="0"
     inkscape:window-maximized="1"
     inkscape:current-layer="svg2" />
  <metadata
     id="metadata28">
    <rdf:RDF>
      <cc:Work
         rdf:about="">
        <dc:format>image/svg+xml</dc:format>
        <dc:type
           rdf:resource="http://purl.org/dc/dcmitype/StillImage" />
        <dc:title></dc:title>
      </cc:Work>
    </rdf:RDF>
  </metadata>
  <g
     transform="matrix(12.169541,0,0,12.16909,33.050823,24.433505)"
     style="fill:#E3E3E3"
     id="g4">
    <path
       inkscape:connector-curvature="0"
       d="m 18.566,4.156 c -8.789,0 -15.211,6.781 -14.328,15.1 0.742,7.02 6.441,12.906 13.477,14.586 -1.203,-1.965 -1.98,-4.176 -2.227,-6.5 -0.883,-8.32 5.543,-15.04 14.332,-15.04 1.383,0 2.707,0.172 4.02,0.484 C 30.742,7.704 24.906,4.153 18.563,4.153 m 0,3.113 c 2.754,0 5.406,0.852 7.684,2.258 -8.574,1.66 -14.738,9.238 -13.84,18.09 C 9.673,25.348 7.673,22.29 7.313,18.915 6.618,12.345 11.368,7.263 18.563,7.263"
       id="path6-3"
       style="fill:#E3E3E3" />
    <path
       inkscape:connector-curvature="0"
       d="m 11.266,9.781 c 1.551,0 2.805,1.508 2.805,3.371 l 0,11.941 c 0,1.863 -1.254,3.371 -2.805,3.371 -1.551,0 -2.809,-1.508 -2.809,-3.371 l 0,-11.941 c 0,-1.863 1.258,-3.371 2.809,-3.371 z"
       id="path8-6"
       style="fill:#E3E3E3" />
    <path
       inkscape:connector-curvature="0"
       d="m 9.418,11.855 c 1.508,0 2.73,1.512 2.73,3.375 l 0,6.402 c 0,1.863 -1.223,3.371 -2.73,3.371 -1.508,0 -2.727,-1.508 -2.727,-3.371 l 0,-6.402 c 0,-1.863 1.219,-3.375 2.727,-3.375 z"
       id="path10"
       style="fill:#E3E3E3" />
    <path
       inkscape:connector-curvature="0"
       d="m 12.957,8.242 c 1.551,0 2.805,1.512 2.805,3.371 l 0,4.637 c 0,1.863 -1.254,3.375 -2.805,3.375 -1.551,0 -2.809,-1.512 -2.809,-3.375 l 0,-4.637 c 0,-1.859 1.258,-3.371 2.809,-3.371 z"
       id="path12-7"
       style="fill:#E3E3E3" />
    <path
       inkscape:connector-curvature="0"
       d="m 14.289,5.551 4.02,0 c 1.859,0 3.371,1.512 3.371,3.375 l 0,2.48 c 0,1.863 -1.512,3.371 -3.371,3.371 l -4.02,0 c -1.859,0 -3.371,-1.508 -3.371,-3.371 l 0,-2.48 c 0,-1.863 1.512,-3.375 3.371,-3.375 z"
       id="path14-5"
       style="fill:#E3E3E3" />
    <path
       inkscape:connector-curvature="0"
       d="m 15.879,11.09 c 1.082,0 1.961,1.461 1.961,3.266 0,1.805 -0.879,3.27 -1.961,3.27 -1.086,0 -1.961,-1.465 -1.961,-3.27 0,-1.805 0.875,-3.266 1.961,-3.266 z"
       id="path16-3"
       style="fill:#E3E3E3" />
    <path
       inkscape:connector-curvature="0"
       d="m 22.363,7.01 0.637,0 c 1.863,0 3.375,1.07 3.375,2.387 0,1.316 -1.512,2.383 -3.375,2.383 l -0.637,0 c -1.863,0 -3.371,-1.066 -3.371,-2.383 0,-1.316 1.508,-2.387 3.371,-2.387 z"
       id="path18"
       style="fill:#E3E3E3" />
  </g>
</svg>
