<?xml version="1.0" encoding="UTF-8" standalone="no"?>
<svg
   xmlns:dc="http://purl.org/dc/elements/1.1/"
   xmlns:cc="http://creativecommons.org/ns#"
   xmlns:rdf="http://www.w3.org/1999/02/22-rdf-syntax-ns#"
   xmlns:svg="http://www.w3.org/2000/svg"
   xmlns="http://www.w3.org/2000/svg"
   xmlns:sodipodi="http://sodipodi.sourceforge.net/DTD/sodipodi-0.dtd"
   xmlns:inkscape="http://www.inkscape.org/namespaces/inkscape"
   height="512"
   viewBox="0 0 144.49778 144.49778"
   width="512"
   version="1.1"
   id="svg2"
   inkscape:version="0.91 r13725"
   sodipodi:docname="preferences-system-time.svg">
  <defs
     id="defs44" />
  <sodipodi:namedview
     pagecolor="#ffffff"
     bordercolor="#666666"
     borderopacity="1"
     objecttolerance="10"
     gridtolerance="10"
     guidetolerance="10"
     inkscape:pageopacity="0"
     inkscape:pageshadow="2"
     inkscape:window-width="1920"
     inkscape:window-height="1020"
     id="namedview42"
     showgrid="false"
     inkscape:zoom="1.8288745"
     inkscape:cx="277.43102"
     inkscape:cy="256"
     inkscape:window-x="0"
     inkscape:window-y="0"
     inkscape:window-maximized="1"
     inkscape:current-layer="svg2" />
  <metadata
     id="metadata82">
    <rdf:RDF>
      <cc:Work
         rdf:about="">
        <dc:format>image/svg+xml</dc:format>
        <dc:type
           rdf:resource="http://purl.org/dc/dcmitype/StillImage" />
        <dc:title></dc:title>
      </cc:Work>
    </rdf:RDF>
  </metadata>
  <g
     id="g4208"
     transform="matrix(1.2847209,0,0,1.2847209,-20.537977,-21.295365)">
    <rect
       id="rect70"
       rx="2.6929867"
       transform="matrix(-0.74940374,-0.66211331,0.66211331,-0.74940374,0,0)"
       height="5.3859735"
       width="44.30978"
       y="-8.9809551"
       x="-99.129501"
       style="fill:#E3E3E3;fill-opacity:1" />
    <rect
       id="rect72"
       rx="2.9430001"
       transform="matrix(0.70710678,-0.70710678,0.70710678,0.70710678,0,0)"
       height="5.8870001"
       width="54.02"
       y="96.82"
       x="-2.2349999"
       style="fill:#E3E3E3;fill-opacity:1" />
    <rect
       style="fill:#E3E3E3;fill-opacity:1"
       x="-74.199997"
       y="96.300003"
       width="46.48"
       height="2.8180001"
       transform="matrix(0.4772,-0.87879,0.85224,0.52315,0,0)"
       rx="1.409"
       id="rect74" />
    <path
       style="fill:#E3E3E3;fill-opacity:1"
       d="m 77.306,71.418 a 5.8915,5.8915 0 0 1 -11.783,0 5.8915,5.8915 0 1 1 11.783,0"
       id="path76"
       inkscape:connector-curvature="0" />
  </g>
</svg>
