<?xml version='1.0' encoding='UTF-8' standalone='no'?>
<!-- Created with Inkscape (http://www.inkscape.org/) -->

<svg xmlns:cc='http://creativecommons.org/ns#' xmlns:dc='http://purl.org/dc/elements/1.1/' sodipodi:docname='ac-adapter-symbolic.svg' inkscape:export-filename='/home/sam/dev/RESOURCES/gnome-icon-theme-symbolic/src/gnome-stencils.png' inkscape:export-xdpi='90' inkscape:export-ydpi='90' height='16' id='svg7384' xmlns:inkscape='http://www.inkscape.org/namespaces/inkscape' xmlns:rdf='http://www.w3.org/1999/02/22-rdf-syntax-ns#' xmlns:sodipodi='http://sodipodi.sourceforge.net/DTD/sodipodi-0.dtd' xmlns:svg='http://www.w3.org/2000/svg' version='1.1' inkscape:version='0.48.4 r9939' width='16' xmlns='http://www.w3.org/2000/svg'>
  <metadata id='metadata90'>
    <rdf:RDF>
      <cc:Work rdf:about=''>
        <dc:format>image/svg+xml</dc:format>
        <dc:type rdf:resource='http://purl.org/dc/dcmitype/StillImage'/>
        <dc:title>Gnome Symbolic Icon Theme</dc:title>
      </cc:Work>
    </rdf:RDF>
  </metadata>
  <sodipodi:namedview inkscape:bbox-nodes='false' inkscape:bbox-paths='true' bordercolor='#666666' borderopacity='1' inkscape:current-layer='layer10' inkscape:cx='19.541358' inkscape:cy='7.91925' gridtolerance='10' inkscape:guide-bbox='true' guidetolerance='10' id='namedview88' inkscape:object-nodes='false' inkscape:object-paths='false' objecttolerance='10' pagecolor='#3a3b39' inkscape:pageopacity='1' inkscape:pageshadow='2' showborder='false' showgrid='true' showguides='true' inkscape:snap-bbox='true' inkscape:snap-bbox-midpoints='false' inkscape:snap-global='true' inkscape:snap-grids='true' inkscape:snap-nodes='true' inkscape:snap-others='false' inkscape:snap-to-guides='true' inkscape:window-height='1375' inkscape:window-maximized='1' inkscape:window-width='2560' inkscape:window-x='0' inkscape:window-y='27' inkscape:zoom='22.627417'>
    <inkscape:grid dotted='false' empspacing='2' enabled='true' id='grid4866' originx='200px' originy='230px' snapvisiblegridlinesonly='true' spacingx='1px' spacingy='1px' type='xygrid' visible='true'/>
  </sodipodi:namedview>
  <title id='title9167'>Gnome Symbolic Icon Theme</title>
  <defs id='defs7386'/>
  <g inkscape:groupmode='layer' id='layer9' inkscape:label='status' style='display:inline' transform='translate(-41.0002,-447)'/>
  <g inkscape:groupmode='layer' id='layer10' inkscape:label='devices' style='display:inline' transform='translate(-41.0002,-447)'>

    <path inkscape:connector-curvature='0' d='m 49.7795,452.00772 c -0.17789,0.0489 -0.3419,0.14728 -0.46875,0.28125 l -3.03125,3 c -0.2353,0.23073 -0.34458,0.58283 -0.28125,0.90625 l 0,0.8125 0.8125,0 0.1875,0 1.4707,0 -1.1875,1.27358 c -0.21461,0.21931 -0.32135,0.53954 -0.28125,0.84375 -10e-4,0.0312 -10e-4,0.0625 0,0.0937 l 0,0.78125 0.84375,0 0.15625,0 c 0.26386,0.004 0.52791,-0.099 0.71875,-0.28125 l 3,-2.99234 c 0.18369,-0.18976 0.28735,-0.45466 0.28125,-0.71869 0.003,-0.0416 0.003,-0.0834 0,-0.125 l 0,-0.875 -0.84375,0 -0.15625,0 -1.56445,0 1.3125,-1.28125 c 0.21461,-0.21931 0.32135,-0.53954 0.28125,-0.84375 0.001,-0.0312 0.001,-0.0625 0,-0.0937 l 0,-0.78129 -0.84375,0 -0.0937,0 c -0.0208,-6.5e-4 -0.0417,-6.5e-4 -0.0625,0 -0.0829,-0.0103 -0.16709,-0.0103 -0.25,0 z' id='path5600' sodipodi:nodetypes='ccccccccccccccccccccccccccccccc' style='font-size:xx-small;font-style:normal;font-variant:normal;font-weight:normal;font-stretch:normal;text-indent:0;text-align:start;text-decoration:none;line-height:normal;letter-spacing:normal;word-spacing:normal;text-transform:none;direction:ltr;block-progression:tb;writing-mode:lr-tb;text-anchor:start;color:#BECCE6;fill:#1793D1;fill-opacity:1;fill-rule:nonzero;stroke:none;stroke-width:2;marker:none;visibility:visible;display:inline;overflow:visible;enable-background:accumulate;font-family:Bitstream Vera Sans;-inkscape-font-specification:Bitstream Vera Sans'/>
    <path inkscape:connector-curvature='0' d='m 46.46875,447 c -0.49202,0 -0.796149,0.22777 -1.03125,0.46875 C 45.202399,447.70973 45,448.02759 45,448.5 l 0,0.5 -1,0 -1,0 0,1 0,12 0,1 1,0 10,0 1,0 0,-1 0,-12 0,-1 -1,0 -1,0 0,-0.375 0,-0.0312 0,-0.0312 c -0.02385,-0.43046 -0.170408,-0.72033 -0.40625,-1 -0.22357,-0.26511 -0.624895,-0.52941 -1.15625,-0.53125 l 0,-0.0312 -0.0625,0 -4.90625,0 z M 47,449 l 4,0 0,1 0,1 1,0 1,0 0,10 -8,0 0,-10 1,0 1,0 0,-1 0,-1 z' id='path5602' style='font-size:medium;font-style:normal;font-variant:normal;font-weight:normal;font-stretch:normal;text-indent:0;text-align:start;text-decoration:none;line-height:normal;letter-spacing:normal;word-spacing:normal;text-transform:none;direction:ltr;block-progression:tb;writing-mode:lr-tb;text-anchor:start;baseline-shift:baseline;opacity:0.5;color:#BECCE6;fill:#1793D1;fill-opacity:1;stroke:none;stroke-width:2.00264454;marker:none;visibility:visible;display:inline;overflow:visible;enable-background:accumulate;font-family:Sans;-inkscape-font-specification:Sans'/>
  </g>
  <g inkscape:groupmode='layer' id='layer11' inkscape:label='apps' transform='translate(-41.0002,-447)'/>
  <g inkscape:groupmode='layer' id='layer13' inkscape:label='places' style='display:inline' transform='translate(-41.0002,-447)'/>
  <g inkscape:groupmode='layer' id='layer14' inkscape:label='mimetypes' transform='translate(-41.0002,-447)'/>
  <g inkscape:groupmode='layer' id='layer15' inkscape:label='emblems' style='display:inline' transform='translate(-41.0002,-447)'/>
  <g inkscape:groupmode='layer' id='g71291' inkscape:label='emotes' style='display:inline' transform='translate(-41.0002,-447)'/>
  <g inkscape:groupmode='layer' id='g4953' inkscape:label='categories' style='display:inline' transform='translate(-41.0002,-447)'/>
  <g inkscape:groupmode='layer' id='layer12' inkscape:label='actions' style='display:inline' transform='translate(-41.0002,-447)'/>
</svg>
