<?xml version='1.0' encoding='UTF-8' standalone='no'?>
<!-- Created with Inkscape (http://www.inkscape.org/) -->

<svg xmlns:cc='http://creativecommons.org/ns#' xmlns:dc='http://purl.org/dc/elements/1.1/' sodipodi:docname='colorimeter-colorhug-symbolic.svg' height='16.009148' id='svg7384' xmlns:inkscape='http://www.inkscape.org/namespaces/inkscape' xmlns:rdf='http://www.w3.org/1999/02/22-rdf-syntax-ns#' xmlns:sodipodi='http://sodipodi.sourceforge.net/DTD/sodipodi-0.dtd' xmlns:svg='http://www.w3.org/2000/svg' inkscape:version='0.48.2 r9819' version='1.1' width='16' xmlns='http://www.w3.org/2000/svg'>
  <metadata id='metadata90'>
    <rdf:RDF>
      <cc:Work rdf:about=''>
        <dc:format>image/svg+xml</dc:format>
        <dc:type rdf:resource='http://purl.org/dc/dcmitype/StillImage'/>
        <dc:title>Gnome Symbolic Icon Theme</dc:title>
      </cc:Work>
    </rdf:RDF>
  </metadata>
  <sodipodi:namedview inkscape:bbox-paths='false' bordercolor='#666666' borderopacity='1' inkscape:current-layer='layer10' inkscape:cx='47.52504' inkscape:cy='3.0535175' gridtolerance='10' inkscape:guide-bbox='true' guidetolerance='10' id='namedview88' inkscape:object-nodes='false' inkscape:object-paths='false' objecttolerance='10' pagecolor='#555753' inkscape:pageopacity='1' inkscape:pageshadow='2' showborder='false' showgrid='false' showguides='true' inkscape:snap-bbox='true' inkscape:snap-bbox-midpoints='false' inkscape:snap-global='true' inkscape:snap-grids='true' inkscape:snap-nodes='false' inkscape:snap-others='false' inkscape:snap-to-guides='true' inkscape:window-height='740' inkscape:window-maximized='0' inkscape:window-width='639' inkscape:window-x='0' inkscape:window-y='27' inkscape:zoom='1'>
    <inkscape:grid empspacing='2' enabled='true' id='grid4866' snapvisiblegridlinesonly='true' spacingx='1px' spacingy='1px' type='xygrid' visible='true'/>
  </sodipodi:namedview>
  <title id='title9167'>Gnome Symbolic Icon Theme</title>
  <defs id='defs7386'/>
  <g inkscape:groupmode='layer' id='layer9' inkscape:label='status' style='display:inline' transform='translate(258.9998,-446.99085)'/>
  <g inkscape:groupmode='layer' id='layer10' inkscape:label='devices' transform='translate(258.9998,-446.99085)'>

    <path inkscape:connector-curvature='0' d='m -251.9373,447 c -0.4543,0.0495 -0.88397,0.2214 -1.25,0.5 -0.48804,0.37146 -0.8125,0.95486 -0.8125,1.6875 l 0,5.3125 c 0,0 0.23582,0.50712 0.5,0.50712 0.26418,0 0.5,-0.50712 0.5,-0.50712 l 0,-5.3125 c 0,-0.4491 0.17164,-0.70389 0.4375,-0.90625 0.26586,-0.20236 0.66376,-0.30023 1.0625,-0.28125 0.39874,0.019 0.78428,0.15409 1.0625,0.40625 0.27822,0.25216 0.46875,0.5845 0.46875,1.125 0,2.1653 1.46382,3.50909 3,3.46875 0.85672,-0.0225 1.68825,-0.47696 2.25,-1.3125 l -0.5625,-1 c -0.37537,0.9157 -1.06785,1.29541 -1.71875,1.3125 -0.96046,0.0252 -1.96875,-0.72975 -1.96875,-2.46875 0,-0.79197 -0.33682,-1.44388 -0.8125,-1.875 -0.47568,-0.43112 -1.08104,-0.62738 -1.6875,-0.65625 -0.15162,-0.007 -0.31732,-0.0165 -0.46875,0 z m 6.9375,2 c 0,0.0455 8.9e-4,0.0807 0,0.125 l 0.78125,1.375 c 0.0114,-0.0408 0.0208,-0.0833 0.0312,-0.125 z m 0,0.34375 c -0.006,0.10599 -0.0202,0.21386 -0.0312,0.3125 l 0.71875,1.21875 c 0.0234,-0.0625 0.0415,-0.12233 0.0625,-0.1875 z m -0.0625,0.5 c -0.0138,0.0899 -0.0444,0.16659 -0.0625,0.25 l 0.65625,1.125 c 0.0293,-0.0609 0.067,-0.12359 0.0937,-0.1875 z m -0.0937,0.4375 c -0.0237,0.0889 -0.0654,0.16899 -0.0937,0.25 l 0.59375,1.03125 c 0.0401,-0.0651 0.088,-0.1182 0.125,-0.1875 z' id='path23000' sodipodi:nodetypes='ssccsccscssscccsscscccccccccccccccccccc' style='font-size:medium;font-style:normal;font-variant:normal;font-weight:normal;font-stretch:normal;text-indent:0;text-align:start;text-decoration:none;line-height:normal;letter-spacing:normal;word-spacing:normal;text-transform:none;direction:ltr;block-progression:tb;writing-mode:lr-tb;text-anchor:start;baseline-shift:baseline;color:#000000;fill:#1793D1;fill-opacity:1;stroke:none;stroke-width:1;marker:none;visibility:visible;display:inline;overflow:visible;enable-background:accumulate;font-family:Sans;-inkscape-font-specification:Sans'/>
    <rect height='7.9999976' id='rect23032' rx='0.7270034' ry='0.7270034' style='color:#000000;fill:#1793D1;fill-opacity:1;fill-rule:nonzero;stroke:none;stroke-width:1;marker:none;visibility:visible;display:inline;overflow:visible;enable-background:accumulate' width='7.0000138' x='-256.99979' y='453'/>
  </g>
  <g inkscape:groupmode='layer' id='layer11' inkscape:label='apps' transform='translate(258.9998,-446.99085)'/>
  <g inkscape:groupmode='layer' id='layer13' inkscape:label='places' transform='translate(258.9998,-446.99085)'/>
  <g inkscape:groupmode='layer' id='layer14' inkscape:label='mimetypes' transform='translate(258.9998,-446.99085)'/>
  <g inkscape:groupmode='layer' id='layer15' inkscape:label='emblems' style='display:inline' transform='translate(258.9998,-446.99085)'/>
  <g inkscape:groupmode='layer' id='g71291' inkscape:label='emotes' style='display:inline' transform='translate(258.9998,-446.99085)'/>
  <g inkscape:groupmode='layer' id='g4953' inkscape:label='categories' style='display:inline' transform='translate(258.9998,-446.99085)'/>
  <g inkscape:groupmode='layer' id='layer12' inkscape:label='actions' style='display:inline' transform='translate(258.9998,-446.99085)'/>
</svg>
