<svg xmlns="http://www.w3.org/2000/svg" width="48" height="48">
<defs>
<defs
     id="defs1309">
  </defs>
  <g
     id="layer1" />
  <path
     id="path-main"
     d="m 13.429688,9.1380208 c -0.01445,0.012766 -0.01591,0.014159 -0.02865,0.028646 L 3.3177083,13.0625 l 0,0.02865 -0.057292,0 c -0.1462749,0.05474 -0.2460494,0.152643 -0.3151042,0.229167 -0.07921,0.08778 -0.1371356,0.18219 -0.2005208,0.286458 -0.1267699,0.208531 -0.2074507,0.45363 -0.3151038,0.716142 C 2.2143813,14.847938 2,15.360008 2,15.8125 l 0,3.265625 c 0,0.788521 0.6458255,1.432292 1.4322917,1.432292 l 7.5052083,0 c 0.148265,-0.0045 0.290251,-0.07669 0.372396,-0.200521 l 3.151042,-5.041667 19.708333,0 2.492187,4.984375 c 0.07958,0.15188 0.229929,0.258883 0.401042,0.257813 l 7.505208,0 C 45.354174,20.510417 46,19.866646 46,19.078125 L 46,15.8125 c 0,-0.452368 -0.185783,-0.964551 -0.401042,-1.489583 -0.107628,-0.262516 -0.18829,-0.507573 -0.315104,-0.716146 -0.06341,-0.104287 -0.178547,-0.198661 -0.257812,-0.286458 -0.06817,-0.07551 -0.144133,-0.17442 -0.286459,-0.229167 l -0.02865,0 L 34.627604,9.1666667 C 34.576179,9.1430304 34.5122,9.141429 34.455729,9.1380208 l -20.882812,0 c -0.04063,-0.0055 -0.102602,-0.0055 -0.143229,0 z m 2.091145,7.3046872 c -1.467011,0 -2.223166,1.259802 -2.60677,2.606771 l -5.242188,18.333334 0.057292,2.635416 c 2e-7,1.38913 1.0824678,2.606774 2.549479,2.606771 l 27.471354,0 c 1.467011,0 2.60677,-1.217641 2.606771,-2.606771 l 0,-2.635416 -5.213542,-18.333334 c -0.381555,-1.347385 -1.197052,-2.606771 -2.664062,-2.606771 l -2.606771,0 -0.658854,2.606771 1.03125,0 0.486979,-1.375 c -0.0011,-0.01362 -0.0011,-0.04367 0,-0.05729 0.01205,-0.01511 0.01358,-0.01656 0.02865,-0.02865 0.02077,-0.03304 0.05299,-0.0651 0.08594,-0.08594 0.01358,-0.0011 0.04372,-0.0011 0.05729,0 0.02703,-0.0043 0.05891,-0.0043 0.08594,0 l 1.489584,0 c 0.341947,0 0.676168,0.02077 0.945312,0.257813 0.269145,0.237044 0.426241,0.588333 0.601563,1.203125 l 5.242187,18.333333 c 0.01507,0.01209 0.01659,0.04219 0.02865,0.05729 0.0011,0.01362 0.0011,0.01502 0,0.02865 l 0,1.976562 c -10e-7,0.491023 0.0048,0.844234 -0.02865,1.145833 -0.03342,0.301602 -0.102468,0.588967 -0.286458,0.773438 -0.183989,0.184472 -0.444001,0.252949 -0.744792,0.286458 -0.30079,0.03351 -0.684736,0 -1.174479,0 l -26.125,0 c -0.489743,1e-6 -0.845042,0.0335 -1.145833,0 -0.3007915,-0.0335 -0.5321553,-0.101987 -0.7161459,-0.286458 -0.1839897,-0.18447 -0.3103255,-0.471837 -0.34375,-0.773438 -0.033423,-0.301599 0,-0.65481 0,-1.145833 l 0,-1.976562 c -0.00427,-0.02712 -0.00427,-0.05882 0,-0.08594 L 13.973958,18.963542 c 0.175139,-0.615019 0.332318,-0.966111 0.601563,-1.203125 0.269245,-0.237015 0.603417,-0.257813 0.945312,-0.257813 l 1.632813,0 c 0.02703,-0.0043 0.0589,-0.0043 0.08594,0 0.05353,0.02578 0.08889,0.0609 0.114584,0.114584 0.01507,0.01209 0.01659,0.04218 0.02865,0.05729 l 0.34375,1.375 1.059895,0 -0.658854,-2.606771 -2.606771,0 z m 0,1.546875 c -0.311093,0 -0.494679,0.05257 -0.630208,0.171875 -0.135528,0.119305 -0.264953,0.395474 -0.429687,0.973959 l -5.242188,18.247396 0,0.08594 0,1.890625 c 0,0.491023 0.029497,0.837742 0.057292,1.088542 0.027794,0.250798 0.1109936,0.368647 0.171875,0.429687 0.060881,0.06104 0.1508723,0.115361 0.4010416,0.143229 0.2501694,0.02787 0.5987984,0.05729 1.0885414,0.05729 l 26.125,0 c 0.489743,0 0.838372,-0.02943 1.088542,-0.05729 0.250169,-0.02787 0.397452,-0.08219 0.458333,-0.143229 0.06088,-0.06104 0.08679,-0.178887 0.114583,-0.429687 0.02779,-0.250802 0.05729,-0.597519 0.05729,-1.088542 l 0,-1.890625 0,-0.08594 -5.242187,-18.247396 C 33.37414,18.557089 33.244912,18.28083 33.109375,18.161458 32.973837,18.042085 32.790208,17.989583 32.479167,17.989583 l -1.289063,0 -0.372396,1.059896 0.114584,0 c 0.780285,10e-7 1.432291,0.638213 1.432291,1.432292 l 2.091146,14.151042 c 0,0.794079 -0.652006,1.432291 -1.432291,1.432291 l -18.075521,0 c -0.780285,1e-6 -1.403646,-0.638213 -1.403646,-1.432291 l 2.091146,-14.151042 c 0,-0.794078 0.652007,-1.432292 1.432291,-1.432292 l 0.08594,0 -0.257813,-1.059896 -1.375,0 z m 1.976563,2.377605 c -0.370498,0 -0.687499,0.287272 -0.6875,0.658854 l -0.229167,1.289062 c 0,0.371582 0.317004,0.658853 0.6875,0.658854 l 2.692708,0 c 0.370498,0 0.687501,-0.287271 0.6875,-0.658854 l 0.05729,-1.289062 c 0.0306,-0.371582 -0.317003,-0.658855 -0.6875,-0.658854 l -2.520833,0 z m 5.184896,0 c -0.370498,0 -0.6875,0.287272 -0.6875,0.658854 l -0.05729,1.289062 c 0,0.371582 0.317003,0.658853 0.6875,0.658854 l 2.75,0 c 0.370497,0 0.658854,-0.287271 0.658854,-0.658854 l -0.05729,-1.289062 c 0,-0.371582 -0.288358,-0.658855 -0.658855,-0.658854 l -2.635416,0 z m 5.270833,0 c -0.370497,0 -0.679254,0.287272 -0.658854,0.658854 l 0.05729,1.289062 c 0.0204,0.371582 0.288357,0.658853 0.658854,0.658854 l 2.75,0 c 0.370497,0 0.709853,-0.287271 0.658854,-0.658854 L 31.21875,21.026042 c -0.0561,-0.376697 -0.317003,-0.658855 -0.6875,-0.658854 l -2.578125,0 z m -11.057292,3.924479 c -0.404176,0 -0.675346,0.297502 -0.716145,0.658854 l -0.200521,1.289062 c -0.0612,0.371582 0.311968,0.658854 0.716146,0.658855 l 3.036458,0 c 0.404178,0 0.724393,-0.287272 0.744791,-0.658855 l 0.05729,-1.260416 c 0.0204,-0.371582 -0.340614,-0.658854 -0.744792,-0.658854 l -2.893229,-0.02865 z m 5.643229,0 c -0.404176,0 -0.716144,0.287272 -0.716145,0.658854 l -0.05729,1.289062 c 0,0.371582 0.340615,0.658854 0.744792,0.658855 l 2.979166,0 c 0.404179,0 0.716146,-0.287272 0.716146,-0.658855 l -0.02865,-1.289062 c 0,-0.371582 -0.340614,-0.658855 -0.744791,-0.658854 l -2.89323,0 z m 5.671876,0 c -0.404177,0 -0.765193,0.287272 -0.744792,0.658854 l 0.05729,1.289062 c 0.0153,0.371582 0.340615,0.658854 0.744791,0.658855 l 3.007813,0 c 0.404178,0 0.805991,-0.282158 0.744791,-0.658855 l -0.20052,-1.289062 c -0.051,-0.351123 -0.311968,-0.658855 -0.716146,-0.658854 l -2.893229,0 z m -11.859375,3.924479 c -0.43786,0 -0.745985,0.321032 -0.802084,0.6875 l -0.171875,1.260417 c -0.0561,0.371581 0.335578,0.6875 0.773438,0.6875 l 3.351562,0 c 0.43786,0 0.781684,-0.321032 0.802083,-0.6875 l 0.02865,-1.260417 c 0.0255,-0.366468 -0.335578,-0.6875 -0.773437,-0.6875 l -3.208333,0 z m 6.072916,0 c -0.437859,0 -0.773437,0.315918 -0.773437,0.6875 l -0.05729,1.260417 c 0,0.371581 0.364225,0.6875 0.802083,0.6875 l 3.208334,0 c 0.437859,0 0.802082,-0.315918 0.802083,-0.6875 l -0.05729,-1.260417 c 0,-0.371582 -0.364223,-0.6875 -0.802083,-0.6875 l -3.122396,0 z m 6.015625,0 c -0.437859,0 -0.817383,0.315918 -0.802083,0.6875 l 0.05729,1.260417 c 0.0204,0.366467 0.364224,0.6875 0.802083,0.6875 l 3.322917,0 c 0.437859,0 0.868381,-0.310803 0.802083,-0.6875 l -0.200521,-1.260417 c -0.051,-0.371582 -0.335579,-0.6875 -0.773437,-0.6875 l -3.208334,0 z m -12.632812,3.924479 c -0.471541,0 -0.78993,0.321033 -0.830729,0.6875 l -0.229167,1.260417 c -0.0408,0.371582 0.387834,0.6875 0.859375,0.6875 l 3.666666,0 c 0.471541,0 0.838977,-0.326148 0.859375,-0.6875 l 0.02865,-1.260417 c 0.0204,-0.361352 -0.387835,-0.6875 -0.859375,-0.6875 l -3.494791,0 z m 6.53125,0 c -0.471542,0 -0.859376,0.315918 -0.859375,0.6875 l -0.05729,1.260417 c 0,0.371582 0.387833,0.6875 0.859375,0.6875 l 3.4375,0 c 0.471541,0 0.859375,-0.315918 0.859375,-0.6875 l -0.05729,-1.260417 c 0,-0.371582 -0.387835,-0.6875 -0.859375,-0.6875 l -3.322916,0 z m 6.330729,0 c -0.471542,0 -0.846029,0.315918 -0.830729,0.6875 l 0.05729,1.260417 c 0.0102,0.371582 0.359188,0.6875 0.83073,0.6875 l 3.63802,0 c 0.471541,0 0.915473,-0.321032 0.859375,-0.6875 l -0.20052,-1.260417 c -0.0459,-0.371582 -0.387834,-0.6875 -0.859375,-0.6875 l -3.494792,0 z" />
</defs>

<use id="1" style="fill:#1793D1" xlink:href="#path-main" />



</svg>
