<?xml version="1.0" encoding="UTF-8" standalone="no"?>
<svg
   xmlns:dc="http://purl.org/dc/elements/1.1/"
   xmlns:cc="http://creativecommons.org/ns#"
   xmlns:rdf="http://www.w3.org/1999/02/22-rdf-syntax-ns#"
   xmlns:svg="http://www.w3.org/2000/svg"
   xmlns="http://www.w3.org/2000/svg"
   xmlns:sodipodi="http://sodipodi.sourceforge.net/DTD/sodipodi-0.dtd"
   xmlns:inkscape="http://www.inkscape.org/namespaces/inkscape"
   height="512"
   width="512"
   version="1.1"
   viewBox="0 0 512 512"
   id="svg2"
   inkscape:version="0.91 r"
   sodipodi:docname="media-optical-mixed-cd.svg">
  <defs
     id="defs417" />
  <sodipodi:namedview
     pagecolor="#ffffff"
     bordercolor="#666666"
     borderopacity="0.75"
     objecttolerance="10"
     gridtolerance="10"
     guidetolerance="10"
     inkscape:pageopacity="0"
     inkscape:pageshadow="2"
     inkscape:window-width="640"
     inkscape:window-height="480"
     id="namedview415"
     showgrid="false"
     inkscape:zoom="0.4609375"
     inkscape:cx="256"
     inkscape:cy="256"
     inkscape:window-x="0"
     inkscape:window-y="0"
     inkscape:window-maximized="0"
     inkscape:current-layer="svg2" />
  <metadata
     id="metadata830">
    <rdf:RDF>
      <cc:Work
         rdf:about="">
        <dc:format>image/svg+xml</dc:format>
        <dc:type
           rdf:resource="http://purl.org/dc/dcmitype/StillImage" />
      </cc:Work>
    </rdf:RDF>
  </metadata>
  <text
     id="text8"
     font-size="129.23"
     line-height="125%"
     y="231.36"
     x="729.64"
     font-family="Gentium Book Basic"
     word-spacing="0"
     letter-spacing="0">
    <tspan
       id="tspan10"
       y="231.36"
       x="729.64" />
  </text>
  <text
     id="text12"
     transform="scale(4.0128 .2492)"
     font-size="46.954"
     y="579.25"
     x="378.91"
     font-family="Arial"
     text-anchor="middle" />
  <text
     id="text14"
     font-size="129.23"
     line-height="125%"
     y="151.36"
     x="1310.91"
     font-family="Gentium Book Basic"
     word-spacing="0"
     letter-spacing="0">
    <tspan
       id="tspan16"
       y="151.36"
       x="1310.91" />
  </text>
  <text
     id="text18"
     transform="scale(4.0128 .2492)"
     font-size="46.954"
     y="258.22"
     x="523.76"
     font-family="Arial"
     text-anchor="middle" />
  <text
     id="text20"
     font-size="129.23"
     line-height="125%"
     y="-29.901"
     x="239.33"
     font-family="Gentium Book Basic"
     word-spacing="0"
     letter-spacing="0">
    <tspan
       id="tspan22"
       y="-29.901"
       x="239.33" />
  </text>
  <text
     id="text24"
     transform="scale(4.0128 .2492)"
     font-size="46.954"
     y="-469.14"
     x="256.72"
     font-family="Arial"
     text-anchor="middle" />
  <text
     id="text26"
     font-size="129.23"
     line-height="125%"
     y="-246.37"
     x="1337.38"
     font-family="Gentium Book Basic"
     word-spacing="0"
     letter-spacing="0">
    <tspan
       id="tspan28"
       y="-246.37"
       x="1337.38" />
  </text>
  <text
     id="text30"
     transform="scale(4.0128 .2492)"
     font-size="46.954"
     y="-1337.81"
     x="530.36"
     font-family="Arial"
     text-anchor="middle" />
  <text
     id="text32"
     font-size="129.23"
     line-height="125%"
     y="-326.38"
     x="1918.65"
     font-family="Gentium Book Basic"
     word-spacing="0"
     letter-spacing="0">
    <tspan
       id="tspan34"
       y="-326.38"
       x="1918.65" />
  </text>
  <text
     id="text36"
     transform="scale(4.0128 .2492)"
     font-size="46.954"
     y="-1658.85"
     x="675.21"
     font-family="Arial"
     text-anchor="middle" />
  <text
     id="text38"
     font-size="129.23"
     line-height="125%"
     y="-798.78"
     x="1529.53"
     font-family="Gentium Book Basic"
     word-spacing="0"
     letter-spacing="0">
    <tspan
       id="tspan40"
       y="-798.78"
       x="1529.53" />
  </text>
  <text
     id="text42"
     transform="scale(4.0128 .2492)"
     font-size="46.954"
     y="-3554.51"
     x="578.24"
     font-family="Arial"
     text-anchor="middle" />
  <text
     id="text44"
     font-size="129.23"
     line-height="125%"
     y="-878.78"
     x="2110.79"
     font-family="Gentium Book Basic"
     word-spacing="0"
     letter-spacing="0">
    <tspan
       id="tspan46"
       y="-878.78"
       x="2110.79" />
  </text>
  <text
     id="text48"
     transform="scale(4.0128 .2492)"
     font-size="46.954"
     y="-3875.54"
     x="723.09"
     font-family="Arial"
     text-anchor="middle" />
  <g
     id="g50"
     font-family="Gentium Book Basic"
     line-height="125%"
     word-spacing="0"
     letter-spacing="0">
    <text
       id="text52"
       y="535.94"
       x="277.99"
       font-size="208.33">
      <tspan
         id="tspan54"
         y="535.94"
         x="277.99" />
    </text>
    <text
       id="text56"
       y="-11.341"
       x="-307.18"
       font-size="200">
      <tspan
         id="tspan58"
         y="-11.341"
         x="-307.18" />
    </text>
  </g>
  <text
     id="text60"
     transform="scale(4.0128 .2492)"
     font-size="72.67"
     y="-585.88"
     x="228.47"
     font-family="Arial"
     text-anchor="middle" />
  <text
     id="text62"
     font-size="200"
     line-height="125%"
     y="41.802"
     x="438.2"
     font-family="Gentium Book Basic"
     word-spacing="0"
     letter-spacing="0">
    <tspan
       id="tspan64"
       y="41.802"
       x="438.2" />
  </text>
  <text
     id="text66"
     transform="scale(4.0128 .2492)"
     font-size="72.67"
     y="-372.63"
     x="414.22"
     font-family="Arial"
     text-anchor="middle" />
  <text
     id="text68"
     font-size="200"
     line-height="125%"
     y="-82.02"
     x="1337.81"
     font-family="Gentium Book Basic"
     word-spacing="0"
     letter-spacing="0">
    <tspan
       id="tspan70"
       y="-82.02"
       x="1337.81" />
  </text>
  <text
     id="text72"
     transform="scale(4.0128 .2492)"
     font-size="72.67"
     y="-869.49"
     x="638.4"
     font-family="Arial"
     text-anchor="middle" />
  <text
     id="text74"
     font-size="200"
     line-height="125%"
     y="-134.65"
     x="465.66"
     font-family="Gentium Book Basic"
     word-spacing="0"
     letter-spacing="0">
    <tspan
       id="tspan76"
       y="-134.65"
       x="465.66" />
  </text>
  <text
     id="text78"
     transform="scale(4.0128 .2492)"
     font-size="72.67"
     y="-1080.71"
     x="421.06"
     font-family="Arial"
     text-anchor="middle" />
  <text
     id="text80"
     font-size="200"
     line-height="125%"
     y="-258.47"
     x="1365.27"
     font-family="Gentium Book Basic"
     word-spacing="0"
     letter-spacing="0">
    <tspan
       id="tspan82"
       y="-258.47"
       x="1365.27" />
  </text>
  <text
     id="text84"
     transform="scale(4.0128 .2492)"
     font-size="72.67"
     y="-1577.57"
     x="645.24"
     font-family="Arial"
     text-anchor="middle" />
  <text
     id="text86"
     font-size="200"
     line-height="125%"
     y="317.23"
     x="-2544.32"
     font-family="Gentium Book Basic"
     word-spacing="0"
     letter-spacing="0">
    <tspan
       id="tspan88"
       y="317.23"
       x="-2544.32" />
  </text>
  <text
     id="text90"
     transform="scale(4.0128 .2492)"
     font-size="72.67"
     y="732.62"
     x="-329.03"
     font-family="Arial"
     text-anchor="middle" />
  <text
     id="text92"
     font-size="200"
     line-height="125%"
     y="81.8"
     x="-616.04"
     font-family="Gentium Book Basic"
     word-spacing="0"
     letter-spacing="0">
    <tspan
       id="tspan94"
       y="81.8"
       x="-616.04" />
  </text>
  <text
     id="text96"
     transform="scale(4.0128 .2492)"
     font-size="72.67"
     y="-212.12"
     x="151.5"
     font-family="Arial"
     text-anchor="middle" />
  <text
     id="text98"
     font-size="200"
     line-height="125%"
     y="134.94"
     x="129.34"
     font-family="Gentium Book Basic"
     word-spacing="0"
     letter-spacing="0">
    <tspan
       id="tspan100"
       y="134.94"
       x="129.34" />
  </text>
  <text
     id="text102"
     transform="scale(4.0128 .2492)"
     font-size="72.67"
     y="1.138"
     x="337.25"
     font-family="Arial"
     text-anchor="middle" />
  <text
     id="text104"
     font-size="200"
     line-height="125%"
     y="11.127"
     x="1028.95"
     font-family="Gentium Book Basic"
     word-spacing="0"
     letter-spacing="0">
    <tspan
       id="tspan106"
       y="11.127"
       x="1028.95" />
  </text>
  <text
     id="text108"
     transform="scale(4.0128 .2492)"
     font-size="72.67"
     y="-495.72"
     x="561.43"
     font-family="Arial"
     text-anchor="middle" />
  <text
     id="text110"
     font-size="200"
     line-height="125%"
     y="-41.51"
     x="156.8"
     font-family="Gentium Book Basic"
     word-spacing="0"
     letter-spacing="0">
    <tspan
       id="tspan112"
       y="-41.51"
       x="156.8" />
  </text>
  <text
     id="text114"
     transform="scale(4.0128 .2492)"
     font-size="72.67"
     y="-706.95"
     x="344.09"
     font-family="Arial"
     text-anchor="middle" />
  <text
     id="text116"
     font-size="200"
     line-height="125%"
     y="-165.33"
     x="1056.42"
     font-family="Gentium Book Basic"
     word-spacing="0"
     letter-spacing="0">
    <tspan
       id="tspan118"
       y="-165.33"
       x="1056.42" />
  </text>
  <text
     id="text120"
     transform="scale(4.0128 .2492)"
     font-size="72.67"
     y="-1203.81"
     x="568.28"
     font-family="Arial"
     text-anchor="middle" />
  <text
     id="text122"
     font-size="200"
     line-height="125%"
     y="410.37"
     x="-2853.18"
     font-family="Gentium Book Basic"
     word-spacing="0"
     letter-spacing="0">
    <tspan
       id="tspan124"
       y="410.37"
       x="-2853.18" />
  </text>
  <text
     id="text126"
     transform="scale(4.0128 .2492)"
     font-size="72.67"
     y="1106.39"
     x="-406"
     font-family="Arial"
     text-anchor="middle" />
  <text
     id="text128"
     font-size="200"
     line-height="125%"
     y="-35.06"
     x="-1330.61"
     font-family="Gentium Book Basic"
     word-spacing="0"
     letter-spacing="0">
    <tspan
       id="tspan130"
       y="-35.06"
       x="-1330.61" />
  </text>
  <text
     id="text132"
     transform="scale(4.0128 .2492)"
     font-size="72.67"
     y="-681.04"
     x="-26.571"
     font-family="Arial"
     text-anchor="middle" />
  <text
     id="text134"
     font-size="200"
     line-height="125%"
     y="18.09"
     x="-585.23"
     font-family="Gentium Book Basic"
     word-spacing="0"
     letter-spacing="0">
    <tspan
       id="tspan136"
       y="18.09"
       x="-585.23" />
  </text>
  <text
     id="text138"
     transform="scale(4.0128 .2492)"
     font-size="72.67"
     y="-467.79"
     x="159.18"
     font-family="Arial"
     text-anchor="middle" />
  <text
     id="text140"
     font-size="200"
     line-height="125%"
     y="-105.73"
     x="314.38"
     font-family="Gentium Book Basic"
     word-spacing="0"
     letter-spacing="0">
    <tspan
       id="tspan142"
       y="-105.73"
       x="314.38" />
  </text>
  <text
     id="text144"
     transform="scale(4.0128 .2492)"
     font-size="72.67"
     y="-964.65"
     x="383.36"
     font-family="Arial"
     text-anchor="middle" />
  <text
     id="text146"
     font-size="200"
     line-height="125%"
     y="-158.37"
     x="-557.77"
     font-family="Gentium Book Basic"
     word-spacing="0"
     letter-spacing="0">
    <tspan
       id="tspan148"
       y="-158.37"
       x="-557.77" />
  </text>
  <text
     id="text150"
     transform="scale(4.0128 .2492)"
     font-size="72.67"
     y="-1175.88"
     x="166.02"
     font-family="Arial"
     text-anchor="middle" />
  <text
     id="text152"
     font-size="200"
     line-height="125%"
     y="-282.18"
     x="341.85"
     font-family="Gentium Book Basic"
     word-spacing="0"
     letter-spacing="0">
    <tspan
       id="tspan154"
       y="-282.18"
       x="341.85" />
  </text>
  <text
     id="text156"
     transform="scale(4.0128 .2492)"
     font-size="72.67"
     y="-1672.73"
     x="390.2"
     font-family="Arial"
     text-anchor="middle" />
  <text
     id="text158"
     font-size="200"
     line-height="125%"
     y="293.52"
     x="-3567.75"
     font-family="Gentium Book Basic"
     word-spacing="0"
     letter-spacing="0">
    <tspan
       id="tspan160"
       y="293.52"
       x="-3567.75" />
  </text>
  <text
     id="text162"
     transform="scale(4.0128 .2492)"
     font-size="72.67"
     y="637.46"
     x="-584.07"
     font-family="Arial"
     text-anchor="middle" />
  <text
     id="text164"
     font-size="129.23"
     line-height="125%"
     y="231.36"
     x="729.64"
     font-family="Gentium Book Basic"
     word-spacing="0"
     letter-spacing="0">
    <tspan
       id="tspan166"
       y="231.36"
       x="729.64" />
  </text>
  <text
     id="text168"
     transform="scale(4.0128 .2492)"
     font-size="46.954"
     y="579.25"
     x="378.91"
     font-family="Arial"
     text-anchor="middle" />
  <text
     id="text170"
     font-size="129.23"
     line-height="125%"
     y="151.36"
     x="1310.91"
     font-family="Gentium Book Basic"
     word-spacing="0"
     letter-spacing="0">
    <tspan
       id="tspan172"
       y="151.36"
       x="1310.91" />
  </text>
  <text
     id="text174"
     transform="scale(4.0128 .2492)"
     font-size="46.954"
     y="258.22"
     x="523.76"
     font-family="Arial"
     text-anchor="middle" />
  <text
     id="text176"
     font-size="129.23"
     line-height="125%"
     y="-29.901"
     x="239.33"
     font-family="Gentium Book Basic"
     word-spacing="0"
     letter-spacing="0">
    <tspan
       id="tspan178"
       y="-29.901"
       x="239.33" />
  </text>
  <text
     id="text180"
     transform="scale(4.0128 .2492)"
     font-size="46.954"
     y="-469.14"
     x="256.72"
     font-family="Arial"
     text-anchor="middle" />
  <text
     id="text182"
     font-size="129.23"
     line-height="125%"
     y="-246.37"
     x="1337.38"
     font-family="Gentium Book Basic"
     word-spacing="0"
     letter-spacing="0">
    <tspan
       id="tspan184"
       y="-246.37"
       x="1337.38" />
  </text>
  <text
     id="text186"
     transform="scale(4.0128 .2492)"
     font-size="46.954"
     y="-1337.8"
     x="530.36"
     font-family="Arial"
     text-anchor="middle" />
  <text
     id="text188"
     font-size="129.23"
     line-height="125%"
     y="-326.38"
     x="1918.65"
     font-family="Gentium Book Basic"
     word-spacing="0"
     letter-spacing="0">
    <tspan
       id="tspan190"
       y="-326.38"
       x="1918.65" />
  </text>
  <text
     id="text192"
     transform="scale(4.0128 .2492)"
     font-size="46.954"
     y="-1658.84"
     x="675.21"
     font-family="Arial"
     text-anchor="middle" />
  <text
     id="text194"
     font-size="129.23"
     line-height="125%"
     y="-798.78"
     x="1529.53"
     font-family="Gentium Book Basic"
     word-spacing="0"
     letter-spacing="0">
    <tspan
       id="tspan196"
       y="-798.78"
       x="1529.53" />
  </text>
  <text
     id="text198"
     transform="scale(4.0128 .2492)"
     font-size="46.954"
     y="-3554.49"
     x="578.24"
     font-family="Arial"
     text-anchor="middle" />
  <text
     id="text200"
     font-size="129.23"
     line-height="125%"
     y="-878.78"
     x="2110.79"
     font-family="Gentium Book Basic"
     word-spacing="0"
     letter-spacing="0">
    <tspan
       id="tspan202"
       y="-878.78"
       x="2110.79" />
  </text>
  <text
     id="text204"
     transform="scale(4.0128 .2492)"
     font-size="46.954"
     y="-3875.52"
     x="723.09"
     font-family="Arial"
     text-anchor="middle" />
  <g
     id="g206"
     font-family="Gentium Book Basic"
     line-height="125%"
     word-spacing="0"
     letter-spacing="0">
    <text
       id="text208"
       y="535.94"
       x="277.99"
       font-size="208.33">
      <tspan
         id="tspan210"
         y="535.94"
         x="277.99" />
    </text>
    <text
       id="text212"
       y="227.12"
       x="104.96"
       font-size="129.23">
      <tspan
         id="tspan214"
         y="227.12"
         x="104.96" />
    </text>
  </g>
  <text
     id="text216"
     transform="scale(4.0128 .2492)"
     font-size="46.954"
     y="562.23"
     x="223.24"
     font-family="Arial"
     text-anchor="middle" />
  <text
     id="text218"
     font-size="129.23"
     line-height="125%"
     y="147.11"
     x="686.23"
     font-family="Gentium Book Basic"
     word-spacing="0"
     letter-spacing="0">
    <tspan
       id="tspan220"
       y="147.11"
       x="686.23" />
  </text>
  <text
     id="text222"
     transform="scale(4.0128 .2492)"
     font-size="46.954"
     y="241.19"
     x="368.09"
     font-family="Arial"
     text-anchor="middle" />
  <text
     id="text224"
     font-size="129.23"
     line-height="125%"
     y="-34.14"
     x="-385.35"
     font-family="Gentium Book Basic"
     word-spacing="0"
     letter-spacing="0">
    <tspan
       id="tspan226"
       y="-34.14"
       x="-385.35" />
  </text>
  <text
     id="text228"
     transform="scale(4.0128 .2492)"
     font-size="46.954"
     y="-486.16"
     x="101.05"
     font-family="Arial"
     text-anchor="middle" />
  <text
     id="text230"
     font-size="129.23"
     line-height="125%"
     y="-250.62"
     x="712.7"
     font-family="Gentium Book Basic"
     word-spacing="0"
     letter-spacing="0">
    <tspan
       id="tspan232"
       y="-250.62"
       x="712.7" />
  </text>
  <text
     id="text234"
     transform="scale(4.0128 .2492)"
     font-size="46.954"
     y="-1354.84"
     x="374.69"
     font-family="Arial"
     text-anchor="middle" />
  <text
     id="text236"
     font-size="129.23"
     line-height="125%"
     y="-330.62"
     x="1293.97"
     font-family="Gentium Book Basic"
     word-spacing="0"
     letter-spacing="0">
    <tspan
       id="tspan238"
       y="-330.62"
       x="1293.97" />
  </text>
  <text
     id="text240"
     transform="scale(4.0128 .2492)"
     font-size="46.954"
     y="-1675.87"
     x="519.54"
     font-family="Arial"
     text-anchor="middle" />
  <text
     id="text242"
     font-size="129.23"
     line-height="125%"
     y="-803.02"
     x="904.85"
     font-family="Gentium Book Basic"
     word-spacing="0"
     letter-spacing="0">
    <tspan
       id="tspan244"
       y="-803.02"
       x="904.85" />
  </text>
  <text
     id="text246"
     transform="scale(4.0128 .2492)"
     font-size="46.954"
     y="-3571.53"
     x="422.57"
     font-family="Arial"
     text-anchor="middle" />
  <text
     id="text248"
     font-size="129.23"
     line-height="125%"
     y="-883.02"
     x="1486.12"
     font-family="Gentium Book Basic"
     word-spacing="0"
     letter-spacing="0">
    <tspan
       id="tspan250"
       y="-883.02"
       x="1486.12" />
  </text>
  <text
     id="text252"
     transform="scale(4.0128 .2492)"
     font-size="46.954"
     y="-3892.57"
     x="567.42"
     font-family="Arial"
     text-anchor="middle" />
  <g
     id="g254"
     font-family="Gentium Book Basic"
     line-height="125%"
     word-spacing="0"
     letter-spacing="0">
    <text
       id="text256"
       y="531.69"
       x="-346.69"
       font-size="208.33">
      <tspan
         id="tspan258"
         y="531.69"
         x="-346.69" />
    </text>
    <text
       id="text260"
       y="-15.584"
       x="-931.86"
       font-size="200">
      <tspan
         id="tspan262"
         y="-15.584"
         x="-931.86" />
    </text>
  </g>
  <text
     id="text264"
     transform="scale(4.0128 .2492)"
     font-size="72.67"
     y="-602.91"
     x="72.797"
     font-family="Arial"
     text-anchor="middle" />
  <text
     id="text266"
     font-size="200"
     line-height="125%"
     y="37.559"
     x="-186.48"
     font-family="Gentium Book Basic"
     word-spacing="0"
     letter-spacing="0">
    <tspan
       id="tspan268"
       y="37.559"
       x="-186.48" />
  </text>
  <text
     id="text270"
     transform="scale(4.0128 .2492)"
     font-size="72.67"
     y="-389.66"
     x="258.55"
     font-family="Arial"
     text-anchor="middle" />
  <text
     id="text272"
     font-size="200"
     line-height="125%"
     y="-86.26"
     x="713.13"
     font-family="Gentium Book Basic"
     word-spacing="0"
     letter-spacing="0">
    <tspan
       id="tspan274"
       y="-86.26"
       x="713.13" />
  </text>
  <text
     id="text276"
     transform="scale(4.0128 .2492)"
     font-size="72.67"
     y="-886.51"
     x="482.73"
     font-family="Arial"
     text-anchor="middle" />
  <text
     id="text278"
     font-size="200"
     line-height="125%"
     y="-138.9"
     x="-159.02"
     font-family="Gentium Book Basic"
     word-spacing="0"
     letter-spacing="0">
    <tspan
       id="tspan280"
       y="-138.9"
       x="-159.02" />
  </text>
  <text
     id="text282"
     transform="scale(4.0128 .2492)"
     font-size="72.67"
     y="-1097.74"
     x="265.39"
     font-family="Arial"
     text-anchor="middle" />
  <text
     id="text284"
     font-size="200"
     line-height="125%"
     y="-262.71"
     x="740.6"
     font-family="Gentium Book Basic"
     word-spacing="0"
     letter-spacing="0">
    <tspan
       id="tspan286"
       y="-262.71"
       x="740.6" />
  </text>
  <text
     id="text288"
     transform="scale(4.0128 .2492)"
     font-size="72.67"
     y="-1594.6"
     x="489.57"
     font-family="Arial"
     text-anchor="middle" />
  <text
     id="text290"
     font-size="200"
     line-height="125%"
     y="312.99"
     x="-3169"
     font-family="Gentium Book Basic"
     word-spacing="0"
     letter-spacing="0">
    <tspan
       id="tspan292"
       y="312.99"
       x="-3169" />
  </text>
  <text
     id="text294"
     transform="scale(4.0128 .2492)"
     font-size="72.67"
     y="715.59"
     x="-484.7"
     font-family="Arial"
     text-anchor="middle" />
  <text
     id="text296"
     font-size="200"
     line-height="125%"
     y="77.56"
     x="-1240.72"
     font-family="Gentium Book Basic"
     word-spacing="0"
     letter-spacing="0">
    <tspan
       id="tspan298"
       y="77.56"
       x="-1240.72" />
  </text>
  <text
     id="text300"
     transform="scale(4.0128 .2492)"
     font-size="72.67"
     y="-229.14"
     x="-4.17"
     font-family="Arial"
     text-anchor="middle" />
  <text
     id="text302"
     font-size="200"
     line-height="125%"
     y="130.7"
     x="-495.34"
     font-family="Gentium Book Basic"
     word-spacing="0"
     letter-spacing="0">
    <tspan
       id="tspan304"
       y="130.7"
       x="-495.34" />
  </text>
  <text
     id="text306"
     transform="scale(4.0128 .2492)"
     font-size="72.67"
     y="-15.889"
     x="181.58"
     font-family="Arial"
     text-anchor="middle" />
  <text
     id="text308"
     font-size="200"
     line-height="125%"
     y="6.884"
     x="404.27"
     font-family="Gentium Book Basic"
     word-spacing="0"
     letter-spacing="0">
    <tspan
       id="tspan310"
       y="6.884"
       x="404.27" />
  </text>
  <text
     id="text312"
     transform="scale(4.0128 .2492)"
     font-size="72.67"
     y="-512.75"
     x="405.76"
     font-family="Arial"
     text-anchor="middle" />
  <text
     id="text314"
     font-size="200"
     line-height="125%"
     y="-45.754"
     x="-467.88"
     font-family="Gentium Book Basic"
     word-spacing="0"
     letter-spacing="0">
    <tspan
       id="tspan316"
       y="-45.754"
       x="-467.88" />
  </text>
  <text
     id="text318"
     transform="scale(4.0128 .2492)"
     font-size="72.67"
     y="-723.97"
     x="188.42"
     font-family="Arial"
     text-anchor="middle" />
  <text
     id="text320"
     font-size="200"
     line-height="125%"
     y="-169.57"
     x="431.74"
     font-family="Gentium Book Basic"
     word-spacing="0"
     letter-spacing="0">
    <tspan
       id="tspan322"
       y="-169.57"
       x="431.74" />
  </text>
  <text
     id="text324"
     transform="scale(4.0128 .2492)"
     font-size="72.67"
     y="-1220.83"
     x="412.61"
     font-family="Arial"
     text-anchor="middle" />
  <text
     id="text326"
     font-size="200"
     line-height="125%"
     y="406.13"
     x="-3477.86"
     font-family="Gentium Book Basic"
     word-spacing="0"
     letter-spacing="0">
    <tspan
       id="tspan328"
       y="406.13"
       x="-3477.86" />
  </text>
  <text
     id="text330"
     transform="scale(4.0128 .2492)"
     font-size="72.67"
     y="1089.36"
     x="-561.67"
     font-family="Arial"
     text-anchor="middle" />
  <text
     id="text332"
     font-size="200"
     line-height="125%"
     y="-39.3"
     x="-1955.29"
     font-family="Gentium Book Basic"
     word-spacing="0"
     letter-spacing="0">
    <tspan
       id="tspan334"
       y="-39.3"
       x="-1955.29" />
  </text>
  <text
     id="text336"
     transform="scale(4.0128 .2492)"
     font-size="72.67"
     y="-698.07"
     x="-182.24"
     font-family="Arial"
     text-anchor="middle" />
  <text
     id="text338"
     font-size="200"
     line-height="125%"
     y="13.844"
     x="-1209.91"
     font-family="Gentium Book Basic"
     word-spacing="0"
     letter-spacing="0">
    <tspan
       id="tspan340"
       y="13.844"
       x="-1209.91" />
  </text>
  <text
     id="text342"
     transform="scale(4.0128 .2492)"
     font-size="72.67"
     y="-484.82"
     x="3.507"
     font-family="Arial"
     text-anchor="middle" />
  <text
     id="text344"
     font-size="200"
     line-height="125%"
     y="-109.97"
     x="-310.3"
     font-family="Gentium Book Basic"
     word-spacing="0"
     letter-spacing="0">
    <tspan
       id="tspan346"
       y="-109.97"
       x="-310.3" />
  </text>
  <text
     id="text348"
     transform="scale(4.0128 .2492)"
     font-size="72.67"
     y="-981.68"
     x="227.69"
     font-family="Arial"
     text-anchor="middle" />
  <text
     id="text350"
     font-size="200"
     line-height="125%"
     y="-162.61"
     x="-1182.45"
     font-family="Gentium Book Basic"
     word-spacing="0"
     letter-spacing="0">
    <tspan
       id="tspan352"
       y="-162.61"
       x="-1182.45" />
  </text>
  <text
     id="text354"
     transform="scale(4.0128 .2492)"
     font-size="72.67"
     y="-1192.9"
     x="10.351"
     font-family="Arial"
     text-anchor="middle" />
  <text
     id="text356"
     font-size="200"
     line-height="125%"
     y="-286.43"
     x="-282.83"
     font-family="Gentium Book Basic"
     word-spacing="0"
     letter-spacing="0">
    <tspan
       id="tspan358"
       y="-286.43"
       x="-282.83" />
  </text>
  <text
     id="text360"
     transform="scale(4.0128 .2492)"
     font-size="72.67"
     y="-1689.76"
     x="234.54"
     font-family="Arial"
     text-anchor="middle" />
  <text
     id="text362"
     font-size="200"
     line-height="125%"
     y="289.27"
     x="-4192.43"
     font-family="Gentium Book Basic"
     word-spacing="0"
     letter-spacing="0">
    <tspan
       id="tspan364"
       y="289.27"
       x="-4192.43" />
  </text>
  <text
     id="text366"
     transform="scale(4.0128 .2492)"
     font-size="72.67"
     y="620.43"
     x="-739.74"
     font-family="Arial"
     text-anchor="middle" />
  <text
     id="text368"
     font-size="129.23"
     line-height="125%"
     y="231.36"
     x="729.64"
     font-family="Gentium Book Basic"
     word-spacing="0"
     letter-spacing="0">
    <tspan
       id="tspan370"
       y="231.36"
       x="729.64" />
  </text>
  <text
     id="text372"
     transform="scale(4.0128 .2492)"
     font-size="46.954"
     y="579.25"
     x="378.91"
     font-family="Arial"
     text-anchor="middle" />
  <text
     id="text374"
     font-size="129.23"
     line-height="125%"
     y="151.36"
     x="1310.91"
     font-family="Gentium Book Basic"
     word-spacing="0"
     letter-spacing="0">
    <tspan
       id="tspan376"
       y="151.36"
       x="1310.91" />
  </text>
  <text
     id="text378"
     transform="scale(4.0128 .2492)"
     font-size="46.954"
     y="258.22"
     x="523.76"
     font-family="Arial"
     text-anchor="middle" />
  <text
     id="text380"
     font-size="129.23"
     line-height="125%"
     y="-29.901"
     x="239.33"
     font-family="Gentium Book Basic"
     word-spacing="0"
     letter-spacing="0">
    <tspan
       id="tspan382"
       y="-29.901"
       x="239.33" />
  </text>
  <text
     id="text384"
     transform="scale(4.0128 .2492)"
     font-size="46.954"
     y="-469.14"
     x="256.72"
     font-family="Arial"
     text-anchor="middle" />
  <text
     id="text386"
     font-size="129.23"
     line-height="125%"
     y="-246.37"
     x="1337.38"
     font-family="Gentium Book Basic"
     word-spacing="0"
     letter-spacing="0">
    <tspan
       id="tspan388"
       y="-246.37"
       x="1337.38" />
  </text>
  <text
     id="text390"
     transform="scale(4.0128 .2492)"
     font-size="46.954"
     y="-1337.8"
     x="530.36"
     font-family="Arial"
     text-anchor="middle" />
  <text
     id="text392"
     font-size="129.23"
     line-height="125%"
     y="-326.38"
     x="1918.65"
     font-family="Gentium Book Basic"
     word-spacing="0"
     letter-spacing="0">
    <tspan
       id="tspan394"
       y="-326.38"
       x="1918.65" />
  </text>
  <text
     id="text396"
     transform="scale(4.0128 .2492)"
     font-size="46.954"
     y="-1658.84"
     x="675.21"
     font-family="Arial"
     text-anchor="middle" />
  <text
     id="text398"
     font-size="129.23"
     line-height="125%"
     y="-798.78"
     x="1529.53"
     font-family="Gentium Book Basic"
     word-spacing="0"
     letter-spacing="0">
    <tspan
       id="tspan400"
       y="-798.78"
       x="1529.53" />
  </text>
  <text
     id="text402"
     transform="scale(4.0128 .2492)"
     font-size="46.954"
     y="-3554.49"
     x="578.24"
     font-family="Arial"
     text-anchor="middle" />
  <text
     id="text404"
     font-size="129.23"
     line-height="125%"
     y="-878.78"
     x="2110.79"
     font-family="Gentium Book Basic"
     word-spacing="0"
     letter-spacing="0">
    <tspan
       id="tspan406"
       y="-878.78"
       x="2110.79" />
  </text>
  <text
     id="text408"
     transform="scale(4.0128 .2492)"
     font-size="46.954"
     y="-3875.52"
     x="723.09"
     font-family="Arial"
     text-anchor="middle" />
  <g
     id="g410"
     font-family="Gentium Book Basic"
     line-height="125%"
     word-spacing="0"
     letter-spacing="0">
    <text
       id="text412"
       y="535.94"
       x="277.99"
       font-size="208.33">
      <tspan
         id="tspan414"
         y="535.94"
         x="277.99" />
    </text>
    <text
       id="text416"
       y="-11.341"
       x="-307.18"
       font-size="200">
      <tspan
         id="tspan418"
         y="-11.341"
         x="-307.18" />
    </text>
  </g>
  <text
     id="text420"
     transform="scale(4.0128 .2492)"
     font-size="72.67"
     y="-585.88"
     x="228.47"
     font-family="Arial"
     text-anchor="middle" />
  <text
     id="text422"
     font-size="200"
     line-height="125%"
     y="41.802"
     x="438.2"
     font-family="Gentium Book Basic"
     word-spacing="0"
     letter-spacing="0">
    <tspan
       id="tspan424"
       y="41.802"
       x="438.2" />
  </text>
  <text
     id="text426"
     transform="scale(4.0128 .2492)"
     font-size="72.67"
     y="-372.63"
     x="414.22"
     font-family="Arial"
     text-anchor="middle" />
  <text
     id="text428"
     font-size="200"
     line-height="125%"
     y="-82.02"
     x="1337.81"
     font-family="Gentium Book Basic"
     word-spacing="0"
     letter-spacing="0">
    <tspan
       id="tspan430"
       y="-82.02"
       x="1337.81" />
  </text>
  <text
     id="text432"
     transform="scale(4.0128 .2492)"
     font-size="72.67"
     y="-869.49"
     x="638.4"
     font-family="Arial"
     text-anchor="middle" />
  <text
     id="text434"
     font-size="200"
     line-height="125%"
     y="-134.65"
     x="465.66"
     font-family="Gentium Book Basic"
     word-spacing="0"
     letter-spacing="0">
    <tspan
       id="tspan436"
       y="-134.65"
       x="465.66" />
  </text>
  <text
     id="text438"
     transform="scale(4.0128 .2492)"
     font-size="72.67"
     y="-1080.7"
     x="421.06"
     font-family="Arial"
     text-anchor="middle" />
  <text
     id="text440"
     font-size="200"
     line-height="125%"
     y="-258.47"
     x="1365.27"
     font-family="Gentium Book Basic"
     word-spacing="0"
     letter-spacing="0">
    <tspan
       id="tspan442"
       y="-258.47"
       x="1365.27" />
  </text>
  <text
     id="text444"
     transform="scale(4.0128 .2492)"
     font-size="72.67"
     y="-1577.56"
     x="645.24"
     font-family="Arial"
     text-anchor="middle" />
  <text
     id="text446"
     font-size="200"
     line-height="125%"
     y="317.23"
     x="-2544.32"
     font-family="Gentium Book Basic"
     word-spacing="0"
     letter-spacing="0">
    <tspan
       id="tspan448"
       y="317.23"
       x="-2544.32" />
  </text>
  <text
     id="text450"
     transform="scale(4.0128 .2492)"
     font-size="72.67"
     y="732.62"
     x="-329.03"
     font-family="Arial"
     text-anchor="middle" />
  <text
     id="text452"
     font-size="200"
     line-height="125%"
     y="81.8"
     x="-616.04"
     font-family="Gentium Book Basic"
     word-spacing="0"
     letter-spacing="0">
    <tspan
       id="tspan454"
       y="81.8"
       x="-616.04" />
  </text>
  <text
     id="text456"
     transform="scale(4.0128 .2492)"
     font-size="72.67"
     y="-212.12"
     x="151.5"
     font-family="Arial"
     text-anchor="middle" />
  <text
     id="text458"
     font-size="200"
     line-height="125%"
     y="134.94"
     x="129.34"
     font-family="Gentium Book Basic"
     word-spacing="0"
     letter-spacing="0">
    <tspan
       id="tspan460"
       y="134.94"
       x="129.34" />
  </text>
  <text
     id="text462"
     transform="scale(4.0128 .2492)"
     font-size="72.67"
     y="1.138"
     x="337.25"
     font-family="Arial"
     text-anchor="middle" />
  <text
     id="text464"
     font-size="200"
     line-height="125%"
     y="11.127"
     x="1028.95"
     font-family="Gentium Book Basic"
     word-spacing="0"
     letter-spacing="0">
    <tspan
       id="tspan466"
       y="11.127"
       x="1028.95" />
  </text>
  <text
     id="text468"
     transform="scale(4.0128 .2492)"
     font-size="72.67"
     y="-495.72"
     x="561.43"
     font-family="Arial"
     text-anchor="middle" />
  <text
     id="text470"
     font-size="200"
     line-height="125%"
     y="-41.51"
     x="156.8"
     font-family="Gentium Book Basic"
     word-spacing="0"
     letter-spacing="0">
    <tspan
       id="tspan472"
       y="-41.51"
       x="156.8" />
  </text>
  <text
     id="text474"
     transform="scale(4.0128 .2492)"
     font-size="72.67"
     y="-706.95"
     x="344.09"
     font-family="Arial"
     text-anchor="middle" />
  <text
     id="text476"
     font-size="200"
     line-height="125%"
     y="-165.33"
     x="1056.42"
     font-family="Gentium Book Basic"
     word-spacing="0"
     letter-spacing="0">
    <tspan
       id="tspan478"
       y="-165.33"
       x="1056.42" />
  </text>
  <text
     id="text480"
     transform="scale(4.0128 .2492)"
     font-size="72.67"
     y="-1203.8"
     x="568.28"
     font-family="Arial"
     text-anchor="middle" />
  <text
     id="text482"
     font-size="200"
     line-height="125%"
     y="410.37"
     x="-2853.18"
     font-family="Gentium Book Basic"
     word-spacing="0"
     letter-spacing="0">
    <tspan
       id="tspan484"
       y="410.37"
       x="-2853.18" />
  </text>
  <text
     id="text486"
     transform="scale(4.0128 .2492)"
     font-size="72.67"
     y="1106.38"
     x="-406"
     font-family="Arial"
     text-anchor="middle" />
  <text
     id="text488"
     font-size="200"
     line-height="125%"
     y="-35.06"
     x="-1330.61"
     font-family="Gentium Book Basic"
     word-spacing="0"
     letter-spacing="0">
    <tspan
       id="tspan490"
       y="-35.06"
       x="-1330.61" />
  </text>
  <text
     id="text492"
     transform="scale(4.0128 .2492)"
     font-size="72.67"
     y="-681.04"
     x="-26.571"
     font-family="Arial"
     text-anchor="middle" />
  <text
     id="text494"
     font-size="200"
     line-height="125%"
     y="18.09"
     x="-585.23"
     font-family="Gentium Book Basic"
     word-spacing="0"
     letter-spacing="0">
    <tspan
       id="tspan496"
       y="18.09"
       x="-585.23" />
  </text>
  <text
     id="text498"
     transform="scale(4.0128 .2492)"
     font-size="72.67"
     y="-467.79"
     x="159.18"
     font-family="Arial"
     text-anchor="middle" />
  <text
     id="text500"
     font-size="200"
     line-height="125%"
     y="-105.73"
     x="314.38"
     font-family="Gentium Book Basic"
     word-spacing="0"
     letter-spacing="0">
    <tspan
       id="tspan502"
       y="-105.73"
       x="314.38" />
  </text>
  <text
     id="text504"
     transform="scale(4.0128 .2492)"
     font-size="72.67"
     y="-964.65"
     x="383.36"
     font-family="Arial"
     text-anchor="middle" />
  <text
     id="text506"
     font-size="200"
     line-height="125%"
     y="-158.37"
     x="-557.77"
     font-family="Gentium Book Basic"
     word-spacing="0"
     letter-spacing="0">
    <tspan
       id="tspan508"
       y="-158.37"
       x="-557.77" />
  </text>
  <text
     id="text510"
     transform="scale(4.0128 .2492)"
     font-size="72.67"
     y="-1175.87"
     x="166.02"
     font-family="Arial"
     text-anchor="middle" />
  <text
     id="text512"
     font-size="200"
     line-height="125%"
     y="-282.18"
     x="341.85"
     font-family="Gentium Book Basic"
     word-spacing="0"
     letter-spacing="0">
    <tspan
       id="tspan514"
       y="-282.18"
       x="341.85" />
  </text>
  <text
     id="text516"
     transform="scale(4.0128 .2492)"
     font-size="72.67"
     y="-1672.72"
     x="390.2"
     font-family="Arial"
     text-anchor="middle" />
  <text
     id="text518"
     font-size="200"
     line-height="125%"
     y="293.52"
     x="-3567.75"
     font-family="Gentium Book Basic"
     word-spacing="0"
     letter-spacing="0">
    <tspan
       id="tspan520"
       y="293.52"
       x="-3567.75" />
  </text>
  <text
     id="text522"
     transform="scale(4.0128 .2492)"
     font-size="72.67"
     y="637.46"
     x="-584.07"
     font-family="Arial"
     text-anchor="middle" />
  <text
     id="text538"
     font-size="129.23"
     line-height="125%"
     y="231.36"
     x="729.64"
     font-family="Gentium Book Basic"
     word-spacing="0"
     letter-spacing="0">
    <tspan
       id="tspan540"
       y="231.36"
       x="729.64" />
  </text>
  <text
     id="text542"
     transform="scale(4.0128 .2492)"
     font-size="46.954"
     y="579.25"
     x="378.91"
     font-family="Arial"
     text-anchor="middle" />
  <text
     id="text544"
     font-size="129.23"
     line-height="125%"
     y="151.36"
     x="1310.91"
     font-family="Gentium Book Basic"
     word-spacing="0"
     letter-spacing="0">
    <tspan
       id="tspan546"
       y="151.36"
       x="1310.91" />
  </text>
  <text
     id="text548"
     transform="scale(4.0128 .2492)"
     font-size="46.954"
     y="258.22"
     x="523.76"
     font-family="Arial"
     text-anchor="middle" />
  <text
     id="text550"
     font-size="129.23"
     line-height="125%"
     y="-29.901"
     x="239.33"
     font-family="Gentium Book Basic"
     word-spacing="0"
     letter-spacing="0">
    <tspan
       id="tspan552"
       y="-29.901"
       x="239.33" />
  </text>
  <text
     id="text554"
     transform="scale(4.0128 .2492)"
     font-size="46.954"
     y="-469.14"
     x="256.72"
     font-family="Arial"
     text-anchor="middle" />
  <text
     id="text556"
     font-size="129.23"
     line-height="125%"
     y="-246.37"
     x="1337.38"
     font-family="Gentium Book Basic"
     word-spacing="0"
     letter-spacing="0">
    <tspan
       id="tspan558"
       y="-246.37"
       x="1337.38" />
  </text>
  <text
     id="text560"
     transform="scale(4.0128 .2492)"
     font-size="46.954"
     y="-1337.79"
     x="530.36"
     font-family="Arial"
     text-anchor="middle" />
  <text
     id="text562"
     font-size="129.23"
     line-height="125%"
     y="-326.38"
     x="1918.65"
     font-family="Gentium Book Basic"
     word-spacing="0"
     letter-spacing="0">
    <tspan
       id="tspan564"
       y="-326.38"
       x="1918.65" />
  </text>
  <text
     id="text566"
     transform="scale(4.0128 .2492)"
     font-size="46.954"
     y="-1658.83"
     x="675.21"
     font-family="Arial"
     text-anchor="middle" />
  <text
     id="text568"
     font-size="129.23"
     line-height="125%"
     y="-798.78"
     x="1529.53"
     font-family="Gentium Book Basic"
     word-spacing="0"
     letter-spacing="0">
    <tspan
       id="tspan570"
       y="-798.78"
       x="1529.53" />
  </text>
  <text
     id="text572"
     transform="scale(4.0128 .2492)"
     font-size="46.954"
     y="-3554.47"
     x="578.24"
     font-family="Arial"
     text-anchor="middle" />
  <text
     id="text574"
     font-size="129.23"
     line-height="125%"
     y="-878.78"
     x="2110.79"
     font-family="Gentium Book Basic"
     word-spacing="0"
     letter-spacing="0">
    <tspan
       id="tspan576"
       y="-878.78"
       x="2110.79" />
  </text>
  <text
     id="text578"
     transform="scale(4.0128 .2492)"
     font-size="46.954"
     y="-3875.5"
     x="723.09"
     font-family="Arial"
     text-anchor="middle" />
  <g
     id="g580"
     font-family="Gentium Book Basic"
     line-height="125%"
     word-spacing="0"
     letter-spacing="0">
    <text
       id="text582"
       y="535.94"
       x="277.99"
       font-size="208.33">
      <tspan
         id="tspan584"
         y="535.94"
         x="277.99" />
    </text>
    <text
       id="text586"
       y="227.12"
       x="104.96"
       font-size="129.23">
      <tspan
         id="tspan588"
         y="227.12"
         x="104.96" />
    </text>
  </g>
  <text
     id="text590"
     transform="scale(4.0128 .2492)"
     font-size="46.954"
     y="562.23"
     x="223.24"
     font-family="Arial"
     text-anchor="middle" />
  <text
     id="text592"
     font-size="129.23"
     line-height="125%"
     y="147.11"
     x="686.23"
     font-family="Gentium Book Basic"
     word-spacing="0"
     letter-spacing="0">
    <tspan
       id="tspan594"
       y="147.11"
       x="686.23" />
  </text>
  <text
     id="text596"
     transform="scale(4.0128 .2492)"
     font-size="46.954"
     y="241.19"
     x="368.09"
     font-family="Arial"
     text-anchor="middle" />
  <text
     id="text598"
     font-size="129.23"
     line-height="125%"
     y="-34.14"
     x="-385.35"
     font-family="Gentium Book Basic"
     word-spacing="0"
     letter-spacing="0">
    <tspan
       id="tspan600"
       y="-34.14"
       x="-385.35" />
  </text>
  <text
     id="text602"
     transform="scale(4.0128 .2492)"
     font-size="46.954"
     y="-486.16"
     x="101.05"
     font-family="Arial"
     text-anchor="middle" />
  <text
     id="text604"
     font-size="129.23"
     line-height="125%"
     y="-250.62"
     x="712.7"
     font-family="Gentium Book Basic"
     word-spacing="0"
     letter-spacing="0">
    <tspan
       id="tspan606"
       y="-250.62"
       x="712.7" />
  </text>
  <text
     id="text608"
     transform="scale(4.0128 .2492)"
     font-size="46.954"
     y="-1354.83"
     x="374.69"
     font-family="Arial"
     text-anchor="middle" />
  <text
     id="text610"
     font-size="129.23"
     line-height="125%"
     y="-330.62"
     x="1293.97"
     font-family="Gentium Book Basic"
     word-spacing="0"
     letter-spacing="0">
    <tspan
       id="tspan612"
       y="-330.62"
       x="1293.97" />
  </text>
  <text
     id="text614"
     transform="scale(4.0128 .2492)"
     font-size="46.954"
     y="-1675.86"
     x="519.54"
     font-family="Arial"
     text-anchor="middle" />
  <text
     id="text616"
     font-size="129.23"
     line-height="125%"
     y="-803.02"
     x="904.85"
     font-family="Gentium Book Basic"
     word-spacing="0"
     letter-spacing="0">
    <tspan
       id="tspan618"
       y="-803.02"
       x="904.85" />
  </text>
  <text
     id="text620"
     transform="scale(4.0128 .2492)"
     font-size="46.954"
     y="-3571.51"
     x="422.57"
     font-family="Arial"
     text-anchor="middle" />
  <text
     id="text622"
     font-size="129.23"
     line-height="125%"
     y="-883.02"
     x="1486.12"
     font-family="Gentium Book Basic"
     word-spacing="0"
     letter-spacing="0">
    <tspan
       id="tspan624"
       y="-883.02"
       x="1486.12" />
  </text>
  <text
     id="text626"
     transform="scale(4.0128 .2492)"
     font-size="46.954"
     y="-3892.55"
     x="567.42"
     font-family="Arial"
     text-anchor="middle" />
  <g
     id="g628"
     font-family="Gentium Book Basic"
     line-height="125%"
     word-spacing="0"
     letter-spacing="0">
    <text
       id="text630"
       y="531.69"
       x="-346.69"
       font-size="208.33">
      <tspan
         id="tspan632"
         y="531.69"
         x="-346.69" />
    </text>
    <text
       id="text634"
       y="-15.584"
       x="-931.86"
       font-size="200">
      <tspan
         id="tspan636"
         y="-15.584"
         x="-931.86" />
    </text>
  </g>
  <text
     id="text638"
     transform="scale(4.0128 .2492)"
     font-size="72.67"
     y="-602.91"
     x="72.797"
     font-family="Arial"
     text-anchor="middle" />
  <text
     id="text640"
     font-size="200"
     line-height="125%"
     y="37.559"
     x="-186.48"
     font-family="Gentium Book Basic"
     word-spacing="0"
     letter-spacing="0">
    <tspan
       id="tspan642"
       y="37.559"
       x="-186.48" />
  </text>
  <text
     id="text644"
     transform="scale(4.0128 .2492)"
     font-size="72.67"
     y="-389.66"
     x="258.55"
     font-family="Arial"
     text-anchor="middle" />
  <text
     id="text646"
     font-size="200"
     line-height="125%"
     y="-86.26"
     x="713.13"
     font-family="Gentium Book Basic"
     word-spacing="0"
     letter-spacing="0">
    <tspan
       id="tspan648"
       y="-86.26"
       x="713.13" />
  </text>
  <text
     id="text650"
     transform="scale(4.0128 .2492)"
     font-size="72.67"
     y="-886.51"
     x="482.73"
     font-family="Arial"
     text-anchor="middle" />
  <text
     id="text652"
     font-size="200"
     line-height="125%"
     y="-138.9"
     x="-159.02"
     font-family="Gentium Book Basic"
     word-spacing="0"
     letter-spacing="0">
    <tspan
       id="tspan654"
       y="-138.9"
       x="-159.02" />
  </text>
  <text
     id="text656"
     transform="scale(4.0128 .2492)"
     font-size="72.67"
     y="-1097.73"
     x="265.39"
     font-family="Arial"
     text-anchor="middle" />
  <text
     id="text658"
     font-size="200"
     line-height="125%"
     y="-262.71"
     x="740.6"
     font-family="Gentium Book Basic"
     word-spacing="0"
     letter-spacing="0">
    <tspan
       id="tspan660"
       y="-262.71"
       x="740.6" />
  </text>
  <text
     id="text662"
     transform="scale(4.0128 .2492)"
     font-size="72.67"
     y="-1594.59"
     x="489.57"
     font-family="Arial"
     text-anchor="middle" />
  <text
     id="text664"
     font-size="200"
     line-height="125%"
     y="312.99"
     x="-3169"
     font-family="Gentium Book Basic"
     word-spacing="0"
     letter-spacing="0">
    <tspan
       id="tspan666"
       y="312.99"
       x="-3169" />
  </text>
  <text
     id="text668"
     transform="scale(4.0128 .2492)"
     font-size="72.67"
     y="715.59"
     x="-484.7"
     font-family="Arial"
     text-anchor="middle" />
  <text
     id="text670"
     font-size="200"
     line-height="125%"
     y="77.56"
     x="-1240.72"
     font-family="Gentium Book Basic"
     word-spacing="0"
     letter-spacing="0">
    <tspan
       id="tspan672"
       y="77.56"
       x="-1240.72" />
  </text>
  <text
     id="text674"
     transform="scale(4.0128 .2492)"
     font-size="72.67"
     y="-229.14"
     x="-4.17"
     font-family="Arial"
     text-anchor="middle" />
  <text
     id="text676"
     font-size="200"
     line-height="125%"
     y="130.7"
     x="-495.34"
     font-family="Gentium Book Basic"
     word-spacing="0"
     letter-spacing="0">
    <tspan
       id="tspan678"
       y="130.7"
       x="-495.34" />
  </text>
  <text
     id="text680"
     transform="scale(4.0128 .2492)"
     font-size="72.67"
     y="-15.889"
     x="181.58"
     font-family="Arial"
     text-anchor="middle" />
  <text
     id="text682"
     font-size="200"
     line-height="125%"
     y="6.884"
     x="404.27"
     font-family="Gentium Book Basic"
     word-spacing="0"
     letter-spacing="0">
    <tspan
       id="tspan684"
       y="6.884"
       x="404.27" />
  </text>
  <text
     id="text686"
     transform="scale(4.0128 .2492)"
     font-size="72.67"
     y="-512.75"
     x="405.76"
     font-family="Arial"
     text-anchor="middle" />
  <text
     id="text688"
     font-size="200"
     line-height="125%"
     y="-45.754"
     x="-467.88"
     font-family="Gentium Book Basic"
     word-spacing="0"
     letter-spacing="0">
    <tspan
       id="tspan690"
       y="-45.754"
       x="-467.88" />
  </text>
  <text
     id="text692"
     transform="scale(4.0128 .2492)"
     font-size="72.67"
     y="-723.97"
     x="188.42"
     font-family="Arial"
     text-anchor="middle" />
  <text
     id="text694"
     font-size="200"
     line-height="125%"
     y="-169.57"
     x="431.74"
     font-family="Gentium Book Basic"
     word-spacing="0"
     letter-spacing="0">
    <tspan
       id="tspan696"
       y="-169.57"
       x="431.74" />
  </text>
  <text
     id="text698"
     transform="scale(4.0128 .2492)"
     font-size="72.67"
     y="-1220.82"
     x="412.61"
     font-family="Arial"
     text-anchor="middle" />
  <text
     id="text700"
     font-size="200"
     line-height="125%"
     y="406.13"
     x="-3477.86"
     font-family="Gentium Book Basic"
     word-spacing="0"
     letter-spacing="0">
    <tspan
       id="tspan702"
       y="406.13"
       x="-3477.86" />
  </text>
  <text
     id="text704"
     transform="scale(4.0128 .2492)"
     font-size="72.67"
     y="1089.35"
     x="-561.67"
     font-family="Arial"
     text-anchor="middle" />
  <text
     id="text706"
     font-size="200"
     line-height="125%"
     y="-39.3"
     x="-1955.29"
     font-family="Gentium Book Basic"
     word-spacing="0"
     letter-spacing="0">
    <tspan
       id="tspan708"
       y="-39.3"
       x="-1955.29" />
  </text>
  <text
     id="text710"
     transform="scale(4.0128 .2492)"
     font-size="72.67"
     y="-698.07"
     x="-182.24"
     font-family="Arial"
     text-anchor="middle" />
  <text
     id="text712"
     font-size="200"
     line-height="125%"
     y="13.844"
     x="-1209.91"
     font-family="Gentium Book Basic"
     word-spacing="0"
     letter-spacing="0">
    <tspan
       id="tspan714"
       y="13.844"
       x="-1209.91" />
  </text>
  <text
     id="text716"
     transform="scale(4.0128 .2492)"
     font-size="72.67"
     y="-484.82"
     x="3.507"
     font-family="Arial"
     text-anchor="middle" />
  <text
     id="text718"
     font-size="200"
     line-height="125%"
     y="-109.97"
     x="-310.3"
     font-family="Gentium Book Basic"
     word-spacing="0"
     letter-spacing="0">
    <tspan
       id="tspan720"
       y="-109.97"
       x="-310.3" />
  </text>
  <text
     id="text722"
     transform="scale(4.0128 .2492)"
     font-size="72.67"
     y="-981.67"
     x="227.69"
     font-family="Arial"
     text-anchor="middle" />
  <text
     id="text724"
     font-size="200"
     line-height="125%"
     y="-162.61"
     x="-1182.45"
     font-family="Gentium Book Basic"
     word-spacing="0"
     letter-spacing="0">
    <tspan
       id="tspan726"
       y="-162.61"
       x="-1182.45" />
  </text>
  <text
     id="text728"
     transform="scale(4.0128 .2492)"
     font-size="72.67"
     y="-1192.89"
     x="10.351"
     font-family="Arial"
     text-anchor="middle" />
  <text
     id="text730"
     font-size="200"
     line-height="125%"
     y="-286.43"
     x="-282.83"
     font-family="Gentium Book Basic"
     word-spacing="0"
     letter-spacing="0">
    <tspan
       id="tspan732"
       y="-286.43"
       x="-282.83" />
  </text>
  <text
     id="text734"
     transform="scale(4.0128 .2492)"
     font-size="72.67"
     y="-1689.75"
     x="234.54"
     font-family="Arial"
     text-anchor="middle" />
  <text
     id="text736"
     font-size="200"
     line-height="125%"
     y="289.27"
     x="-4192.43"
     font-family="Gentium Book Basic"
     word-spacing="0"
     letter-spacing="0">
    <tspan
       id="tspan738"
       y="289.27"
       x="-4192.43" />
  </text>
  <text
     id="text740"
     transform="scale(4.0128 .2492)"
     font-size="72.67"
     y="620.43"
     x="-739.74"
     font-family="Arial"
     text-anchor="middle" />
  <path
     id="path742"
     d="m 252.90551,64.324228 c -104.05449,0 -188.405849,84.348852 -188.405849,188.405852 0,104.05449 84.348849,188.40585 188.405849,188.40585 1.35023,0 2.69169,-0.0501 4.03566,-0.079 -0.17803,-1.47059 -0.31343,-2.94744 -0.31343,-4.46693 0,-15.27005 9.32501,-28.21198 21.78302,-36.5077 12.458,-8.302 28.51537,-12.88928 46.03456,-12.88928 8.58909,0 16.7444,1.20731 24.32928,3.32982 l 0,-169.24933 30.99018,0 0,0.0389 c 0.11158,0.001 24.70539,0.28709 49.24529,18.6099 4.11464,3.07282 8.22677,6.67219 12.26242,10.81315 C 440.19807,147.60618 356.29303,64.322975 252.90426,64.322975 m 64.91777,22.448729 c 22.26068,8.698162 43.13601,22.018716 61.11782,40.000516 15.13214,15.13214 27.01595,32.32662 35.5737,50.66196 l -110.08729,63.54749 c -2.15135,-9.3551 -6.89534,-18.25637 -14.18309,-25.54412 -7.58488,-7.58487 -16.90488,-12.3577 -26.67997,-14.37867 L 317.82328,86.771704 M 252.90676,208.61869 c 24.34307,0 44.08005,19.73823 44.08005,44.08004 0,24.34307 -19.73823,44.08005 -44.08005,44.08005 -24.34307,0 -44.08004,-19.73823 -44.08004,-44.08005 0,-24.34306 19.73823,-44.08004 44.08004,-44.08004 m 0,9.75503 c -18.95592,0 -34.32,15.36784 -34.32,34.32 0,18.95592 15.36784,34.32 34.32,34.32 18.95593,0 34.32001,-15.36784 34.32001,-34.32 0,-18.95593 -15.36784,-34.32 -34.32001,-34.32 m 0,10.10481 c 13.37822,0 24.21269,10.83446 24.21269,24.21268 0,13.37822 -10.83447,24.21269 -24.21269,24.21269 -13.37822,0 -24.21268,-10.83447 -24.21268,-24.21269 0,-13.37822 10.83446,-24.21268 24.21268,-24.21268 m -51.98963,35.88712 c 0.40369,1.75393 0.90517,3.49532 1.48939,5.21038 0.19433,0.57168 0.37361,1.1183 0.58799,1.68497 1.71631,4.53588 4.0833,8.86365 7.09092,12.88927 0.37485,0.50148 0.74219,0.99795 1.13585,1.4894 1.18976,1.47936 2.46728,2.8973 3.84008,4.2701 2.37074,2.37074 4.88817,4.44185 7.5598,6.26849 0.53408,0.36483 1.06189,0.75347 1.60599,1.09699 2.18394,1.37781 4.45439,2.5776 6.7775,3.60438 1.15716,0.51276 2.30304,0.94654 3.48653,1.37155 1.77524,0.63813 3.62445,1.20229 5.44607,1.6461 0.60679,0.14794 1.19227,0.26579 1.80282,0.39241 l -54.26008,114.28718 c -1.40039,-0.54787 -2.80202,-1.06063 -4.19237,-1.64611 -1.38032,-0.57921 -2.7456,-1.18725 -4.11339,-1.80282 -2.74936,-1.23865 -5.41472,-2.53247 -8.11018,-3.9178 -1.33268,-0.68327 -2.6779,-1.43549 -3.99679,-2.15511 -0.0113,-0.004 -0.0301,0.004 -0.0389,0 -1.32767,-0.72464 -2.60519,-1.43298 -3.91781,-2.19397 -2.63277,-1.52701 -5.22792,-3.10667 -7.79675,-4.78036 -1.28003,-0.83371 -2.54,-1.67619 -3.79871,-2.54626 -5.06494,-3.48403 -9.97317,-7.25265 -14.73096,-11.3209 -1.18098,-1.00923 -2.36573,-2.0498 -3.52665,-3.09538 -0.006,-0.006 -0.0326,0.006 -0.0389,0 -1.16719,-1.0506 -2.30179,-2.12502 -3.44767,-3.21323 -1.14588,-1.08696 -2.28549,-2.20526 -3.40881,-3.32983 -5.68301,-5.68301 -10.87583,-11.65187 -15.63237,-17.8652 -0.79108,-1.0343 -1.54581,-2.04729 -2.31182,-3.09539 C 101.52139,348.1867 95.644045,338.23108 90.828589,327.9169 L 200.91588,264.36942 m 191.3395,36.78853 0,78.31856 c 15.10707,-16.59395 27.28425,-35.88336 35.73041,-57.08215 -0.31342,-0.34101 -0.62434,-0.68327 -0.94027,-1.01926 -10.75548,-11.42747 -21.7266,-19.0136 -34.79014,-20.20963"
     inkscape:connector-curvature="0"
     style="fill:#1793D1" />
  <text
     id="text744"
     font-size="4847.5"
     line-height="125%"
     y="1209.21"
     x="-27704.54"
     font-family="Gentium Book Basic"
     word-spacing="0"
     letter-spacing="0">
    <tspan
       id="tspan746"
       y="1209.21"
       x="-27704.54" />
  </text>
  <text
     id="text748"
     transform="scale(4.0128 .2492)"
     font-size="1761.4"
     y="-8245.29"
     x="488.95"
     font-family="Arial"
     text-anchor="middle" />
  <text
     id="text750"
     font-size="4847.5"
     line-height="125%"
     y="2121.1"
     x="-27839.26"
     font-family="Gentium Book Basic"
     word-spacing="0"
     letter-spacing="0">
    <tspan
       id="tspan752"
       y="2121.1"
       x="-27839.26" />
  </text>
  <text
     id="text754"
     transform="scale(4.0128 .2492)"
     font-size="1761.4"
     y="-4586.1"
     x="455.42"
     font-family="Arial"
     text-anchor="middle" />
  <g
     id="g756"
     fill="#555753">
    <text
       id="text758"
       transform="scale(1.0508 .95163)"
       line-height="125%"
       font-size="2975.6"
       y="-4932.81"
       x="-13349.95"
       font-family="Gentium Book Basic"
       word-spacing="0"
       letter-spacing="0">
      <tspan
         id="tspan760"
         y="-4932.81"
         x="-13349.95" />
    </text>
    <text
       id="text762"
       transform="scale(4.2168 .23715)"
       font-size="1081.3"
       y="-27834.31"
       x="1211.27"
       font-family="Arial"
       text-anchor="middle" />
    <text
       id="text764"
       transform="scale(1.0508 .95163)"
       line-height="125%"
       font-size="1592.9"
       y="-5757.68"
       x="-3948.82"
       font-family="Gentium Book Basic"
       word-spacing="0"
       letter-spacing="0">
      <tspan
         id="tspan766"
         y="-5757.68"
         x="-3948.82" />
    </text>
    <text
       id="text768"
       transform="scale(4.2168 .23715)"
       font-size="578.78"
       y="-27408.26"
       x="1445.33"
       font-family="Arial"
       text-anchor="middle" />
    <text
       id="text770"
       font-size="4653.7"
       line-height="125%"
       y="-1903.88"
       x="-40036.84"
       font-family="Gentium Book Basic"
       word-spacing="0"
       letter-spacing="0">
      <tspan
         id="tspan772"
         y="-1903.88"
         x="-40036.84" />
    </text>
    <text
       id="text774"
       transform="scale(4.0128 .2492)"
       font-size="1690.9"
       y="-20213.15"
       x="-2879.85"
       font-family="Arial"
       text-anchor="middle" />
  </g>
  <g
     id="g776">
    <text
       id="text778"
       stroke-width="23.268"
       font-size="4847.5"
       line-height="125%"
       stroke="#cd1d31"
       y="-14128.22"
       x="-25856.32"
       font-family="Gentium Book Basic"
       word-spacing="0"
       letter-spacing="0">
      <tspan
         id="tspan780"
         y="-14128.22"
         x="-25856.32" />
    </text>
    <text
       id="text782"
       transform="scale(4.0128 .2492)"
       font-size="1761.4"
       y="-69791.79"
       x="949.66"
       font-family="Arial"
       text-anchor="middle" />
    <text
       id="text784"
       stroke-width="23.268"
       font-size="4847.5"
       line-height="125%"
       stroke="#cd1d31"
       y="-13216.33"
       x="-25991.28"
       font-family="Gentium Book Basic"
       word-spacing="0"
       letter-spacing="0">
      <tspan
         id="tspan786"
         y="-13216.33"
         x="-25991.28" />
    </text>
    <text
       id="text788"
       transform="scale(4.0128 .2492)"
       font-size="1761.4"
       y="-66132.37"
       x="916"
       font-family="Arial"
       text-anchor="middle" />
  </g>
  <g
     id="g790"
     fill="#555753"
     transform="matrix(23.268 0 0 23.268 -581.38 -175.73)"
     stroke="#cd1d31">
    <text
       id="text792"
       transform="scale(1.0508 .95163)"
       line-height="125%"
       font-size="127.88"
       y="-896.71"
       x="-474.37"
       font-family="Gentium Book Basic"
       word-spacing="0"
       letter-spacing="0">
      <tspan
         id="tspan794"
         y="-896.71"
         x="-474.37" />
    </text>
    <text
       id="text796"
       transform="scale(4.2168 .23715)"
       font-size="46.47"
       y="-3943.87"
       x="76.82"
       font-family="Arial"
       text-anchor="middle" />
    <text
       id="text798"
       transform="scale(1.0508 .95163)"
       line-height="125%"
       font-size="68.46"
       y="-932.16"
       x="-70.35"
       font-family="Gentium Book Basic"
       word-spacing="0"
       letter-spacing="0">
      <tspan
         id="tspan800"
         y="-932.16"
         x="-70.35" />
    </text>
    <text
       id="text802"
       transform="scale(4.2168 .23715)"
       font-size="24.874"
       y="-3925.56"
       x="86.87"
       font-family="Arial"
       text-anchor="middle" />
    <text
       id="text804"
       font-size="200"
       line-height="125%"
       y="-733.42"
       x="-1616.23"
       font-family="Gentium Book Basic"
       word-spacing="0"
       letter-spacing="0">
      <tspan
         id="tspan806"
         y="-733.42"
         x="-1616.23" />
    </text>
  </g>
  <text
     id="text808"
     transform="scale(4.0128 .2492)"
     font-size="1690.9"
     y="-81759.64"
     x="-2419.36"
     font-family="Arial"
     fill="#555753"
     text-anchor="middle" />
  <g
     id="g810">
    <text
       id="text812"
       stroke-width="23.268"
       font-size="4653.7"
       line-height="125%"
       stroke="#cd1d31"
       y="-20816.52"
       x="-8883.58"
       font-family="Gentium Book Basic"
       word-spacing="0"
       letter-spacing="0">
      <tspan
         id="tspan814"
         y="-20816.52"
         x="-8883.58" />
    </text>
    <text
       id="text816"
       transform="scale(4.0128 .2492)"
       font-size="1690.9"
       y="-96106.23"
       x="4883.42"
       font-family="Arial"
       text-anchor="middle" />
    <text
       id="text818"
       stroke-width="23.268"
       font-size="4653.7"
       line-height="125%"
       stroke="#cd1d31"
       y="-23697.62"
       x="12049.23"
       font-family="Gentium Book Basic"
       word-spacing="0"
       letter-spacing="0">
      <tspan
         id="tspan820"
         y="-23697.62"
         x="12049.23" />
    </text>
    <text
       id="text822"
       transform="scale(4.0128 .2492)"
       font-size="1690.9"
       y="-107667.36"
       x="10099.96"
       font-family="Arial"
       text-anchor="middle" />
  </g>
  <path
     id="path824"
     d="m 379.75475,233.8243 -18.43564,0 0,175.4426 c -9.7939,-5.88611 -22.6418,-9.55444 -36.87128,-9.55444 -30.5213,0 -55.28812,16.48865 -55.28812,36.87129 0,20.38263 24.77058,36.87128 55.28812,36.87128 30.52129,0 55.28811,-16.48865 55.28811,-36.87128 l 0,-147.46005 c 46.08221,-7.48834 73.72752,46.0822 92.1594,73.72751 -11.51648,-129.01813 -92.1594,-129.01813 -92.1594,-129.01813"
     inkscape:connector-curvature="0"
     style="fill:#1793D1" />
</svg>
