<?xml version="1.0" encoding="UTF-8" standalone="no"?>
<svg
   xmlns:dc="http://purl.org/dc/elements/1.1/"
   xmlns:cc="http://creativecommons.org/ns#"
   xmlns:rdf="http://www.w3.org/1999/02/22-rdf-syntax-ns#"
   xmlns:svg="http://www.w3.org/2000/svg"
   xmlns="http://www.w3.org/2000/svg"
   xmlns:sodipodi="http://sodipodi.sourceforge.net/DTD/sodipodi-0.dtd"
   xmlns:inkscape="http://www.inkscape.org/namespaces/inkscape"
   height="512"
   width="512"
   version="1.1"
   viewBox="0 0 512 512"
   id="svg2"
   inkscape:version="0.91 r"
   sodipodi:docname="media-optical-audio.svg">
  <defs
     id="defs237" />
  <sodipodi:namedview
     pagecolor="#ffffff"
     bordercolor="#666666"
     borderopacity="0.75"
     objecttolerance="10"
     gridtolerance="10"
     guidetolerance="10"
     inkscape:pageopacity="0"
     inkscape:pageshadow="2"
     inkscape:window-width="640"
     inkscape:window-height="480"
     id="namedview235"
     showgrid="false"
     inkscape:zoom="0.4609375"
     inkscape:cx="256"
     inkscape:cy="256"
     inkscape:window-x="0"
     inkscape:window-y="0"
     inkscape:window-maximized="0"
     inkscape:current-layer="svg2" />
  <metadata
     id="metadata468">
    <rdf:RDF>
      <cc:Work
         rdf:about="">
        <dc:format>image/svg+xml</dc:format>
        <dc:type
           rdf:resource="http://purl.org/dc/dcmitype/StillImage" />
      </cc:Work>
    </rdf:RDF>
  </metadata>
  <text
     id="text4"
     font-size="129.23"
     line-height="125%"
     y="231.36"
     x="729.64"
     font-family="Gentium Book Basic"
     word-spacing="0"
     letter-spacing="0">
    <tspan
       id="tspan6"
       y="231.36"
       x="729.64" />
  </text>
  <text
     id="text8"
     transform="scale(4.0128 .2492)"
     font-size="46.954"
     y="579.25"
     x="378.91"
     font-family="Arial"
     text-anchor="middle" />
  <text
     id="text10"
     font-size="129.23"
     line-height="125%"
     y="151.36"
     x="1310.91"
     font-family="Gentium Book Basic"
     word-spacing="0"
     letter-spacing="0">
    <tspan
       id="tspan12"
       y="151.36"
       x="1310.91" />
  </text>
  <text
     id="text14"
     transform="scale(4.0128 .2492)"
     font-size="46.954"
     y="258.22"
     x="523.76"
     font-family="Arial"
     text-anchor="middle" />
  <text
     id="text16"
     font-size="129.23"
     line-height="125%"
     y="-29.901"
     x="239.33"
     font-family="Gentium Book Basic"
     word-spacing="0"
     letter-spacing="0">
    <tspan
       id="tspan18"
       y="-29.901"
       x="239.33" />
  </text>
  <text
     id="text20"
     transform="scale(4.0128 .2492)"
     font-size="46.954"
     y="-469.14"
     x="256.72"
     font-family="Arial"
     text-anchor="middle" />
  <text
     id="text22"
     font-size="129.23"
     line-height="125%"
     y="-246.37"
     x="1337.38"
     font-family="Gentium Book Basic"
     word-spacing="0"
     letter-spacing="0">
    <tspan
       id="tspan24"
       y="-246.37"
       x="1337.38" />
  </text>
  <text
     id="text26"
     transform="scale(4.0128 .2492)"
     font-size="46.954"
     y="-1337.81"
     x="530.36"
     font-family="Arial"
     text-anchor="middle" />
  <text
     id="text28"
     font-size="129.23"
     line-height="125%"
     y="-326.38"
     x="1918.65"
     font-family="Gentium Book Basic"
     word-spacing="0"
     letter-spacing="0">
    <tspan
       id="tspan30"
       y="-326.38"
       x="1918.65" />
  </text>
  <text
     id="text32"
     transform="scale(4.0128 .2492)"
     font-size="46.954"
     y="-1658.85"
     x="675.21"
     font-family="Arial"
     text-anchor="middle" />
  <text
     id="text34"
     font-size="129.23"
     line-height="125%"
     y="-798.78"
     x="1529.53"
     font-family="Gentium Book Basic"
     word-spacing="0"
     letter-spacing="0">
    <tspan
       id="tspan36"
       y="-798.78"
       x="1529.53" />
  </text>
  <text
     id="text38"
     transform="scale(4.0128 .2492)"
     font-size="46.954"
     y="-3554.51"
     x="578.24"
     font-family="Arial"
     text-anchor="middle" />
  <text
     id="text40"
     font-size="129.23"
     line-height="125%"
     y="-878.78"
     x="2110.79"
     font-family="Gentium Book Basic"
     word-spacing="0"
     letter-spacing="0">
    <tspan
       id="tspan42"
       y="-878.78"
       x="2110.79" />
  </text>
  <text
     id="text44"
     transform="scale(4.0128 .2492)"
     font-size="46.954"
     y="-3875.54"
     x="723.09"
     font-family="Arial"
     text-anchor="middle" />
  <g
     id="g46"
     font-family="Gentium Book Basic"
     line-height="125%"
     word-spacing="0"
     letter-spacing="0">
    <text
       id="text48"
       y="535.94"
       x="277.99"
       font-size="208.33">
      <tspan
         id="tspan50"
         y="535.94"
         x="277.99" />
    </text>
    <text
       id="text52"
       y="-11.341"
       x="-307.18"
       font-size="200">
      <tspan
         id="tspan54"
         y="-11.341"
         x="-307.18" />
    </text>
  </g>
  <text
     id="text56"
     transform="scale(4.0128 .2492)"
     font-size="72.67"
     y="-585.88"
     x="228.47"
     font-family="Arial"
     text-anchor="middle" />
  <text
     id="text58"
     font-size="200"
     line-height="125%"
     y="41.802"
     x="438.2"
     font-family="Gentium Book Basic"
     word-spacing="0"
     letter-spacing="0">
    <tspan
       id="tspan60"
       y="41.802"
       x="438.2" />
  </text>
  <text
     id="text62"
     transform="scale(4.0128 .2492)"
     font-size="72.67"
     y="-372.63"
     x="414.22"
     font-family="Arial"
     text-anchor="middle" />
  <text
     id="text64"
     font-size="200"
     line-height="125%"
     y="-82.02"
     x="1337.81"
     font-family="Gentium Book Basic"
     word-spacing="0"
     letter-spacing="0">
    <tspan
       id="tspan66"
       y="-82.02"
       x="1337.81" />
  </text>
  <text
     id="text68"
     transform="scale(4.0128 .2492)"
     font-size="72.67"
     y="-869.49"
     x="638.4"
     font-family="Arial"
     text-anchor="middle" />
  <text
     id="text70"
     font-size="200"
     line-height="125%"
     y="-134.65"
     x="465.66"
     font-family="Gentium Book Basic"
     word-spacing="0"
     letter-spacing="0">
    <tspan
       id="tspan72"
       y="-134.65"
       x="465.66" />
  </text>
  <text
     id="text74"
     transform="scale(4.0128 .2492)"
     font-size="72.67"
     y="-1080.71"
     x="421.06"
     font-family="Arial"
     text-anchor="middle" />
  <text
     id="text76"
     font-size="200"
     line-height="125%"
     y="-258.47"
     x="1365.27"
     font-family="Gentium Book Basic"
     word-spacing="0"
     letter-spacing="0">
    <tspan
       id="tspan78"
       y="-258.47"
       x="1365.27" />
  </text>
  <text
     id="text80"
     transform="scale(4.0128 .2492)"
     font-size="72.67"
     y="-1577.57"
     x="645.24"
     font-family="Arial"
     text-anchor="middle" />
  <text
     id="text82"
     font-size="200"
     line-height="125%"
     y="317.23"
     x="-2544.32"
     font-family="Gentium Book Basic"
     word-spacing="0"
     letter-spacing="0">
    <tspan
       id="tspan84"
       y="317.23"
       x="-2544.32" />
  </text>
  <text
     id="text86"
     transform="scale(4.0128 .2492)"
     font-size="72.67"
     y="732.62"
     x="-329.03"
     font-family="Arial"
     text-anchor="middle" />
  <text
     id="text88"
     font-size="200"
     line-height="125%"
     y="81.8"
     x="-616.04"
     font-family="Gentium Book Basic"
     word-spacing="0"
     letter-spacing="0">
    <tspan
       id="tspan90"
       y="81.8"
       x="-616.04" />
  </text>
  <text
     id="text92"
     transform="scale(4.0128 .2492)"
     font-size="72.67"
     y="-212.12"
     x="151.5"
     font-family="Arial"
     text-anchor="middle" />
  <text
     id="text94"
     font-size="200"
     line-height="125%"
     y="134.94"
     x="129.34"
     font-family="Gentium Book Basic"
     word-spacing="0"
     letter-spacing="0">
    <tspan
       id="tspan96"
       y="134.94"
       x="129.34" />
  </text>
  <text
     id="text98"
     transform="scale(4.0128 .2492)"
     font-size="72.67"
     y="1.138"
     x="337.25"
     font-family="Arial"
     text-anchor="middle" />
  <text
     id="text100"
     font-size="200"
     line-height="125%"
     y="11.127"
     x="1028.95"
     font-family="Gentium Book Basic"
     word-spacing="0"
     letter-spacing="0">
    <tspan
       id="tspan102"
       y="11.127"
       x="1028.95" />
  </text>
  <text
     id="text104"
     transform="scale(4.0128 .2492)"
     font-size="72.67"
     y="-495.72"
     x="561.43"
     font-family="Arial"
     text-anchor="middle" />
  <text
     id="text106"
     font-size="200"
     line-height="125%"
     y="-41.51"
     x="156.8"
     font-family="Gentium Book Basic"
     word-spacing="0"
     letter-spacing="0">
    <tspan
       id="tspan108"
       y="-41.51"
       x="156.8" />
  </text>
  <text
     id="text110"
     transform="scale(4.0128 .2492)"
     font-size="72.67"
     y="-706.95"
     x="344.09"
     font-family="Arial"
     text-anchor="middle" />
  <text
     id="text112"
     font-size="200"
     line-height="125%"
     y="-165.33"
     x="1056.42"
     font-family="Gentium Book Basic"
     word-spacing="0"
     letter-spacing="0">
    <tspan
       id="tspan114"
       y="-165.33"
       x="1056.42" />
  </text>
  <text
     id="text116"
     transform="scale(4.0128 .2492)"
     font-size="72.67"
     y="-1203.81"
     x="568.28"
     font-family="Arial"
     text-anchor="middle" />
  <text
     id="text118"
     font-size="200"
     line-height="125%"
     y="410.37"
     x="-2853.18"
     font-family="Gentium Book Basic"
     word-spacing="0"
     letter-spacing="0">
    <tspan
       id="tspan120"
       y="410.37"
       x="-2853.18" />
  </text>
  <text
     id="text122"
     transform="scale(4.0128 .2492)"
     font-size="72.67"
     y="1106.39"
     x="-406"
     font-family="Arial"
     text-anchor="middle" />
  <text
     id="text124"
     font-size="200"
     line-height="125%"
     y="-35.06"
     x="-1330.61"
     font-family="Gentium Book Basic"
     word-spacing="0"
     letter-spacing="0">
    <tspan
       id="tspan126"
       y="-35.06"
       x="-1330.61" />
  </text>
  <text
     id="text128"
     transform="scale(4.0128 .2492)"
     font-size="72.67"
     y="-681.04"
     x="-26.571"
     font-family="Arial"
     text-anchor="middle" />
  <text
     id="text130"
     font-size="200"
     line-height="125%"
     y="18.09"
     x="-585.23"
     font-family="Gentium Book Basic"
     word-spacing="0"
     letter-spacing="0">
    <tspan
       id="tspan132"
       y="18.09"
       x="-585.23" />
  </text>
  <text
     id="text134"
     transform="scale(4.0128 .2492)"
     font-size="72.67"
     y="-467.79"
     x="159.18"
     font-family="Arial"
     text-anchor="middle" />
  <text
     id="text136"
     font-size="200"
     line-height="125%"
     y="-105.73"
     x="314.38"
     font-family="Gentium Book Basic"
     word-spacing="0"
     letter-spacing="0">
    <tspan
       id="tspan138"
       y="-105.73"
       x="314.38" />
  </text>
  <text
     id="text140"
     transform="scale(4.0128 .2492)"
     font-size="72.67"
     y="-964.65"
     x="383.36"
     font-family="Arial"
     text-anchor="middle" />
  <text
     id="text142"
     font-size="200"
     line-height="125%"
     y="-158.37"
     x="-557.77"
     font-family="Gentium Book Basic"
     word-spacing="0"
     letter-spacing="0">
    <tspan
       id="tspan144"
       y="-158.37"
       x="-557.77" />
  </text>
  <text
     id="text146"
     transform="scale(4.0128 .2492)"
     font-size="72.67"
     y="-1175.88"
     x="166.02"
     font-family="Arial"
     text-anchor="middle" />
  <text
     id="text148"
     font-size="200"
     line-height="125%"
     y="-282.18"
     x="341.85"
     font-family="Gentium Book Basic"
     word-spacing="0"
     letter-spacing="0">
    <tspan
       id="tspan150"
       y="-282.18"
       x="341.85" />
  </text>
  <text
     id="text152"
     transform="scale(4.0128 .2492)"
     font-size="72.67"
     y="-1672.73"
     x="390.2"
     font-family="Arial"
     text-anchor="middle" />
  <text
     id="text154"
     font-size="200"
     line-height="125%"
     y="293.52"
     x="-3567.75"
     font-family="Gentium Book Basic"
     word-spacing="0"
     letter-spacing="0">
    <tspan
       id="tspan156"
       y="293.52"
       x="-3567.75" />
  </text>
  <text
     id="text158"
     transform="scale(4.0128 .2492)"
     font-size="72.67"
     y="637.46"
     x="-584.07"
     font-family="Arial"
     text-anchor="middle" />
  <text
     id="text176"
     font-size="129.23"
     line-height="125%"
     y="231.36"
     x="729.64"
     font-family="Gentium Book Basic"
     word-spacing="0"
     letter-spacing="0">
    <tspan
       id="tspan178"
       y="231.36"
       x="729.64" />
  </text>
  <text
     id="text180"
     transform="scale(4.0128 .2492)"
     font-size="46.954"
     y="579.25"
     x="378.91"
     font-family="Arial"
     text-anchor="middle" />
  <text
     id="text182"
     font-size="129.23"
     line-height="125%"
     y="151.36"
     x="1310.91"
     font-family="Gentium Book Basic"
     word-spacing="0"
     letter-spacing="0">
    <tspan
       id="tspan184"
       y="151.36"
       x="1310.91" />
  </text>
  <text
     id="text186"
     transform="scale(4.0128 .2492)"
     font-size="46.954"
     y="258.22"
     x="523.76"
     font-family="Arial"
     text-anchor="middle" />
  <text
     id="text188"
     font-size="129.23"
     line-height="125%"
     y="-29.901"
     x="239.33"
     font-family="Gentium Book Basic"
     word-spacing="0"
     letter-spacing="0">
    <tspan
       id="tspan190"
       y="-29.901"
       x="239.33" />
  </text>
  <text
     id="text192"
     transform="scale(4.0128 .2492)"
     font-size="46.954"
     y="-469.14"
     x="256.72"
     font-family="Arial"
     text-anchor="middle" />
  <text
     id="text194"
     font-size="129.23"
     line-height="125%"
     y="-246.37"
     x="1337.38"
     font-family="Gentium Book Basic"
     word-spacing="0"
     letter-spacing="0">
    <tspan
       id="tspan196"
       y="-246.37"
       x="1337.38" />
  </text>
  <text
     id="text198"
     transform="scale(4.0128 .2492)"
     font-size="46.954"
     y="-1337.8"
     x="530.36"
     font-family="Arial"
     text-anchor="middle" />
  <text
     id="text200"
     font-size="129.23"
     line-height="125%"
     y="-326.38"
     x="1918.65"
     font-family="Gentium Book Basic"
     word-spacing="0"
     letter-spacing="0">
    <tspan
       id="tspan202"
       y="-326.38"
       x="1918.65" />
  </text>
  <text
     id="text204"
     transform="scale(4.0128 .2492)"
     font-size="46.954"
     y="-1658.84"
     x="675.21"
     font-family="Arial"
     text-anchor="middle" />
  <text
     id="text206"
     font-size="129.23"
     line-height="125%"
     y="-798.78"
     x="1529.53"
     font-family="Gentium Book Basic"
     word-spacing="0"
     letter-spacing="0">
    <tspan
       id="tspan208"
       y="-798.78"
       x="1529.53" />
  </text>
  <text
     id="text210"
     transform="scale(4.0128 .2492)"
     font-size="46.954"
     y="-3554.49"
     x="578.24"
     font-family="Arial"
     text-anchor="middle" />
  <text
     id="text212"
     font-size="129.23"
     line-height="125%"
     y="-878.78"
     x="2110.79"
     font-family="Gentium Book Basic"
     word-spacing="0"
     letter-spacing="0">
    <tspan
       id="tspan214"
       y="-878.78"
       x="2110.79" />
  </text>
  <text
     id="text216"
     transform="scale(4.0128 .2492)"
     font-size="46.954"
     y="-3875.52"
     x="723.09"
     font-family="Arial"
     text-anchor="middle" />
  <g
     id="g218"
     font-family="Gentium Book Basic"
     line-height="125%"
     word-spacing="0"
     letter-spacing="0">
    <text
       id="text220"
       y="535.94"
       x="277.99"
       font-size="208.33">
      <tspan
         id="tspan222"
         y="535.94"
         x="277.99" />
    </text>
    <text
       id="text224"
       y="227.12"
       x="104.96"
       font-size="129.23">
      <tspan
         id="tspan226"
         y="227.12"
         x="104.96" />
    </text>
  </g>
  <text
     id="text228"
     transform="scale(4.0128 .2492)"
     font-size="46.954"
     y="562.23"
     x="223.24"
     font-family="Arial"
     text-anchor="middle" />
  <text
     id="text230"
     font-size="129.23"
     line-height="125%"
     y="147.11"
     x="686.23"
     font-family="Gentium Book Basic"
     word-spacing="0"
     letter-spacing="0">
    <tspan
       id="tspan232"
       y="147.11"
       x="686.23" />
  </text>
  <text
     id="text234"
     transform="scale(4.0128 .2492)"
     font-size="46.954"
     y="241.19"
     x="368.09"
     font-family="Arial"
     text-anchor="middle" />
  <text
     id="text236"
     font-size="129.23"
     line-height="125%"
     y="-34.14"
     x="-385.35"
     font-family="Gentium Book Basic"
     word-spacing="0"
     letter-spacing="0">
    <tspan
       id="tspan238"
       y="-34.14"
       x="-385.35" />
  </text>
  <text
     id="text240"
     transform="scale(4.0128 .2492)"
     font-size="46.954"
     y="-486.16"
     x="101.05"
     font-family="Arial"
     text-anchor="middle" />
  <text
     id="text242"
     font-size="129.23"
     line-height="125%"
     y="-250.62"
     x="712.7"
     font-family="Gentium Book Basic"
     word-spacing="0"
     letter-spacing="0">
    <tspan
       id="tspan244"
       y="-250.62"
       x="712.7" />
  </text>
  <text
     id="text246"
     transform="scale(4.0128 .2492)"
     font-size="46.954"
     y="-1354.84"
     x="374.69"
     font-family="Arial"
     text-anchor="middle" />
  <text
     id="text248"
     font-size="129.23"
     line-height="125%"
     y="-330.62"
     x="1293.97"
     font-family="Gentium Book Basic"
     word-spacing="0"
     letter-spacing="0">
    <tspan
       id="tspan250"
       y="-330.62"
       x="1293.97" />
  </text>
  <text
     id="text252"
     transform="scale(4.0128 .2492)"
     font-size="46.954"
     y="-1675.87"
     x="519.54"
     font-family="Arial"
     text-anchor="middle" />
  <text
     id="text254"
     font-size="129.23"
     line-height="125%"
     y="-803.02"
     x="904.85"
     font-family="Gentium Book Basic"
     word-spacing="0"
     letter-spacing="0">
    <tspan
       id="tspan256"
       y="-803.02"
       x="904.85" />
  </text>
  <text
     id="text258"
     transform="scale(4.0128 .2492)"
     font-size="46.954"
     y="-3571.53"
     x="422.57"
     font-family="Arial"
     text-anchor="middle" />
  <text
     id="text260"
     font-size="129.23"
     line-height="125%"
     y="-883.02"
     x="1486.12"
     font-family="Gentium Book Basic"
     word-spacing="0"
     letter-spacing="0">
    <tspan
       id="tspan262"
       y="-883.02"
       x="1486.12" />
  </text>
  <text
     id="text264"
     transform="scale(4.0128 .2492)"
     font-size="46.954"
     y="-3892.57"
     x="567.42"
     font-family="Arial"
     text-anchor="middle" />
  <g
     id="g266"
     font-family="Gentium Book Basic"
     line-height="125%"
     word-spacing="0"
     letter-spacing="0">
    <text
       id="text268"
       y="531.69"
       x="-346.69"
       font-size="208.33">
      <tspan
         id="tspan270"
         y="531.69"
         x="-346.69" />
    </text>
    <text
       id="text272"
       y="-15.584"
       x="-931.86"
       font-size="200">
      <tspan
         id="tspan274"
         y="-15.584"
         x="-931.86" />
    </text>
  </g>
  <text
     id="text276"
     transform="scale(4.0128 .2492)"
     font-size="72.67"
     y="-602.91"
     x="72.797"
     font-family="Arial"
     text-anchor="middle" />
  <text
     id="text278"
     font-size="200"
     line-height="125%"
     y="37.559"
     x="-186.48"
     font-family="Gentium Book Basic"
     word-spacing="0"
     letter-spacing="0">
    <tspan
       id="tspan280"
       y="37.559"
       x="-186.48" />
  </text>
  <text
     id="text282"
     transform="scale(4.0128 .2492)"
     font-size="72.67"
     y="-389.66"
     x="258.55"
     font-family="Arial"
     text-anchor="middle" />
  <text
     id="text284"
     font-size="200"
     line-height="125%"
     y="-86.26"
     x="713.13"
     font-family="Gentium Book Basic"
     word-spacing="0"
     letter-spacing="0">
    <tspan
       id="tspan286"
       y="-86.26"
       x="713.13" />
  </text>
  <text
     id="text288"
     transform="scale(4.0128 .2492)"
     font-size="72.67"
     y="-886.51"
     x="482.73"
     font-family="Arial"
     text-anchor="middle" />
  <text
     id="text290"
     font-size="200"
     line-height="125%"
     y="-138.9"
     x="-159.02"
     font-family="Gentium Book Basic"
     word-spacing="0"
     letter-spacing="0">
    <tspan
       id="tspan292"
       y="-138.9"
       x="-159.02" />
  </text>
  <text
     id="text294"
     transform="scale(4.0128 .2492)"
     font-size="72.67"
     y="-1097.74"
     x="265.39"
     font-family="Arial"
     text-anchor="middle" />
  <text
     id="text296"
     font-size="200"
     line-height="125%"
     y="-262.71"
     x="740.6"
     font-family="Gentium Book Basic"
     word-spacing="0"
     letter-spacing="0">
    <tspan
       id="tspan298"
       y="-262.71"
       x="740.6" />
  </text>
  <text
     id="text300"
     transform="scale(4.0128 .2492)"
     font-size="72.67"
     y="-1594.6"
     x="489.57"
     font-family="Arial"
     text-anchor="middle" />
  <text
     id="text302"
     font-size="200"
     line-height="125%"
     y="312.99"
     x="-3169"
     font-family="Gentium Book Basic"
     word-spacing="0"
     letter-spacing="0">
    <tspan
       id="tspan304"
       y="312.99"
       x="-3169" />
  </text>
  <text
     id="text306"
     transform="scale(4.0128 .2492)"
     font-size="72.67"
     y="715.59"
     x="-484.7"
     font-family="Arial"
     text-anchor="middle" />
  <text
     id="text308"
     font-size="200"
     line-height="125%"
     y="77.56"
     x="-1240.72"
     font-family="Gentium Book Basic"
     word-spacing="0"
     letter-spacing="0">
    <tspan
       id="tspan310"
       y="77.56"
       x="-1240.72" />
  </text>
  <text
     id="text312"
     transform="scale(4.0128 .2492)"
     font-size="72.67"
     y="-229.14"
     x="-4.17"
     font-family="Arial"
     text-anchor="middle" />
  <text
     id="text314"
     font-size="200"
     line-height="125%"
     y="130.7"
     x="-495.34"
     font-family="Gentium Book Basic"
     word-spacing="0"
     letter-spacing="0">
    <tspan
       id="tspan316"
       y="130.7"
       x="-495.34" />
  </text>
  <text
     id="text318"
     transform="scale(4.0128 .2492)"
     font-size="72.67"
     y="-15.889"
     x="181.58"
     font-family="Arial"
     text-anchor="middle" />
  <text
     id="text320"
     font-size="200"
     line-height="125%"
     y="6.884"
     x="404.27"
     font-family="Gentium Book Basic"
     word-spacing="0"
     letter-spacing="0">
    <tspan
       id="tspan322"
       y="6.884"
       x="404.27" />
  </text>
  <text
     id="text324"
     transform="scale(4.0128 .2492)"
     font-size="72.67"
     y="-512.75"
     x="405.76"
     font-family="Arial"
     text-anchor="middle" />
  <text
     id="text326"
     font-size="200"
     line-height="125%"
     y="-45.754"
     x="-467.88"
     font-family="Gentium Book Basic"
     word-spacing="0"
     letter-spacing="0">
    <tspan
       id="tspan328"
       y="-45.754"
       x="-467.88" />
  </text>
  <text
     id="text330"
     transform="scale(4.0128 .2492)"
     font-size="72.67"
     y="-723.97"
     x="188.42"
     font-family="Arial"
     text-anchor="middle" />
  <text
     id="text332"
     font-size="200"
     line-height="125%"
     y="-169.57"
     x="431.74"
     font-family="Gentium Book Basic"
     word-spacing="0"
     letter-spacing="0">
    <tspan
       id="tspan334"
       y="-169.57"
       x="431.74" />
  </text>
  <text
     id="text336"
     transform="scale(4.0128 .2492)"
     font-size="72.67"
     y="-1220.83"
     x="412.61"
     font-family="Arial"
     text-anchor="middle" />
  <text
     id="text338"
     font-size="200"
     line-height="125%"
     y="406.13"
     x="-3477.86"
     font-family="Gentium Book Basic"
     word-spacing="0"
     letter-spacing="0">
    <tspan
       id="tspan340"
       y="406.13"
       x="-3477.86" />
  </text>
  <text
     id="text342"
     transform="scale(4.0128 .2492)"
     font-size="72.67"
     y="1089.36"
     x="-561.67"
     font-family="Arial"
     text-anchor="middle" />
  <text
     id="text344"
     font-size="200"
     line-height="125%"
     y="-39.3"
     x="-1955.29"
     font-family="Gentium Book Basic"
     word-spacing="0"
     letter-spacing="0">
    <tspan
       id="tspan346"
       y="-39.3"
       x="-1955.29" />
  </text>
  <text
     id="text348"
     transform="scale(4.0128 .2492)"
     font-size="72.67"
     y="-698.07"
     x="-182.24"
     font-family="Arial"
     text-anchor="middle" />
  <text
     id="text350"
     font-size="200"
     line-height="125%"
     y="13.844"
     x="-1209.91"
     font-family="Gentium Book Basic"
     word-spacing="0"
     letter-spacing="0">
    <tspan
       id="tspan352"
       y="13.844"
       x="-1209.91" />
  </text>
  <text
     id="text354"
     transform="scale(4.0128 .2492)"
     font-size="72.67"
     y="-484.82"
     x="3.507"
     font-family="Arial"
     text-anchor="middle" />
  <text
     id="text356"
     font-size="200"
     line-height="125%"
     y="-109.97"
     x="-310.3"
     font-family="Gentium Book Basic"
     word-spacing="0"
     letter-spacing="0">
    <tspan
       id="tspan358"
       y="-109.97"
       x="-310.3" />
  </text>
  <text
     id="text360"
     transform="scale(4.0128 .2492)"
     font-size="72.67"
     y="-981.68"
     x="227.69"
     font-family="Arial"
     text-anchor="middle" />
  <text
     id="text362"
     font-size="200"
     line-height="125%"
     y="-162.61"
     x="-1182.45"
     font-family="Gentium Book Basic"
     word-spacing="0"
     letter-spacing="0">
    <tspan
       id="tspan364"
       y="-162.61"
       x="-1182.45" />
  </text>
  <text
     id="text366"
     transform="scale(4.0128 .2492)"
     font-size="72.67"
     y="-1192.9"
     x="10.351"
     font-family="Arial"
     text-anchor="middle" />
  <text
     id="text368"
     font-size="200"
     line-height="125%"
     y="-286.43"
     x="-282.83"
     font-family="Gentium Book Basic"
     word-spacing="0"
     letter-spacing="0">
    <tspan
       id="tspan370"
       y="-286.43"
       x="-282.83" />
  </text>
  <text
     id="text372"
     transform="scale(4.0128 .2492)"
     font-size="72.67"
     y="-1689.76"
     x="234.54"
     font-family="Arial"
     text-anchor="middle" />
  <text
     id="text374"
     font-size="200"
     line-height="125%"
     y="289.27"
     x="-4192.43"
     font-family="Gentium Book Basic"
     word-spacing="0"
     letter-spacing="0">
    <tspan
       id="tspan376"
       y="289.27"
       x="-4192.43" />
  </text>
  <text
     id="text378"
     transform="scale(4.0128 .2492)"
     font-size="72.67"
     y="620.43"
     x="-739.74"
     font-family="Arial"
     text-anchor="middle" />
  <path
     id="path380"
     d="m 253.08082,66.669392 c -102.86159,0 -186.245934,83.381868 -186.245934,186.245938 0,102.86159 83.381864,186.24593 186.245934,186.24593 1.33475,0 2.66083,-0.0496 3.98939,-0.0781 -0.17598,-1.45373 -0.30983,-2.91365 -0.30983,-4.41572 0,-15.09499 9.21811,-27.88855 21.53329,-36.08918 12.31518,-8.20681 28.18847,-12.74151 45.50682,-12.74151 8.49062,0 16.55244,1.19347 24.05036,3.29165 l 0,-167.30903 30.6349,0 0,0.0384 c 0.1103,0.001 24.42216,0.28381 48.68073,18.39656 4.06747,3.03759 8.13246,6.59569 12.12185,10.68919 C 438.22623,148.99659 355.28309,66.668153 253.07958,66.668153 m 64.17355,22.191374 c 22.00547,8.598444 42.64149,21.766283 60.41715,39.541943 14.95866,14.95866 26.70624,31.95602 35.16588,50.08117 L 304.01093,241.3016 c -2.12669,-9.24785 -6.8163,-18.04707 -14.0205,-25.25127 -7.49792,-7.49792 -16.71107,-12.21604 -26.3741,-14.21383 L 317.25437,88.859527 M 253.08206,209.30963 c 24.06399,0 43.57471,19.51196 43.57471,43.57471 0,24.064 -19.51195,43.57471 -43.57471,43.57471 -24.064,0 -43.57471,-19.51195 -43.57471,-43.57471 0,-24.06399 19.51195,-43.57471 43.57471,-43.57471 m 0,9.6432 c -18.73861,0 -33.92655,15.19166 -33.92655,33.92655 0,18.73862 15.19166,33.92656 33.92655,33.92656 18.73861,0 33.92655,-15.19166 33.92655,-33.92656 0,-18.73861 -15.19166,-33.92655 -33.92655,-33.92655 m 0,9.98897 c 13.22485,0 23.9351,10.71026 23.9351,23.93511 0,13.22485 -10.71025,23.9351 -23.9351,23.9351 -13.22485,0 -23.93511,-10.71025 -23.93511,-23.9351 0,-13.22485 10.71026,-23.93511 23.93511,-23.93511 m -51.39362,35.47571 c 0.39907,1.73382 0.8948,3.45524 1.47232,5.15064 0.1921,0.56513 0.36932,1.10548 0.58125,1.66566 1.69663,4.48388 4.03648,8.76203 7.00962,12.74151 0.37056,0.49573 0.73369,0.9865 1.12283,1.47232 1.17612,1.4624 2.439,2.86408 3.79606,4.22114 2.34357,2.34357 4.83213,4.39093 7.47314,6.19663 0.52795,0.36065 1.04971,0.74484 1.58757,1.08441 2.15891,1.36202 4.40333,2.54806 6.6998,3.56307 1.1439,0.50688 2.27664,0.93569 3.44657,1.35582 1.75488,0.63082 3.58289,1.18851 5.38363,1.62723 0.59983,0.14624 1.1786,0.26274 1.78215,0.38791 l -53.63804,112.97697 c -1.38432,-0.54158 -2.76989,-1.04847 -4.1443,-1.62723 -1.3645,-0.57257 -2.71413,-1.17364 -4.06623,-1.78215 -2.71784,-1.22446 -5.35265,-2.50344 -8.0172,-3.8729 -1.31741,-0.67543 -2.6472,-1.41902 -3.95097,-2.1304 -0.0112,-0.004 -0.0298,0.004 -0.0384,0 -1.31245,-0.71633 -2.57532,-1.41655 -3.8729,-2.16882 -2.60258,-1.5095 -5.16799,-3.07105 -7.70737,-4.72555 -1.26535,-0.82415 -2.51087,-1.65698 -3.75515,-2.51707 -5.00688,-3.44409 -9.85884,-7.1695 -14.56209,-11.19112 -1.16744,-0.99765 -2.3386,-2.02629 -3.48622,-3.05989 -0.006,-0.006 -0.0322,0.006 -0.0384,0 -1.15381,-1.03856 -2.2754,-2.10066 -3.40815,-3.1764 -1.13274,-1.07449 -2.25929,-2.17997 -3.36972,-3.29165 -5.61787,-5.61786 -10.75116,-11.51829 -15.45316,-17.66039 -0.78202,-1.02245 -1.52809,-2.02382 -2.28532,-3.0599 -6.81753,-9.31973 -12.627494,-19.16122 -17.387746,-29.35716 L 201.6872,264.42123 m 189.15835,36.36679 0,77.4207 c 14.93388,-16.40372 26.97146,-35.47199 35.3208,-56.42776 -0.30983,-0.3371 -0.61719,-0.67543 -0.9295,-1.00757 -10.63218,-11.29646 -21.47752,-18.79562 -34.3913,-19.97794"
     inkscape:connector-curvature="0"
     style="fill:#1793D1" />
  <text
     id="text382"
     font-size="4847.5"
     line-height="125%"
     y="1209.21"
     x="-27704.54"
     font-family="Gentium Book Basic"
     word-spacing="0"
     letter-spacing="0">
    <tspan
       id="tspan384"
       y="1209.21"
       x="-27704.54" />
  </text>
  <text
     id="text386"
     transform="scale(4.0128 .2492)"
     font-size="1761.4"
     y="-8245.29"
     x="488.95"
     font-family="Arial"
     text-anchor="middle" />
  <text
     id="text388"
     font-size="4847.5"
     line-height="125%"
     y="2121.1"
     x="-27839.26"
     font-family="Gentium Book Basic"
     word-spacing="0"
     letter-spacing="0">
    <tspan
       id="tspan390"
       y="2121.1"
       x="-27839.26" />
  </text>
  <text
     id="text392"
     transform="scale(4.0128 .2492)"
     font-size="1761.4"
     y="-4586.1"
     x="455.42"
     font-family="Arial"
     text-anchor="middle" />
  <g
     id="g394"
     fill="#555753">
    <text
       id="text396"
       transform="scale(1.0508 .95163)"
       line-height="125%"
       font-size="2975.6"
       y="-4932.81"
       x="-13349.95"
       font-family="Gentium Book Basic"
       word-spacing="0"
       letter-spacing="0">
      <tspan
         id="tspan398"
         y="-4932.81"
         x="-13349.95" />
    </text>
    <text
       id="text400"
       transform="scale(4.2168 .23715)"
       font-size="1081.3"
       y="-27834.31"
       x="1211.27"
       font-family="Arial"
       text-anchor="middle" />
    <text
       id="text402"
       transform="scale(1.0508 .95163)"
       line-height="125%"
       font-size="1592.9"
       y="-5757.68"
       x="-3948.82"
       font-family="Gentium Book Basic"
       word-spacing="0"
       letter-spacing="0">
      <tspan
         id="tspan404"
         y="-5757.68"
         x="-3948.82" />
    </text>
    <text
       id="text406"
       transform="scale(4.2168 .23715)"
       font-size="578.78"
       y="-27408.26"
       x="1445.33"
       font-family="Arial"
       text-anchor="middle" />
    <text
       id="text408"
       font-size="4653.7"
       line-height="125%"
       y="-1903.88"
       x="-40036.84"
       font-family="Gentium Book Basic"
       word-spacing="0"
       letter-spacing="0">
      <tspan
         id="tspan410"
         y="-1903.88"
         x="-40036.84" />
    </text>
    <text
       id="text412"
       transform="scale(4.0128 .2492)"
       font-size="1690.9"
       y="-20213.15"
       x="-2879.85"
       font-family="Arial"
       text-anchor="middle" />
  </g>
  <g
     id="g414">
    <text
       id="text416"
       stroke-width="23.268"
       font-size="4847.5"
       line-height="125%"
       stroke="#cd1d31"
       y="-14128.22"
       x="-25856.32"
       font-family="Gentium Book Basic"
       word-spacing="0"
       letter-spacing="0">
      <tspan
         id="tspan418"
         y="-14128.22"
         x="-25856.32" />
    </text>
    <text
       id="text420"
       transform="scale(4.0128 .2492)"
       font-size="1761.4"
       y="-69791.79"
       x="949.66"
       font-family="Arial"
       text-anchor="middle" />
    <text
       id="text422"
       stroke-width="23.268"
       font-size="4847.5"
       line-height="125%"
       stroke="#cd1d31"
       y="-13216.33"
       x="-25991.28"
       font-family="Gentium Book Basic"
       word-spacing="0"
       letter-spacing="0">
      <tspan
         id="tspan424"
         y="-13216.33"
         x="-25991.28" />
    </text>
    <text
       id="text426"
       transform="scale(4.0128 .2492)"
       font-size="1761.4"
       y="-66132.37"
       x="916"
       font-family="Arial"
       text-anchor="middle" />
  </g>
  <g
     id="g428"
     fill="#555753"
     transform="matrix(23.268 0 0 23.268 -581.38 -175.73)"
     stroke="#cd1d31">
    <text
       id="text430"
       transform="scale(1.0508 .95163)"
       line-height="125%"
       font-size="127.88"
       y="-896.71"
       x="-474.37"
       font-family="Gentium Book Basic"
       word-spacing="0"
       letter-spacing="0">
      <tspan
         id="tspan432"
         y="-896.71"
         x="-474.37" />
    </text>
    <text
       id="text434"
       transform="scale(4.2168 .23715)"
       font-size="46.47"
       y="-3943.87"
       x="76.82"
       font-family="Arial"
       text-anchor="middle" />
    <text
       id="text436"
       transform="scale(1.0508 .95163)"
       line-height="125%"
       font-size="68.46"
       y="-932.16"
       x="-70.35"
       font-family="Gentium Book Basic"
       word-spacing="0"
       letter-spacing="0">
      <tspan
         id="tspan438"
         y="-932.16"
         x="-70.35" />
    </text>
    <text
       id="text440"
       transform="scale(4.2168 .23715)"
       font-size="24.874"
       y="-3925.56"
       x="86.87"
       font-family="Arial"
       text-anchor="middle" />
    <text
       id="text442"
       font-size="200"
       line-height="125%"
       y="-733.42"
       x="-1616.23"
       font-family="Gentium Book Basic"
       word-spacing="0"
       letter-spacing="0">
      <tspan
         id="tspan444"
         y="-733.42"
         x="-1616.23" />
    </text>
  </g>
  <text
     id="text446"
     transform="scale(4.0128 .2492)"
     font-size="1690.9"
     y="-81759.64"
     x="-2419.36"
     font-family="Arial"
     fill="#555753"
     text-anchor="middle" />
  <g
     id="g448">
    <text
       id="text450"
       stroke-width="23.268"
       font-size="4653.7"
       line-height="125%"
       stroke="#cd1d31"
       y="-20816.52"
       x="-8883.58"
       font-family="Gentium Book Basic"
       word-spacing="0"
       letter-spacing="0">
      <tspan
         id="tspan452"
         y="-20816.52"
         x="-8883.58" />
    </text>
    <text
       id="text454"
       transform="scale(4.0128 .2492)"
       font-size="1690.9"
       y="-96106.23"
       x="4883.42"
       font-family="Arial"
       text-anchor="middle" />
    <text
       id="text456"
       stroke-width="23.268"
       font-size="4653.7"
       line-height="125%"
       stroke="#cd1d31"
       y="-23697.62"
       x="12049.23"
       font-family="Gentium Book Basic"
       word-spacing="0"
       letter-spacing="0">
      <tspan
         id="tspan458"
         y="-23697.62"
         x="12049.23" />
    </text>
    <text
       id="text460"
       transform="scale(4.0128 .2492)"
       font-size="1690.9"
       y="-107667.36"
       x="10099.96"
       font-family="Arial"
       text-anchor="middle" />
  </g>
  <path
     id="path462"
     d="m 378.47584,234.22629 -18.22429,0 0,173.4313 c -9.68162,-5.81864 -22.38223,-9.44491 -36.44858,-9.44491 -30.1714,0 -54.65429,16.29962 -54.65429,36.44859 0,20.14896 24.48661,36.44858 54.65429,36.44858 30.17139,0 54.65428,-16.29962 54.65428,-36.44858 l 0,-145.76955 c 45.55391,-7.40249 72.88229,45.55392 91.10286,72.8823 C 458.17566,234.23496 378.45725,234.23496 378.45725,234.23496"
     inkscape:connector-curvature="0"
     style="fill:#1793D1" />
</svg>
